estate_eunuchs_land_rights = {
	icon = privilege_grant_autonomy
	land_share = 5
	max_absolutism = -5
	loyalty = 0.05
	influence = 0.05
	can_select = {
	}
	on_granted = {
	}
	penalties = {
	}
	benefits = {
		governing_capacity = 100
	}
	ai_will_do = {
		factor = 5
		modifier = {
			factor = 1.4
			num_of_territories = 5
		}
		modifier = {
			factor = 1.5
			num_of_territories = 10
		}
		modifier = {
			factor = 1.5
			num_of_territories = 15
		}
		modifier = {
			factor = 0
			OR = {
				NOT = { crown_land_share = 25 }
				estate_influence = {
					estate = estate_eunuchs
					influence = 75
				}
			}
			NOT = { has_estate_privilege = estate_eunuchs_land_rights }
		}
		modifier = {
			factor = 3
			OR = {
				AND = {
					governing_capacity_percentage = 0.9
					NOT = { has_estate_privilege = estate_eunuchs_land_rights }
				}
				#The trigger below should make sure that the AI actually keeps this privilege when enacting it early game
				AND = {
					governing_capacity_percentage = 0.6
					has_estate_privilege = estate_eunuchs_land_rights
				}
			}
		}
		modifier = {
			factor = 0
			NOT = { governing_capacity_percentage = 0.5 }
		}
		modifier = {
			factor = 0.8
			OR = {
				NOT = { crown_land_share = 40 }
				AND = {
					is_absolutism_active = yes
					NOT = { crown_land_share = 60 }
				}
			}
			NOT = { has_estate_privilege = estate_eunuchs_land_rights }
		}
		modifier = {
			factor = 0.8
			OR = {
				NOT = { crown_land_share = 30 }
				AND = {
					is_absolutism_active = yes
					NOT = { crown_land_share = 50 }
				}
			}
			NOT = { has_estate_privilege = estate_eunuchs_land_rights }
		}
		modifier = {
			factor = 0.8
			is_absolutism_active = yes
		}
		modifier = {
			factor = 2
			governing_capacity_percentage = 0.9
		}
		modifier = {
			factor = 3
			governing_capacity_percentage = 1
		}
		modifier = {
			factor = 10
			governing_capacity_percentage = 1.2
		}
		modifier = {
			factor = 8
			NOT = { adm_tech = 12 }
			governing_capacity_percentage = 0.8
		}
		modifier = {
			factor = 5
			NOT = { adm_tech = 12 }
			NOT = { government_rank = 1 }
			governing_capacity_percentage = 0.65
		}
		#Tag specific convincement - after tech 17 (+250 governing capacity) it should not play a role anymore
		#Anbennar - no vanilla tag
		# modifier = {
			# factor = 1.25
			# tag = MOS
			# NOT = { adm_tech = 17 }
		# }
		# modifier = {
			# factor = 1.25
			# tag = RUS
			# NOT = { adm_tech = 17 }
		# }
		# modifier = {
			# factor = 1.25
			# tag = TUR
			# NOT = { adm_tech = 17 }
		# }
		# modifier = {
			# factor = 1.25
			# tag = MNG
			# NOT = { adm_tech = 17 }
		# }
		# modifier = {
			# factor = 1.25
			# tag = FRA
			# NOT = { adm_tech = 17 }
		# }
		# modifier = {
			# factor = 1.25
			# tag = SPA
			# NOT = { adm_tech = 17 }
		# }
		# modifier = {
			# factor = 1.25
			# tag = PLC
			# NOT = { adm_tech = 17 }
		# }
		#Has already a similar privilege active
		modifier = {
			factor = 0.75
			has_estate_privilege = estate_brahmins_land_rights
		}
		modifier = {
			factor = 0.75
			has_estate_privilege = estate_church_land_rights
		}
		modifier = {
			factor = 0.75
			has_estate_privilege = estate_maratha_land_rights
		}
		modifier = {
			factor = 0.75
			has_estate_privilege = estate_burghers_land_rights
		}
		modifier = {
			factor = 0.75
			has_estate_privilege = estate_vaisyas_land_rights
		}
		modifier = {
			factor = 0.75
			has_estate_privilege = estate_cossacks_land_rights
		}
		modifier = {
			factor = 0.75
			has_estate_privilege = estate_nomadic_tribes_land_rights
		}
		modifier = {
			factor = 0.75
			has_estate_privilege = estate_dhimmi_land_rights
		}
		modifier = {
			factor = 0.75
			has_estate_privilege = estate_jains_land_rights
		}
		modifier = {
			factor = 0.75
			has_estate_privilege = estate_rajput_land_rights
		}
	}
}

estate_eunuch_legal_expertise = {
	icon = privilege_seek_support_of_clergy
	max_absolutism = -5
	loyalty = -0.05
	land_share = 10
	can_select = {
		NOT = { has_estate_privilege = estate_eunuch_trade_expertise }
		NOT = { has_estate_privilege = estate_eunuch_war_expertise }
	}
	penalties = {
		
	}
	benefits = {
		country_admin_power = 1
	}
	on_revoked = {
		#Add unrest
	}
	ai_will_do = {
		factor = 10
		modifier = {
			factor = 0
			is_absolutism_active = yes
		}
	}
}

estate_eunuch_trade_expertise = {
	icon = privilege_seek_support_of_clergy
	max_absolutism = -5
	loyalty = -0.05
	land_share = 10
	can_select = {
		NOT = { has_estate_privilege = estate_eunuch_war_expertise }
		NOT = { has_estate_privilege = estate_eunuch_legal_expertise }
	}
	penalties = {
		
	}
	benefits = {
		country_diplomatic_power = 1
	}
	on_revoked = {
		#Add unrest
	}
	ai_will_do = {
		factor = 10
		modifier = {
			factor = 0
			is_absolutism_active = yes
		}
	}
}

estate_eunuch_war_expertise = {
	icon = privilege_seek_support_of_clergy
	max_absolutism = -5
	loyalty = -0.05
	land_share = 10
	can_select = {
		NOT = { has_estate_privilege = estate_eunuch_trade_expertise }
		NOT = { has_estate_privilege = estate_eunuch_legal_expertise }
	}
	penalties = {
		
	}
	benefits = {
		country_military_power = 1
	}
	on_revoked = {
		#Add unrest
	}
	ai_will_do = {
		factor = 10
		modifier = {
			factor = 0
			is_absolutism_active = yes
		}
	}
}

estate_eunuch_generals = {
	icon = privilege_build_jain_temple
	max_absolutism = -5
	influence = 0.05
	can_select = {
		NOT = { 
			has_estate_privilege = estate_nobles_officer_corp 
			has_estate_privilege = estate_uppercastes_officer_corp
			has_estate_privilege = estate_nomadic_tribes_guaranteed_leadgership_in_host
			has_estate_privilege = estate_nobles_jiangdu_officer_corp
			# has_estate_privilege = estate_lion_command_ninyu_kikun_officers
		}
	}
	benefits = {
		leader_cost = -0.25
		free_leader_pool = 1
	}
	ai_will_do = {
		factor = 0
	}
}

estate_eunuch_advisors = {
	icon = privilege_royal_authority
	max_absolutism = -5
	loyalty = 0.05
	influence = 0.1
	land_share = 10
	can_select = {
		NOT = { 
			has_estate_privilege = estate_nobles_advisors 
			has_estate_privilege = estate_church_independent_inquisition
			has_estate_privilege = estate_burghers_commercial_board_of_advice
			# has_estate_privilege = estate_brahmins_brahmin_leadership
			# has_estate_privilege = estate_maratha_advisor
			# has_estate_privilege = estate_rajput_advisor
			# has_estate_privilege = estate_vaisyas_advisor
		}
	}
	benefits = {
		advisor_cost = -0.1
	}
	penalties = {
		stability_cost_modifier = 0.1
	}
	ai_will_do = {
		factor = 0
	}
}

estate_eunuchs_trained_army = {
	icon = privilege_grant_new_world_charter
	max_absolutism = -5
	influence = 0.05
	penalties = {
		army_tradition_decay = 0.01
	}
	benefits = {
		drill_gain_modifier = 0.25
	}
	ai_will_do = {
		factor = 0
	}
}

estate_eunuch_dominance_over_bureaucracy = {
	icon = privilege_give_money
	max_absolutism = -10
	influence = 0.2
	loyalty = 0.05
	is_valid = {
		has_dlc = "Emperor"
	}
	modifier_by_land_ownership = {
		administrative_efficiency = 0.15
		yearly_corruption = 0.1
    }
	ai_will_do = {
		factor = 1
		modifier = {
			factor = 0
			is_absolutism_active = yes
		}
	}
}

estate_eunuch_tutors = {
	icon = privilege_supply_arms
	max_absolutism = -5
	influence = 0.1
	loyalty = 0.05
	can_select = {
		#government = monarchy
		always = no 
	}
	penalties = {
	}
	benefits = {
	}
	on_granted = {
		custom_tooltip = estate_eunuchs_heir_tutor_tt
	}
	on_revoked = {
	}
	ai_will_do = {
		factor = 1
		modifier = {
			factor = 0
			is_absolutism_active = yes
		}
	}
}

estate_eunuchs_eternal_court = {
	icon = privilege_supply_arms
	influence = -0.1
	loyalty = 0.1
	can_select = {
		has_reform = eternal_council
	}
	is_valid = {
		has_reform = eternal_council
	}
	can_revoke = {
		NOT = { has_reform = eternal_council }
	}
	penalties = {
	}
	benefits = {
	}
	on_granted = {
	}
	on_revoked = {
	}
	ai_will_do = {
		factor = 1
		# modifier = {
		# 	factor = 0
		# 	is_absolutism_active = yes
		# }
	}
}