
balrijin_1 = {
	slot = 1
	generic = no
	ai = yes
	potential = {
		tag = Y85
	}
	has_country_shield = yes
	
	Y85_reaching_out = {
		icon = mission_diplomacy_missive
		required_missions = { }
		position = 1
		
		provinces_to_highlight = {
			continent = asia
			has_kobold_minority_trigger = yes
			NOT = { country_or_non_sovereign_subject_holds = ROOT }
		}
		
		trigger = {
			has_estate_privilege = estate_church_religious_diplomats
			calc_true_if = {
				all_country = {
					any_owned_province = {
						has_kobold_minority_trigger = yes
					}
					has_opinion = {
						who = ROOT
						value = 100
					}
				}
				amount = 2
			}
		}
		
		effect = {
			add_country_modifier = {
				name = Y85_empowered_golden_tongue
				duration = 9125
			}
			define_advisor = {
				type = diplomat
				name = "Ekill of The Goldtongue"
				skill = 1
				discount = yes
			}
			define_advisor = {
				type = statesman
				name = "Dhank of The Goldtongue"
				skill = 1
				discount = yes
			}
		}
	}
	
	Y85_opening_migration = {
		icon = mission_alliances
		required_missions = { Y85_reaching_out }
		position = 2
		
		provinces_to_highlight = {
			continent = asia
			OR = {
				has_kobold_minority_trigger = yes
				owner = {
					OR = {
						has_reform = wulin
						tag = Y99
					}
				}
			}
			NOT = { country_or_non_sovereign_subject_holds = ROOT }
		}
		
		trigger = {
			calc_true_if = {
				all_country = {
					any_owned_province = {
						has_kobold_minority_trigger = yes
					}
					alliance_with = ROOT
				}
				amount = 3
			}
			any_ally = {
				OR = {
					has_reform = wulin
					tag = Y99
				}
			}
		}
		
		effect = {
			custom_tooltip = Y85_golden_hq_allowed_tt
			set_country_flag = Y85_golden_hq_allowed_flag
			add_dip_power = 100
			every_country = {
				limit = {
					alliance_with = ROOT
					any_owned_province = {
						has_kobold_minority_trigger = yes
					}
				}
				add_trust = {
					who = ROOT
					value = 10
					mutual = yes
				}
				random_owned_province	= {
					limit = { has_kobold_minority_trigger = yes }
					add_base_production = 1
				}
			}
			if = {
				limit = {
					any_country = {
						alliance_with = ROOT
						has_country_modifier = harimari_administration
					}
				}
				4976 = {
					add_harimari_minority_size_effect = yes
				}
			}	
			4976 = {
				add_human_minority_size_effect = yes
			}
		}
	}
	
	Y85_martial_arts_exchange = {
		icon = mission_japanese_samurai
		required_missions = { Y85_opening_migration Y85_reinstitute_dragon_dances }
		position = 4
		
		provinces_to_highlight = {
			owner = {
				OR = {
					has_reform = wulin
					tag = Y99
				}
			}
		}
		
		trigger = {
			employed_advisor = {
				type = army_reformer
			}
			any_ally = {
				OR = {
					has_reform = wulin
					tag = Y99
				}
			}
			custom_trigger_tooltip = {
				tooltip = Y85_second_dragondance_tt
				has_country_flag = Y85_second_dragondance_flag
			}
		}
		
		effect = {
			small_increase_of_human_tolerance_effect = yes
			create_general = { tradition = 60 }
			add_country_modifier = {
				name = Y85_influx_of_military_advisors
				duration = 3650
			}
			add_country_modifier = {
				name = Y85_xia_lessons
				duration = 7300
			}
		}
	}
	
	Y85_xiadao_goldscale_temple = {
		icon = mission_hands_praying
		required_missions = { Y85_martial_arts_exchange }
		position = 5
		
		provinces_to_highlight = {
			province_id = 4559
			NOT = { owned_by = ROOT }
			NOT = { owner = { alliance_with = ROOT } }
		}
		
		trigger = {
			OR = {
				any_country = {
					alliance_with = ROOT
					owns = 4559
				}
				owns = 4559
			}
			custom_trigger_tooltip = {
				tooltip = Y85_second_dragondance3_tt
				has_country_flag = Y85_third_dragondance_flag
			}
		}
		
		effect = {
			if = {
				limit = {
					Y28 = { owns_core_province = 4559 }
				}
				add_historical_friend = Y28
				Y28 = { add_historical_friend = ROOT }
			}
			4559 = {
				add_kobold_minority_size_effect = yes
				add_base_manpower = 1
			}
			add_country_modifier = {
				name = Y85_kobold_lessons
				duration = 7300
			}
			every_country = {
				limit = { owns = 4559 }
				add_country_modifier = {
					name = Y85_kobold_lessons
					duration = 7300
				}
			}
		}
	}
	
	Y85_forming_the_orders = {
		icon = balance_the_estates
		required_missions = { Y85_xiadao_goldscale_temple }
		position = 6
		
		provinces_to_highlight = {
			OR = {
				province_id = 4844
				province_id = 4974
			}
			NOT = {
				AND = {
					owned_by = ROOT
					is_core = ROOT
				}
			}
		}
		
		trigger = {
			owns_core_province = 4844
			owns_core_province = 4974
			custom_trigger_tooltip = {
				tooltip = Y85_second_dragondance4_tt
				has_country_flag = Y85_fourth_dragondance_flag
			}
		}
		
		effect = {
			set_country_flag = Y85_smouldering_kindled_hqs_allowed_flag
			custom_tooltip = Y85_smouldering_kindled_hqs_allowed_tt
			add_mil_power = 100
		}
	}
	
	Y85_integrate_human_auxillaries = {
		icon = mission_non-western_cavalry_raid
		required_missions = { Y85_forming_the_orders }
		position = 7
		
		provinces_to_highlight = {
			province_id = 4856
			NOT = {
				AND = {
					owned_by = ROOT
					is_core = ROOT
				}
			}
		}
		
		trigger = {
			mil_tech = 6
			high_tolerance_human_race_trigger = yes
			calc_true_if = {
				amount = 2
				accepted_culture = river_yan
				accepted_culture = hill_yan
				accepted_culture = western_yan
				accepted_culture = coastal_yan
				accepted_culture = forest_yan
				accepted_culture = northern_yan
				accepted_culture = southern_yan
				accepted_culture = eastern_yan
				accepted_culture = daxug
				accepted_culture = kuldaakin
			}
			custom_trigger_tooltip = {
				tooltip = Y85_second_dragondance5_tt
				has_country_flag = Y85_fifth_dragondance_flag
			}
			owns_core_province = 4856
		}
		
		effect = {
			add_country_modifier = {
				name = Y85_human_cavalry_auxilaries
				duration = -1
			}
			set_country_flag = balrijin_golden_lancers_mercs_flag
			custom_tooltip = balrijin_golden_lancers_mercs_reward_tt
		}
	}
	
	Y85_a_new_status_quo = {
		icon = mission_warrior_gold
		required_missions = { Y85_integrate_human_auxillaries }
		position = 8
		
		provinces_to_highlight = {
			OR = {
				AND = {
					province_id = 4844
					NOT = {
						has_province_modifier = Y85_smouldering_hq_modifier
						has_province_modifier = Y85_smouldering_hq_modifier2
						has_province_modifier = Y85_smouldering_hq_modifier3
					}
				}
				AND = {
					province_id = 4974
					NOT = {
						has_province_modifier = Y85_kindled_hq_modifier
						has_province_modifier = Y85_kindled_hq_modifier2
						has_province_modifier = Y85_kindled_hq_modifier3
					}
				}
				AND = {
					OR = {
						province_id = 4856
						province_id = 4844
						province_id = 4974
					}
					NOT = {
						AND = {
							owned_by = ROOT
							is_core = ROOT
							controlled_by = ROOT
						}
					}
				}
			}
		}
		
		trigger = {
			custom_trigger_tooltip = {
				tooltip = Y85_military_hqs_built_tt
				4844 = {
					OR = {
						has_province_modifier = Y85_smouldering_hq_modifier
						has_province_modifier = Y85_smouldering_hq_modifier2
						has_province_modifier = Y85_smouldering_hq_modifier3
					}
				}
				4974 = {
					OR = {
						has_province_modifier = Y85_kindled_hq_modifier
						has_province_modifier = Y85_kindled_hq_modifier2
						has_province_modifier = Y85_kindled_hq_modifier3
					}
				}
			}
			custom_trigger_tooltip = {
				tooltip = Y85_military_balance_struck_tt
				has_country_flag = Y85_military_balance_struck_flag
			}
			4856 = {
				owned_by = ROOT
				is_core = ROOT
				controlled_by = ROOT
			}
			4844 = {
				owned_by = ROOT
				is_core = ROOT
				controlled_by = ROOT
			}
			4974 = {
				owned_by = ROOT
				is_core = ROOT
				controlled_by = ROOT
			}
		}
		
		effect = {
			add_country_modifier = {
				name = Y85_reformed_clan_military_system
				duration = 10950
			}
			add_country_modifier = {
				name = Y85_two_clan_system
				duration = -1
			}
		}
	}
}

balrijin_2 = {
	slot = 2
	generic = no
	ai = yes
	potential = {
		tag = Y85
	}
	has_country_shield = yes
	
	Y85_awaken_smouldering_clan = {
		icon = mission_integrate_the_purbias
		required_missions = { Y85_demand_access_to_hills }
		position = 2
		
		trigger = {
			at_war_with_religious_enemy = yes
			war_score = 25
		}
		
		effect = {
			custom_tooltip = Y85_smouldering_clan_awakened_tt
			set_country_flag = Y85_smouldering_clan_awakened
			country_event = { id = flavour_balrijin.1 }
		}
	}
	
	Y85_reinstitute_dragon_dances = {
		icon = mission_defy_the_dragon
		required_missions = { Y85_awaken_smouldering_clan }
		position = 3
		
		trigger = {
			is_at_war = no
			employed_advisor = {
				type = army_reformer
			}
		}
		
		effect = {
			country_event = { id = flavour_balrijin.2 }
		}
	}
	
	Y85_great_knowing_eye = {
		icon = mission_magic_tower
		required_missions = { Y85_a_new_clue }
		position = 4
		
		provinces_to_highlight = {
			province_id = 4976
			NOT = {
				has_province_modifier = Y85_knowing_hq_modifier
				has_province_modifier = Y85_knowing_hq_modifier2
				has_province_modifier = Y85_knowing_hq_modifier3
			}
		}
		
		trigger = {
			4976 = {
				OR = {
					has_province_modifier = Y85_knowing_hq_modifier
					has_province_modifier = Y85_knowing_hq_modifier2
					has_province_modifier = Y85_knowing_hq_modifier3
				}
			}
			adm_power = 100
			estate_loyalty = {
				estate = estate_mages
				loyalty = 40
			}
			estate_influence = {
				estate = estate_mages
				influence = 35
			}
		}
		
		effect = {
			country_event = { id = flavour_balrijin.8 }
			custom_tooltip = Y85_divination_school_tt
		}
	}
	
	Y85_phokhao_expedition = {
		icon = mission_extent_yasak_to_the_east
		required_missions = { Y85_northern_oni_hills }
		position = 6
		
		provinces_to_highlight = {
			OR = {
				province_id = 4808
				province_id = 4824
				province_id = 4982
				province_id = 4835
				province_id = 4836
				province_id = 4752
				province_id = 4754
				province_id = 4756
				province_id = 4775
				province_id = 4776
				province_id = 4942
				province_id = 4777
				province_id = 4783
			}
			NOT = { infantry_in_province = ROOT }
		}
		
		trigger = {
			manpower = 5
			treasury = 300
			calc_true_if = {
				4808 = {
					#infantry_in_province = 1
					infantry_in_province = ROOT
				}
				4824 = {
					#infantry_in_province = 1
					infantry_in_province = ROOT
				}
				4982 = {
					#infantry_in_province = 1
					infantry_in_province = ROOT
				}
				4835 = {
					#infantry_in_province = 1
					infantry_in_province = ROOT
				}
				4836 = {
					#infantry_in_province = 1
					infantry_in_province = ROOT
				}
				4752 = {
					#infantry_in_province = 1
					infantry_in_province = ROOT
				}
				4754 = {
					#infantry_in_province = 1
					infantry_in_province = ROOT
				}
				4756 = {
					#infantry_in_province = 1
					infantry_in_province = ROOT
				}
				4775 = {
					#infantry_in_province = 1
					infantry_in_province = ROOT
				}
				4776 = {
					#infantry_in_province = 1
					infantry_in_province = ROOT
				}
				4942 = {
					#infantry_in_province = 1
					infantry_in_province = ROOT
				}
				4777 = {
					#infantry_in_province = 1
					infantry_in_province = ROOT
				}
				4783 = {
					#infantry_in_province = 1
					infantry_in_province = ROOT
				}
				amount = 6
			}
		}
		
		effect = {
			country_event = { id = flavour_balrijin.9 days = 365 }
		}
	}
	
	Y85_ozovari_contacts = {
		icon = mission_mechanical_mining
		required_missions = { Y85_phokhao_expedition }
		position = 7
		
		provinces_to_highlight = {
			province_id = 5424
			NOT = { country_or_non_sovereign_subject_holds = ROOT }
		}
		
		trigger = {
			custom_trigger_tooltip = {
				tooltip = Y85_phokhao_finished_tt
				has_country_flag = Y85_phokhao_finished_flag
			}
			OR = {
				alliance_with = Y63
				reverse_has_opinion = {
					who = Y63
					value = 100
				}
				employed_advisor = {
					culture = nephrite_dwarf
				}
				5424 = { country_or_non_sovereign_subject_holds = ROOT }
				5424 = {
					owner = {
						alliance_with = ROOT
					}
				}
			}
		}
		
		effect = {
			country_event = { id = flavour_balrijin.10 }
		}
	}
}

balrijin_3 = {
	slot = 3
	generic = no
	ai = yes
	potential = {
		tag = Y85
	}
	has_country_shield = yes
	
	Y85_demand_access_to_hills = {
		icon = claim_the_borderlands
		required_missions = { }
		position = 1
		
		trigger = {
			army_size_percentage = 1
			if = {
				limit = {
					4976 = {
						owned_by = Y02
					}
					4852 = {
						owned_by = Y02
					}
					4851 = {
						owned_by = Y02
					}
				}
				has_spy_network_in = {
					who = Y02
					value = 10
				}
			}
		}
		
		effect = {
			country_event = { id = flavour_balrijin.11 }
		}
	}
	
	Y85_jinqiu_hills = {
		icon = alpine_fortifications
		required_missions = { Y85_demand_access_to_hills }
		position = 2
		
		provinces_to_highlight = {
			OR = {
				area = balrijin_area
				area = jinqiu_area
				province_id = 4851
			}
			NOT = { owned_by = ROOT }
		}
		
		trigger = {
			balrijin_area = {
				type = all
				owned_by = ROOT
			}
			jinqiu_area = {
				type = all
				owned_by = ROOT
			}
			owns = 4851
		}
		
		effect = {
			country_event = { id = flavour_balrijin.13 }
		}
	}
	
	Y85_a_new_clue = {
		icon = found_the_vatican_library
		required_missions = { Y85_jinqiu_hills }
		position = 3
		
		provinces_to_highlight = {
			province_id = 4842
			NOT = { controlled_by = ROOT }
		}
		
		trigger = {
			OR = {
				controls = 4842
				any_known_country = {
					owns = 4842
					OR = {
						has_opinion = {
							who = ROOT
							value = 100
						}
						has_spy_network_from = {
							who = ROOT
							value = 20
						}
					}
				}
			}
		}
		
		effect = {
			country_event = { id = flavour_balrijin.14 }
		}
	}
	
	Y85_into_unbeksu = {
		icon = mission_oni
		required_missions = { Y85_a_new_clue }
		position = 4
		
		provinces_to_highlight = {
			OR = {
				area = unbeksu_area
				province_id = 4815
				area = moryokang_area
			}
			NOT = { country_or_non_sovereign_subject_holds = ROOT }
		}
		
		trigger = {
			unbeksu_area = {
				type = all
				country_or_non_sovereign_subject_holds = ROOT
			}
			4815 = { country_or_non_sovereign_subject_holds = ROOT }
			moryokang_area = {
				type = all
				country_or_non_sovereign_subject_holds = ROOT
			}
		}
		
		effect = {
			country_event = { id = flavour_balrijin.15 }
		}
	}
	
	Y85_northern_oni_hills = {
		icon = mission_fortify_rajputana
		required_missions = { Y85_great_knowing_eye Y85_into_unbeksu }
		position = 5
		
		provinces_to_highlight = {
			OR = {
				area = sugroltona_area
				area = yambioka_area
				province_id = 4833
			}
			NOT = { country_or_non_sovereign_subject_holds = ROOT }
		}
		
		trigger = {
			sugroltona_area = {
				type = all
				country_or_non_sovereign_subject_holds = ROOT
			}
			yambioka_area = {
				type = all
				country_or_non_sovereign_subject_holds = ROOT
			}
			4833 = { country_or_non_sovereign_subject_holds = ROOT }
		}
		
		effect = {
			country_event = { id = flavour_balrijin.16 }
		}
	}
	
	Y85_send_out_word = {
		icon = mission_jungle_pilgrim
		required_missions = { Y85_northern_oni_hills }
		position = 6
		
		provinces_to_highlight = {
			has_institution = printing_press
		}
		
		trigger = {
			employed_advisor = {
				type = diplomat
			}
			OR = {
				has_institution = printing_press
				treasury = 200
			}
			dip_power = 100
		}
		
		effect = {
			if = {
				limit = {
					NOT = {
						has_institution = printing_press
					}
				}
				add_treasury = -200
			}
			add_dip_power = -100
			country_event = { id = flavour_balrijin.17 }
		}
	}
	
	Y85_jade_mountains = {
		icon = mission_extent_yasak_to_the_east
		required_missions = { Y85_send_out_word Y85_phokhao_expedition }
		position = 7
		
		provinces_to_highlight = {
			OR = {
				province_id = 4973
				province_id = 4834
				province_id = 4833
			}
			NOT = { country_or_non_sovereign_subject_holds = ROOT }
		}
		
		trigger = {
			NOT = { has_country_modifier = Y85_ears_everywhere }
			OR = {
				4973 = { country_or_non_sovereign_subject_holds = ROOT }
				4834 = { country_or_non_sovereign_subject_holds = ROOT }
				4833 = { country_or_non_sovereign_subject_holds = ROOT }
			}
			treasury = 500
			mil_power = 100
			manpower = 5
		}
		
		effect = {
			add_treasury = -500
			add_inflation  = 2
			add_mil_power = -100
			add_manpower = -5
			country_event = { id = flavour_balrijin.18 }
			add_country_modifier = {
				name = Y85_fledgeling_expedition
				duration = -1
			}
		}
	}
	
	Y85_balkhangfa_palace = {
		icon = mission_che_the_cave_country
		required_missions = { Y85_ozovari_contacts Y85_jade_mountains }
		position = 8
		
		provinces_to_highlight = {
			province_id = 4976
			NOT = {
				AND = {
					owned_by = ROOT
					is_core = ROOT
				}
			}
		}
		
		trigger = {
			custom_trigger_tooltip = {
				tooltip = Y85_balris_found_tt
				has_country_flag = Y85_balris_found
			}
			owns_core_province = 4976
			treasury = 250
			adm_power = 100
			manpower = 2
		}
		
		effect = {
			add_treasury = -250
			add_inflation  = 1
			add_mil_power = -100
			add_manpower = -1
			country_event = { id = flavour_balrijin.22 }
		}
	}
	
	Y85_warming_a_lonely_heart = {
		icon = mission_solaris
		required_missions = { Y85_a_new_status_quo Y85_balkhangfa_palace Y85_shinukhorchi_purification Y85_merge_foreign_diplomacy }
		position = 9
		
		provinces_to_highlight = {
			OR = {
				AND = {
					has_dlc = "Leviathan"
					province_id = 4976
					NOT = {
						has_great_project = {
							type = balkhangfa_palace
							tier = 1
						}
						has_great_project = {
							type = balkhangfa_palace
							tier = 2
						}
						has_great_project = {
							type = balkhangfa_palace
							tier = 3
						}
					}
				}
				AND = {
					NOT = { has_dlc = "Leviathan" }
					province_id = 4976
					NOT = { development = 40 }
				}
				AND = {
					province_id = 4976
					NOT = {
						AND = {
							owned_by = ROOT
							is_core = ROOT
						}
					}
				}
			}
		}
		
		trigger = {
			has_church_aspect = teachings_of_balris
			if = {
				limit = { has_dlc = "Leviathan" }
				4976 = {
					OR = {
						has_great_project = {
							type = balkhangfa_palace
							tier = 1
						}
						has_great_project = {
							type = balkhangfa_palace
							tier = 2
						}
						has_great_project = {
							type = balkhangfa_palace
							tier = 3
						}
					}
				}
			}
			else = {
				4976 = { development = 40 }
			}
			owns_core_province = 4976
			custom_trigger_tooltip = {
				tooltip = Y85_strong_feast_tt
				OR = {
					#has_country_modifier = magic_realm_conjuration_magnificent_feast_1
					#has_country_modifier = magic_realm_conjuration_magnificent_feast_2
					has_country_modifier = magic_realm_conjuration_magnificent_feast_3
					#has_country_modifier = magic_estate_magnificent_feast_1
					#has_country_modifier = magic_estate_magnificent_feast_2
					has_country_modifier = magic_estate_magnificent_feast_3
				}
			}
		}
		
		effect = {
			country_event = { id = flavour_balrijin.47 }
		}
	}
}

balrijin_4 = {
	slot = 4
	generic = no
	ai = yes
	potential = {
		tag = Y85
	}
	has_country_shield = yes
	
	Y85_fortify_balriza = {
		icon = mission_junnagadh_fort
		required_missions = { }
		position = 1
		
		trigger = {
			mil_power = 50
			treasury = 50
		}
		
		effect = {
			add_mil_power = -50
			add_treasury = -50
			if = {
				limit = {
					4976 = { has_fort_building_trigger = no }
				}
				4976 = { add_building = fort_15th }
			}
			4976 = {
				add_province_modifier = {
					name = Y85_rejuvinated_fort_infrastructure
					duration = 9125
				}
			}
		}
	}
	
	Y85_finish_the_ri_iha_khang = {
		icon = mission_hands_praying
		required_missions = { Y85_fortify_balriza }
		position = 2
		
		provinces_to_highlight = {
			province_id = 4976
			NOT = { has_tax_building_trigger = yes }
		}
		
		trigger = {
			4976 = { has_tax_building_trigger = yes }
		}
		
		effect = {
			add_devotion = 10
			4976 = {
				add_base_tax = 2
				add_permanent_province_modifier = {
					name = Y85_kobold_mountainbuilding
					duration = -1
				}
			}
		}
	}
	
	Y85_a_second_home = {
		icon = mission_nah_ravine_dwellers
		required_missions = { Y85_jinqiu_hills Y85_finish_the_ri_iha_khang }
		position = 3
		
		provinces_to_highlight = {
			province_id = 4974
			OR = {
				NOT = { owned_by = ROOT }
				NOT = { is_core = ROOT }
				NOT = { has_tax_building_trigger = yes }
				NOT = { has_fort_building_trigger = yes }
				unrest = 0
			}
		}
		
		trigger = {
			owns_core_province = 4974
			4974 = {
				has_tax_building_trigger = yes
				has_fort_building_trigger = yes
				NOT = { unrest = 0 }
			}
		}
		
		effect = {
			4974 = {
				change_culture = ROOT
				hidden_effect = {
					update_racial_province_majority = yes
					cleanup_racial_province_minority_into_majority = yes
				}
				change_religion = ROOT
				add_base_tax = 1
				add_base_production = 1
				add_base_manpower = 1
				add_permanent_province_modifier = {
					name = Y85_kobold_mountainbuilding
					duration = -1
				}
			}
		}
	}
	
	Y85_beikling_brothers = {
		icon = take_the_bishoprics
		required_missions = { Y85_a_second_home }
		position = 4
		
		trigger = {
			has_estate_privilege = estate_church_one_faith_one_culture
			accepted_culture = hill_yan
			balrijin_area = {
				type = all
				owned_by = ROOT
			}
			jinqiu_area = {
				type = all
				owned_by = ROOT
			}
		}
		
		provinces_to_highlight = {
			OR = {
				area = balrijin_area
				area = jinqiu_area
			}
			NOT = { owned_by = ROOT }
		}
		
		effect = {
			4844 = {
				add_permanent_province_modifier = {
					name = Y85_kobold_mountainbuilding
					duration = -1
				}
			}
			add_country_modifier = {
				name = Y85_beikling_brothers_modifier
				duration = -1
			}
			custom_tooltip = beikling_migration_wave_tt
			hidden_effect = {
				every_owned_province = {
					limit = {
						culture = hill_yan
					}
					add_kobold_minority_size_effect = yes
					add_base_tax = 1
					add_base_production = 1
					add_base_manpower = 1
				}
				every_owned_province = {
					limit = {
						culture = goldscale_kobold
					}
					add_province_modifier = {
						name = Y85_kobold_emigration
						duration = 3650
					}
				}
			}
		}
	}
	
	Y85_golden_shirgrii = {
		icon = mission_sun_temple
		required_missions = { Y85_into_unbeksu Y85_beikling_brothers }
		position = 5
		
		provinces_to_highlight = {
			province_id = 4974
			OR = {
				NOT = { owned_by = ROOT }
				NOT = { is_core = ROOT }
				NOT = { controlled_by = ROOT }
				NOT = { has_fort_building_trigger = yes }
				NOT = { base_production = 9 }
				local_autonomy = 50
			}
		}
		
		trigger = {
			owns_core_province = 4828
			4828 = {
				controlled_by = ROOT
				religion = ROOT
				has_fort_building_trigger = yes
				base_production = 9
				NOT = { local_autonomy = 50 }
			}
		}
		
		effect = {
			set_country_flag = Y85_teeming_hq_allowed_flag
			custom_tooltip = Y85_teeming_hq_allowed_tt
			4828 = {
				add_permanent_province_modifier = {
					name = Y85_kobold_mountainbuilding
					duration = -1
				}
				add_kobold_minority_size_effect = yes
				add_base_production = 1
			}
			custom_tooltip = Y85_beikling_faith_shattered_tt
			hidden_effect = {
				every_owned_province = {
					limit = {
						is_core = ROOT
						culture = hill_yan
						religion = lefthand_path
					}
					random_list = {
						50 = {
							change_religion = ROOT
						}
						50 = {
						
						}
					}
				}
			}
		}
	}
	
	Y85_northern_ogre_hills_settlements = {
		icon = mission_nomad
		required_missions = { Y85_northern_oni_hills Y85_golden_shirgrii }
		position = 6
		
		trigger = {
			owns = 5430
			5430 = {
				controlled_by = ROOT
			}
		}
		
		provinces_to_highlight = {
			province_id = 5430
			NOT = {
				AND = {
					owned_by = ROOT
					controlled_by = ROOT
				}
			}
		}
		
		effect = {
			5430 = {
				add_kobold_minority_size_effect = yes
				add_base_production = 2
				add_local_autonomy = -25
			}
			custom_tooltip = ogre_migration_wave_tt
			hidden_effect = {
				every_owned_province = {
					limit = {
						OR = {
							area = unbeksu_area
							area = sugroltona_area
							area = yambioka_area
						}
						NOT = { province_id = 5430 }
						NOT = { culture = goldscale_kobold }
					}
					add_kobold_minority_size_effect = yes
					add_base_production = 1
				}
				every_owned_province = {
					limit = {
						culture = goldscale_kobold
						NOT = {
							OR = {
								area = unbeksu_area
								area = sugroltona_area
								area = yambioka_area
							}
						}
					}
					add_province_modifier = {
						name = Y85_kobold_emigration
						duration = 3650
					}
				}
			}
		}
	}
	
	Y85_shinukhorchi_purification = {
		icon = mission_fire_judgement
		required_missions = { Y85_northern_ogre_hills_settlements }
		position = 8
		
		provinces_to_highlight = {
			province_id = 5430
			NOT = {
				AND = {
					owned_by = ROOT
					is_core = ROOT
					controlled_by = ROOT
					base_production = 15
					has_tax_building_trigger = yes
				}
			}
		}
		
		trigger = {
			owns_core_province = 5430
			5430 = {
				controlled_by = ROOT
				base_production = 15
				has_tax_building_trigger = yes
			}
		}
		
		effect = {
			5430 = {
				change_culture = ROOT
				change_religion = ROOT
				add_permanent_province_modifier = {
					name = Y85_kobold_mountainbuilding
					duration = -1
				}
				hidden_effect = {
					update_racial_province_majority = yes
					cleanup_racial_province_minority_into_majority = yes
				}
				add_base_production = 2
				add_local_autonomy = -25
			}
		}
	}
}

balrijin_5 = {
	slot = 5
	generic = no
	ai = yes
	potential = {
		tag = Y85
	}
	has_country_shield = yes
	
	Y85_finish_the_blue_scarf_uprising = {
		icon = mission_destroyed_city
		required_missions = { }
		position = 1
		
		trigger = {
			army_size_percentage = 0.8
			num_of_generals = 1
			alliance_with = Y05
			is_at_war = no
			Y05 = { is_at_war = no }
			NOT = {
				ROOT = { war_exhaustion = 2 }
				Y05 = { war_exhaustion = 2 }
			}
			OR = {
				Y05 = {
					is_claim = 4868
				}
				Y05 = {
					owns = 4868
				}
			}
		}
		
		effect = {
			add_prestige = 5
			if = {
				limit = {
					NOT = {
						Y05 = {
							owns = 4868
						}
					}
				}
				country_event = { id = flavour_balrijin.48 }
			}
		}
	}
	
	Y85_blue_scarf_victory = {
		icon = the_hundred_years_war
		required_missions = { Y85_finish_the_blue_scarf_uprising }
		position = 2
		
		provinces_to_highlight = {
			province_id = 4868
			NOT = { owned_by = Y05 }
		}
		
		trigger = {
			Y05 = { owns = 4868 }
			alliance_with = Y05
		}
		
		effect = {
			add_prestige = 5
			4976 = {
				add_human_minority_size_effect = yes
			}
			add_favors = {
				who = Y05
				amount = 10
			}
			add_trust = {
				who = Y05
				value = 10
				mutual = yes
			}
			4857 = {
				add_kobold_minority_size_effect = yes
			}
			4930 = {
				add_kobold_minority_size_effect = yes
			}
		}
	}
	
	Y85_the_forbidden_city = {
		icon = mission_city_of_the_world's_desire
		required_missions = { Y85_blue_scarf_victory }
		position = 3
		
		provinces_to_highlight = {
			province_id = 4868
			NOT = {
				AND = {
					owned_by = Y05
					is_core = Y05
				}
			}
		}
		
		trigger = {
			Y05 = { owns_core_province = 4868 }
			alliance_with = Y05
		}
		
		effect = {
			4868 = {
				add_kobold_minority_size_effect = yes
			}
			country_event = { id = flavour_balrijin.25 }
		}
	}
	
	Y85_free_passage_act = {
		icon = mission_market_place_with_asian_traders
		required_missions = { Y85_the_forbidden_city }
		position = 4
		
		trigger = {
			reverse_has_opinion = {
				who = Y05
				value = 200
			}
			Y05 = {
				has_opinion_modifier = {
					modifier = sent_gift
					who = ROOT
					#value = 20
				}
			}
			alliance_with = Y05
		}
		
		effect = {
			custom_tooltip = Y85_grasping_hq_allowed_tt
			set_country_flag = Y85_grasping_hq_allowed_flag
			set_country_flag = Y85_grasping_clan_awakened
			every_owned_province = {
				limit = {
					culture = goldscale_kobold
				}
				add_human_minority_size_effect = yes
			}
			Y05 = {
				every_owned_province = {
					limit = {
						culture = river_yan
					}
					add_kobold_minority_size_effect = yes
				}
			}
		}
	}
	
	Y85_establish_the_military_council = {
		icon = mission_noble_council
		required_missions = { Y85_free_passage_act }
		position = 5
		
		trigger = {
			Y05 = {
				trust = { who = ROOT value = 100 }
			}
			alliance_with = Y05
		}
		
		effect = {
			add_favors = {
				who = Y05
				amount = -20
			}
			set_country_flag = Y85_military_council_flag
			custom_tooltip = Y85_military_council_tt
		}
	}
	
	Y85_continent_wide_revolution = {
		icon = mission_steppe_warriors
		required_missions = { Y85_establish_the_military_council }
		position = 6
		
		trigger = {
			Y05 = {
				num_of_owned_provinces_with = {
					value = 20
					continent = asia
				}
			}
			alliance_with = Y05
		}
		
		effect = {
			north_yanshen_region = { add_permanent_claim = Y05 }
			lower_yanshen_region = { add_permanent_claim = Y05 }
		}
	}
	
	Y85_merge_foreign_diplomacy = {
		icon = mission_monarch_diplomacy
		required_missions = { Y85_continent_wide_revolution }
		position = 8
		
		trigger = {
			Y05 = {
				num_of_owned_provinces_with = {
					value = 25
					continent = asia
				}
				trust = { who = ROOT value = 100 }
			}
			calc_true_if = {
				amount = 25
				all_owned_province = {
					continent = asia
					is_core = ROOT
				}
			}
			num_of_owned_provinces_with = {
				value = 25
				continent = asia
				is_core = ROOT
			}
			alliance_with = Y05
			statesman = 3
		}
		
		provinces_to_highlight = {
		}
		
		effect = {
			clr_country_flag = Y85_military_council_flag
			create_subject = {
				subject_type = autonomous_vassal
				subject = Y05
			}
		}
	}
}

balrijin_1_2 = {
	slot = 1
	generic = no
	ai = yes
	potential = {
		tag = Y85
		has_country_flag = Y85_chapter_1_2
	}
	has_country_shield = yes
	
	Y85_yanzhin_riches = {
		icon = mission_diplomacy_missive
		required_missions = { Y85_warming_a_lonely_heart }
		position = 10
		
		provinces_to_highlight = {
			province_group = original_yanszin
			NOT = { country_or_non_sovereign_subject_holds = ROOT }
		}
		
		trigger = {
			OR = {
				original_yanszin = {
					type = all
					country_or_non_sovereign_subject_holds = ROOT
				}
				any_country = {
					OR = {
						tag = Y08
						tag = Y07
						tag = Y06
						tag = Y04
						tag = Y10
					}
					has_spy_network_from = {
						who = ROOT
						value = 30
					}
				}
			}
		}
		
		effect = {
			if = {
				limit = {
					original_yanszin = {
						type = all
						country_or_non_sovereign_subject_holds = ROOT
					}
				}
				original_yanszin = {
					add_prosperity = 10
					add_base_production = 1
				}
			}
			else = {
				original_yanszin = { add_permanent_claim = ROOT }
			}
		}
	}
	
	Y85_eastward_flow = {
		icon = mission_se_along_the_river
		required_missions = { Y85_the_scale_bank Y85_yanzhin_riches }
		position = 11
		
		provinces_to_highlight = {
			OR = {
				AND = {
					province_group = golden_highway_upper_yanshen
					NOT = { has_province_modifier = golden_highway }
				}
				AND = {
					OR = {
						province_id = 4859
						province_id = 4846
						province_id = 4842
						province_id = 4826
					}
					NOT = { country_or_non_sovereign_subject_holds = ROOT }
				}
			}
		}
		
		trigger = {
			custom_trigger_tooltip = {
				tooltip = Y85_upper_yanshen_highway_tt
				golden_highway_upper_yanshen = {
					type = all
					has_province_modifier = golden_highway
				}
			}
			4859 = { is_strongest_trade_power = ROOT }
			4859 = { country_or_non_sovereign_subject_holds = ROOT }
			4846 = { country_or_non_sovereign_subject_holds = ROOT }
			4842 = { country_or_non_sovereign_subject_holds = ROOT }
			OR = {
				4826 = { country_or_non_sovereign_subject_holds = ROOT }
				any_ally = {
					owns_or_non_sovereign_subject_of = 4826
				}
			}
			if = {
				limit = { has_dlc = "Dharma" }
				any_province = {
					superregion = yanshen_superregion
					province_has_center_of_trade_of_level = 3
					country_or_non_sovereign_subject_holds = ROOT
				}
			}
		}
		
		effect = {
			4952 = {
				add_trade_modifier = {						
					who = ROOT
					duration = -1
					power = 20
					key = STRONG_MERCHANTS
				}
			}
			4630 = {
				add_trade_modifier = {						
					who = ROOT
					duration = -1
					power = 20
					key = STRONG_MERCHANTS
				}
			}
			add_country_modifier = {
				name = Y85_eastward_flow_modifier
				duration = -1
			}
			if = {
				limit = {
					4856 = {
						has_province_modifier = Y85_scale_bank_t6
					}
				}
				4856 = {
					remove_province_modifier = Y85_scale_bank_t6
					add_permanent_province_modifier = {
						name = Y85_scale_bank_t7
						duration = -1
					}
				}
			}
			else_if = {
				limit = {
					4856 = {
						has_province_modifier = Y85_scale_bank_t5
					}
				}
				4856 = {
					remove_province_modifier = Y85_scale_bank_t5
					add_permanent_province_modifier = {
						name = Y85_scale_bank_t6
						duration = -1
					}
				}
			}
			else_if = {
				limit = {
					4856 = {
						has_province_modifier = Y85_scale_bank_t4
					}
				}
				4856 = {
					remove_province_modifier = Y85_scale_bank_t4
					add_permanent_province_modifier = {
						name = Y85_scale_bank_t5
						duration = -1
					}
				}
			}
			else_if = {
				limit = {
					4856 = {
						has_province_modifier = Y85_scale_bank_t3
					}
				}
				4856 = {
					remove_province_modifier = Y85_scale_bank_t3
					add_permanent_province_modifier = {
						name = Y85_scale_bank_t4
						duration = -1
					}
				}
			}
			else_if = {
				limit = {
					4856 = {
						has_province_modifier = Y85_scale_bank_t2
					}
				}
				4856 = {
					remove_province_modifier = Y85_scale_bank_t2
					add_permanent_province_modifier = {
						name = Y85_scale_bank_t3
						duration = -1
					}
				}
			}
			else_if = {
				limit = {
					4856 = {
						has_province_modifier = Y85_scale_bank_t1
					}
				}
				4856 = {
					remove_province_modifier = Y85_scale_bank_t1
					add_permanent_province_modifier = {
						name = Y85_scale_bank_t2
						duration = -1
					}
				}
			}
		}
	}
	
	Y85_dominate_yanshen_trade = {
		icon = mission_market_place_with_asian_traders
		required_missions = { Y85_eastward_flow }
		position = 12
		
		provinces_to_highlight = {
			OR = {
				province_id = 4952
				province_id = 4859
				province_id = 4871
			}
			NOT = {
				AND = {
					is_strongest_trade_power = ROOT
					country_or_non_sovereign_subject_holds = ROOT
					has_trade_building_trigger = yes
				}
			}
		}
		
		trigger = {
			4952 = {
				is_strongest_trade_power = ROOT
				country_or_non_sovereign_subject_holds = ROOT
				has_trade_building_trigger = yes
			}
			4859 = {
				is_strongest_trade_power = ROOT
				country_or_non_sovereign_subject_holds = ROOT
				has_trade_building_trigger = yes
			}
			4871 = {
				is_strongest_trade_power = ROOT
				country_or_non_sovereign_subject_holds = ROOT
				has_trade_building_trigger = yes
			}
		}
		
		effect = {
			4952 = {
				add_trade_modifier = {						
					who = ROOT
					duration = -1
					power = 20
					key = STRONG_MERCHANTS
				}
			}
			4859 = {
				add_trade_modifier = {						
					who = ROOT
					duration = -1
					power = 20
					key = STRONG_MERCHANTS
				}
			}
			4871 = {
				add_trade_modifier = {						
					who = ROOT
					duration = -1
					power = 20
					key = STRONG_MERCHANTS
				}
			}
			add_mercantilism = 10
			if = {
				limit = {
					4856 = {
						has_province_modifier = Y85_scale_bank_t6
					}
				}
				4856 = {
					remove_province_modifier = Y85_scale_bank_t6
					add_permanent_province_modifier = {
						name = Y85_scale_bank_t7
						duration = -1
					}
				}
			}
			else_if = {
				limit = {
					4856 = {
						has_province_modifier = Y85_scale_bank_t5
					}
				}
				4856 = {
					remove_province_modifier = Y85_scale_bank_t5
					add_permanent_province_modifier = {
						name = Y85_scale_bank_t6
						duration = -1
					}
				}
			}
			else_if = {
				limit = {
					4856 = {
						has_province_modifier = Y85_scale_bank_t4
					}
				}
				4856 = {
					remove_province_modifier = Y85_scale_bank_t4
					add_permanent_province_modifier = {
						name = Y85_scale_bank_t5
						duration = -1
					}
				}
			}
			else_if = {
				limit = {
					4856 = {
						has_province_modifier = Y85_scale_bank_t3
					}
				}
				4856 = {
					remove_province_modifier = Y85_scale_bank_t3
					add_permanent_province_modifier = {
						name = Y85_scale_bank_t4
						duration = -1
					}
				}
			}
			else_if = {
				limit = {
					4856 = {
						has_province_modifier = Y85_scale_bank_t2
					}
				}
				4856 = {
					remove_province_modifier = Y85_scale_bank_t2
					add_permanent_province_modifier = {
						name = Y85_scale_bank_t3
						duration = -1
					}
				}
			}
			else_if = {
				limit = {
					4856 = {
						has_province_modifier = Y85_scale_bank_t1
					}
				}
				4856 = {
					remove_province_modifier = Y85_scale_bank_t1
					add_permanent_province_modifier = {
						name = Y85_scale_bank_t2
						duration = -1
					}
				}
			}
		}
	}
}

balrijin_2_2 = {
	slot = 2
	generic = no
	ai = yes
	potential = {
		tag = Y85
		has_country_flag = Y85_chapter_2_2
	}
	has_country_shield = yes
	
	Y85_the_scale_bank = {
		icon = mission_golden_century
		required_missions = { Y85_warming_a_lonely_heart }
		position = 10
		
		trigger = {
			NOT = { inflation = 10 }
			owns_core_province = 4856
			4856 = { base_production = 20 }
			4856 = { has_production_building_trigger = yes }
			if = {
				limit = {
					has_dlc = "Emperor"
				}
				has_estate_privilege = estate_burghers_control_over_monetary_policy
			}
		}
		
		provinces_to_highlight = {
			province_id = 4856
			NOT = {
				AND = {
					owned_by = ROOT
					is_core = ROOT
					base_production = 20
					has_production_building_trigger = yes
				}
			}
		}
		
		effect = {
			if = {
				limit = {
					4856 = {
						NOT = {
							has_building = counting_house
						}
					}
				}
				4856 = {
					remove_building = workshop
					add_building = counting_house
				}
			}
			4856 = {
				add_permanent_province_modifier = {
					name = Y85_scale_bank_t1
					duration = -1
				}
			}
			define_advisor = {
				type = treasurer
				name = "Irtoz of The Grasping Tail"
				skill = 3
				discount = yes
				culture = goldscale_kobold
				religion = ROOT
			}
		}
	}
	
	Y85_formalise_scale_currency = {
		icon = mission_zambezi_gold
		required_missions = { Y85_the_scale_bank }
		position = 11
		
		provinces_to_highlight = {
			province_id = 4856
			NOT = {
				AND = {
					owned_by = ROOT
					is_core = ROOT
				}
			}
		}
		
		trigger = {
			owns_core_province = 4856
			NOT = { inflation = 5 }
			#mission_completed = Y85_merge_banking_institutions
			treasurer = 3
			adm_power = 100
			dip_power = 100
			if = {
				limit = {
					has_dlc = "Emperor"
				}
				has_estate_privilege = estate_burghers_control_over_monetary_policy
			}
		}
		
		effect = {
			add_adm_power = -100
			add_dip_power = -100
			if = {
				limit = {
					4856 = {
						has_province_modifier = Y85_scale_bank_t6
					}
				}
				4856 = {
					remove_province_modifier = Y85_scale_bank_t6
					add_permanent_province_modifier = {
						name = Y85_scale_bank_t7
						duration = -1
					}
				}
			}
			else_if = {
				limit = {
					4856 = {
						has_province_modifier = Y85_scale_bank_t5
					}
				}
				4856 = {
					remove_province_modifier = Y85_scale_bank_t5
					add_permanent_province_modifier = {
						name = Y85_scale_bank_t6
						duration = -1
					}
				}
			}
			else_if = {
				limit = {
					4856 = {
						has_province_modifier = Y85_scale_bank_t4
					}
				}
				4856 = {
					remove_province_modifier = Y85_scale_bank_t4
					add_permanent_province_modifier = {
						name = Y85_scale_bank_t5
						duration = -1
					}
				}
			}
			else_if = {
				limit = {
					4856 = {
						has_province_modifier = Y85_scale_bank_t3
					}
				}
				4856 = {
					remove_province_modifier = Y85_scale_bank_t3
					add_permanent_province_modifier = {
						name = Y85_scale_bank_t4
						duration = -1
					}
				}
			}
			else_if = {
				limit = {
					4856 = {
						has_province_modifier = Y85_scale_bank_t2
					}
				}
				4856 = {
					remove_province_modifier = Y85_scale_bank_t2
					add_permanent_province_modifier = {
						name = Y85_scale_bank_t3
						duration = -1
					}
				}
			}
			else_if = {
				limit = {
					4856 = {
						has_province_modifier = Y85_scale_bank_t1
					}
				}
				4856 = {
					remove_province_modifier = Y85_scale_bank_t1
					add_permanent_province_modifier = {
						name = Y85_scale_bank_t2
						duration = -1
					}
				}
			}
		}
	}
	
	Y85_yanshen_bankers_union = {
		icon = mission_african_gold
		required_missions = { Y85_formalise_scale_currency }
		position = 12
		
		provinces_to_highlight = {
			OR = {
				AND = {
					superregion = yanshen_superregion
					OR = {
						culture = goldscale_kobold
						has_kobold_minority_trigger = yes
					}
					NOT = {
						country_or_non_sovereign_subject_holds = ROOT
						owner = { alliance_with = ROOT }
					}
				}
				AND = {
					province_id = 4859
					NOT = {
						AND = {
							owned_by = ROOT
							is_core = ROOT
						}
					}
				}
			}
		}
		
		trigger = {
			NOT = { inflation = 3 }
			custom_trigger_tooltip = {
				tooltip = Y85_own_all_kobolds_tt
				yanshen_superregion = {
					type = all
					OR = {
						AND = {
							NOT = { culture = goldscale_kobold }
							has_kobold_minority_trigger = no
						}
						OR = {
							country_or_non_sovereign_subject_holds = ROOT
							owner = { alliance_with = ROOT }
						}
					}
				}
			}
			owns_core_province = 4856
			diplomat = 3
			if = {
				limit = {
					has_dlc = "Emperor"
				}
				has_estate_privilege = estate_burghers_control_over_monetary_policy
			}
		}
		
		effect = {
			custom_tooltip = Y85_scale_bank_outpost_tt
			hidden_effect = {
				every_owned_province = {
					limit = {
						superregion = yanshen_superregion
						OR = {
							culture = goldscale_kobold
							has_kobold_minority_trigger = yes
						}
						NOT = { has_province_modifier = Y85_scale_bank_outpost }
						NOT = { province_id = 4856 }
					}
					add_permanent_province_modifier = {
						name = Y85_scale_bank_outpost
						duration = -1
					}
				}
			}
			if = {
				limit = {
					Y05 = {	is_subject_of = ROOT }
				}
				custom_tooltip = Y85_scale_bank_outpost_lanjinhui_tt
				hidden_effect = {
					every_province = {
						limit = {
							superregion = yanshen_superregion
							OR = {
								culture = goldscale_kobold
								has_kobold_minority_trigger = yes
							}
							owned_by = Y05
							NOT = { has_province_modifier = Y85_scale_bank_outpost }
							NOT = { province_id = 4856 }
						}
						add_permanent_province_modifier = {
							name = Y85_scale_bank_outpost
							duration = -1
						}
					}
				}
				Y05 = {
					add_country_modifier = {
						name = Y85_merged_banking_systems
						duration = -1
					}
				}
			}
			if = {
				limit = {
					4856 = {
						has_province_modifier = Y85_scale_bank_t6
					}
				}
				4856 = {
					remove_province_modifier = Y85_scale_bank_t6
					add_permanent_province_modifier = {
						name = Y85_scale_bank_t7
						duration = -1
					}
				}
			}
			else_if = {
				limit = {
					4856 = {
						has_province_modifier = Y85_scale_bank_t5
					}
				}
				4856 = {
					remove_province_modifier = Y85_scale_bank_t5
					add_permanent_province_modifier = {
						name = Y85_scale_bank_t6
						duration = -1
					}
				}
			}
			else_if = {
				limit = {
					4856 = {
						has_province_modifier = Y85_scale_bank_t4
					}
				}
				4856 = {
					remove_province_modifier = Y85_scale_bank_t4
					add_permanent_province_modifier = {
						name = Y85_scale_bank_t5
						duration = -1
					}
				}
			}
			else_if = {
				limit = {
					4856 = {
						has_province_modifier = Y85_scale_bank_t3
					}
				}
				4856 = {
					remove_province_modifier = Y85_scale_bank_t3
					add_permanent_province_modifier = {
						name = Y85_scale_bank_t4
						duration = -1
					}
				}
			}
			else_if = {
				limit = {
					4856 = {
						has_province_modifier = Y85_scale_bank_t2
					}
				}
				4856 = {
					remove_province_modifier = Y85_scale_bank_t2
					add_permanent_province_modifier = {
						name = Y85_scale_bank_t3
						duration = -1
					}
				}
			}
			else_if = {
				limit = {
					4856 = {
						has_province_modifier = Y85_scale_bank_t1
					}
				}
				4856 = {
					remove_province_modifier = Y85_scale_bank_t1
					add_permanent_province_modifier = {
						name = Y85_scale_bank_t2
						duration = -1
					}
				}
			}
		}
	}
	
	Y85_continental_success = {
		icon = mission_dominate_home_trade_node
		required_missions = { Y85_dominate_yanshen_trade Y85_yanshen_bankers_union }
		position = 13
		
		provinces_to_highlight = {
			OR = {
				province_id = 4871
				province_id = 1371
				province_id = 4952
				province_id = 4859
				province_id = 4630
				province_id = 5406
				province_id = 5372
				province_id = 5356
			}
			NOT = { is_strongest_trade_power = ROOT }
		}
		
		trigger = {
			4871 = { is_strongest_trade_power = ROOT }
			1371 = { is_strongest_trade_power = ROOT }
			4952 = { is_strongest_trade_power = ROOT }
			4859 = { is_strongest_trade_power = ROOT }
			4630 = { is_strongest_trade_power = ROOT }
			5406 = { is_strongest_trade_power = ROOT }
			5372 = { is_strongest_trade_power = ROOT }
			5356 = { is_strongest_trade_power = ROOT }
			if = {
				limit = {
					has_dlc = "Emperor"
				}
				has_estate_privilege = estate_burghers_control_over_monetary_policy
			}
		}
		
		effect = {
			add_splendor = 800
			add_mercantilism = 20
			if = {
				limit = {
					4856 = {
						has_province_modifier = Y85_scale_bank_t6
					}
				}
				4856 = {
					remove_province_modifier = Y85_scale_bank_t6
					add_permanent_province_modifier = {
						name = Y85_scale_bank_t7
						duration = -1
					}
				}
			}
			else_if = {
				limit = {
					4856 = {
						has_province_modifier = Y85_scale_bank_t5
					}
				}
				4856 = {
					remove_province_modifier = Y85_scale_bank_t5
					add_permanent_province_modifier = {
						name = Y85_scale_bank_t6
						duration = -1
					}
				}
			}
			else_if = {
				limit = {
					4856 = {
						has_province_modifier = Y85_scale_bank_t4
					}
				}
				4856 = {
					remove_province_modifier = Y85_scale_bank_t4
					add_permanent_province_modifier = {
						name = Y85_scale_bank_t5
						duration = -1
					}
				}
			}
			else_if = {
				limit = {
					4856 = {
						has_province_modifier = Y85_scale_bank_t3
					}
				}
				4856 = {
					remove_province_modifier = Y85_scale_bank_t3
					add_permanent_province_modifier = {
						name = Y85_scale_bank_t4
						duration = -1
					}
				}
			}
			else_if = {
				limit = {
					4856 = {
						has_province_modifier = Y85_scale_bank_t2
					}
				}
				4856 = {
					remove_province_modifier = Y85_scale_bank_t2
					add_permanent_province_modifier = {
						name = Y85_scale_bank_t3
						duration = -1
					}
				}
			}
			else_if = {
				limit = {
					4856 = {
						has_province_modifier = Y85_scale_bank_t1
					}
				}
				4856 = {
					remove_province_modifier = Y85_scale_bank_t1
					add_permanent_province_modifier = {
						name = Y85_scale_bank_t2
						duration = -1
					}
				}
			}
		}
	}
}

balrijin_3_2 = {
	slot = 3
	generic = no
	ai = yes
	potential = {
		tag = Y85
		has_country_flag = Y85_chapter_3_2
	}
	has_country_shield = yes
	
	Y85_the_balris_reforms = {
		icon = reform_the_nomocanon
		required_missions = { Y85_warming_a_lonely_heart }
		position = 10
		
		trigger = {
			stability = 2
			statesman = 3
		}
		
		effect = {
			add_stability = -1
			add_country_modifier = {
				name = Y85_balris_reforms_modifier
				duration = -1
			}
		}
	}
	
	Y85_end_of_the_sage_era = {
		icon = mission_priest_church
		required_missions = { Y85_the_balris_reforms }
		position = 11
		
		trigger = {
			crown_land_share = estate_church
			NOT = {
				estate_influence = {
					estate = estate_church
					influence = 40
				}
			}
		}
		
		effect = {
			remove_country_modifier = Y85_balris_reforms_modifier
			add_stability = -1
			change_government = republic
			add_government_reform = golden_republic_reform
			set_country_flag = Y85_host_election
			hidden_effect = {
				change_government_reform_progress = -10000
				country_event = { id = flavour_balrijin.73 days = 365 }
			}
		}
	}
	
	Y85_balkhangfa_administration = {
		icon = mission_junnagadh_fort
		required_missions = { Y85_end_of_the_sage_era }
		position = 12
		
		provinces_to_highlight = {
			province_id = 4976
			OR = {
				AND = {
					has_dlc = "Leviathan"
					NOT = {
						has_great_project = {
							type = balkhangfa_palace
							tier = 2
						}
						has_great_project = {
							type = balkhangfa_palace
							tier = 3
						}
					}
				}
				AND = {
					NOT = { has_dlc = "Leviathan" }
					NOT = { development = 50 }
				}
			}
		}
		
		trigger = {
			OR = {
				has_reform = frequent_elections_reform
				has_reform = consolidation_of_power_reform
			}
			if = {
				limit = { has_dlc = "Leviathan" }
				4976 = {
					OR = {
						has_great_project = {
							type = balkhangfa_palace
							tier = 2
						}
						has_great_project = {
							type = balkhangfa_palace
							tier = 3
						}
					}
				}
			}
			else = {
				4976 = { development = 50 }
			}
			num_of_owned_provinces_with = {
				value = 6
				has_courthouse_building_trigger = yes
			}
		}
		
		effect = {
			add_government_reform = balkhangfa_administration_reform
			add_splendor = 200
			change_government_reform_progress = 200
		}
	}
	
	Y85_deep_state_government = {
		icon = immaculate_government
		required_missions = { Y85_balkhangfa_administration }
		position = 13
		
		provinces_to_highlight = {
			province_id = 4976
			OR = {
				AND = {
					has_dlc = "Leviathan"
					NOT = {
						has_great_project = {
							type = balkhangfa_palace
							tier = 3
						}
					}
				}
				AND = {
					NOT = { has_dlc = "Leviathan" }
					NOT = { development = 60 }
				}
			}
		}
		
		trigger = {
			has_reform = balkhangfa_administration_reform
			if = {
				limit = { has_dlc = "Leviathan" }
				4976 = {
					has_great_project = {
						type = balkhangfa_palace
						tier = 3
					}
				}
			}
			else = {
				4976 = { development = 60 }
			}
			num_of_owned_provinces_with = {
				value = 10
				has_courthouse_building_trigger = yes
			}
		}
		
		effect = {
			add_government_reform = deep_state_government_reform
			add_splendor = 200
			change_government_reform_progress = 200
		}
	}
	
	Y85_yansheni_hegemon = {
		icon = mission_empire
		required_missions = { Y85_continental_success Y85_deep_state_government Y85_expand_blackstep_territory Y85_the_golden_republic }
		position = 14
		
		trigger = {
			total_development = 1500
			army_size = 150
		}
		
		effect = {
			country_event = { id = flavour_balrijin.52 }
			add_splendor = 800
			change_government_reform_progress = 200
			
		}
	}
}

balrijin_4_2 = {
	slot = 4
	generic = no
	ai = yes
	potential = {
		tag = Y85
		has_country_flag = Y85_chapter_4_2
	}
	has_country_shield = yes
	
	Y85_the_old_order = {
		icon = mission_son_fetishist_alliances
		required_missions = { Y85_warming_a_lonely_heart }
		position = 10
		
		trigger = {
			OR = {
				any_ally = {
					is_rival = R62
				}
				army_size = R62
				NOT = { exists = R62 }
			}
			num_of_owned_provinces_with = {
				value = 3
				region = demon_hills_region
				has_fort_building_trigger = yes
			}
			if = {
				limit = { exists = R62 }
				has_spy_network_in = {
					who = R62
					value = 25
				}
				if = {
					limit = { is_rival = R62 }
					OR = {
						has_country_modifier = magic_realm_divination_scrying_rivals
						has_country_modifier = magic_estate_scrying_rivals_1
						has_country_modifier = magic_estate_scrying_rivals_2
						has_country_modifier = magic_estate_scrying_rivals_3
					}
				}
			}
		}
		
		effect = {
			set_country_flag = Y85_old_order_cb_flag
			add_casus_belli = {
				target = R62
				type = cb_old_order
				months = 4800
			}
		}
	}
	
	Y85_protect_ruin_kingdoms = {
		icon = catholic_confraternity
		required_missions = { Y85_the_old_order }
		position = 11
		
		trigger = {
			custom_trigger_tooltip = {
				tooltip = Y85_won_old_order_war_tt
				has_country_flag = Y85_won_old_order_war
			}
			OR = {
				NOT = { exists = R78 }
				R78 = {
					OR = {
						guaranteed_by = ROOT
						alliance_with = ROOT
					}
					has_opinion = {
						who = ROOT
						value = 150
					}
				}
				R78 = { is_subject_of = ROOT }
			}
			OR = {
				NOT = { exists = R79 }
				R79 = {
					OR = {
						guaranteed_by = ROOT
						alliance_with = ROOT
					}
					has_opinion = {
						who = ROOT
						value = 150
					}
				}
				R79 = { is_subject_of = ROOT }
			}
			OR = {
				NOT = { exists = R11 }
				R11 = {
					OR = {
						guaranteed_by = ROOT
						alliance_with = ROOT
					}
					has_opinion = {
						who = ROOT
						value = 150
					}
				}
				R11 = { is_subject_of = ROOT }
			}
		}
		
		effect = {
			add_country_modifier = {
				name = Y85_ruin_kingdom_overlord
				duration = -1
			}
			create_subject = {
				subject_type = autonomous_vassal
				subject = R78
			}
			R78 = {
				change_government = republic
				add_republican_tradition = 40
				add_country_modifier = {
					name = Y85_ruin_kingdom_restoration
					duration = -1
				}
			}
			create_subject = {
				subject_type = autonomous_vassal
				subject = R79
			}
			R79 = {
				change_government = republic
				add_republican_tradition = 40
				add_country_modifier = {
					name = Y85_ruin_kingdom_restoration
					duration = -1
				}
			}
			create_subject = {
				subject_type = autonomous_vassal
				subject = R11
			}
			R11 = {
				change_government = republic
				add_republican_tradition = 40
				add_country_modifier = {
					name = Y85_ruin_kingdom_restoration
					duration = -1
				}
			}
		}
	}
	
	Y85_demand_blackstep_tribute = {
		icon = mission_swear_fealty_knight
		required_missions = { Y85_protect_ruin_kingdoms }
		position = 12
		
		trigger = {
			if = {
				limit = {
					exists = R78
					R78 = { is_subject_of = ROOT }
				}
				R78 = {
					any_owned_province = {
						is_capital_of = R78
						num_of_times_improved = 5
					}
				}
				NOT = { R78 = { liberty_desire = 35 } }
			}
			if = {
				limit = {
					exists = R79
					R79 = { is_subject_of = ROOT }
				}
				R79 = {
					any_owned_province = {
						is_capital_of = R79
						num_of_times_improved = 5
					}
				}
				NOT = { R79 = { liberty_desire = 35 } }
			}
			if = {
				limit = {
					exists = R11
					R11 = { is_subject_of = ROOT }
				}
				R11 = {
					any_owned_province = {
						is_capital_of = R11
						num_of_times_improved = 5
					}
				}
				NOT = { R11 = { liberty_desire = 35 } }
			}
		}
		
		effect = {
			if = {
				limit = {
					exists = R78
					R78 = { is_subject_of = ROOT }
				}
				R78 = {
					custom_tooltip = Y85_kobold_immigration_tt
					add_country_modifier = {
						name = Y85_ruin_kobold_upper_class
						duration = -1
					}
					large_increase_of_kobold_tolerance_effect = yes
					hidden_effect = {
						capital_scope = { add_kobold_minority_size_effect = yes }
						capital_scope = { add_kobold_minority_size_effect = yes }
						random_owned_province = {
							limit = {
								has_kobold_minority_trigger = no
							}
							add_kobold_minority_size_effect = yes
						}
						random_owned_province = {
							limit = {
								has_kobold_minority_trigger = no
							}
							add_kobold_minority_size_effect = yes
						}
						random_owned_province = {
							limit = {
								has_kobold_minority_trigger = no
							}
							add_kobold_minority_size_effect = yes
						}
						random_owned_province = {
							limit = {
								has_kobold_minority_trigger = no
							}
							add_kobold_minority_size_effect = yes
						}
						random_owned_province = {
							limit = {
								has_kobold_minority_trigger = no
							}
							add_kobold_minority_size_effect = yes
						}
					}
				}
			}
			if = {
				limit = {
					exists = R79
					R79 = { is_subject_of = ROOT }
				}
				R79 = {
					custom_tooltip = Y85_kobold_immigration_tt
					add_country_modifier = {
						name = Y85_ruin_kobold_upper_class
						duration = -1
					}
					large_increase_of_kobold_tolerance_effect = yes
					hidden_effect = {
						capital_scope = { add_kobold_minority_size_effect = yes }
						capital_scope = { add_kobold_minority_size_effect = yes }
						random_owned_province = {
							limit = {
								has_kobold_minority_trigger = no
							}
							add_kobold_minority_size_effect = yes
						}
						random_owned_province = {
							limit = {
								has_kobold_minority_trigger = no
							}
							add_kobold_minority_size_effect = yes
						}
						random_owned_province = {
							limit = {
								has_kobold_minority_trigger = no
							}
							add_kobold_minority_size_effect = yes
						}
						random_owned_province = {
							limit = {
								has_kobold_minority_trigger = no
							}
							add_kobold_minority_size_effect = yes
						}
						random_owned_province = {
							limit = {
								has_kobold_minority_trigger = no
							}
							add_kobold_minority_size_effect = yes
						}
					}
				}
			}
			if = {
				limit = {
					exists = R11
					R11 = { is_subject_of = ROOT }
				}
				R11 = {
					custom_tooltip = Y85_kobold_immigration_tt
					add_country_modifier = {
						name = Y85_ruin_kobold_upper_class
						duration = -1
					}
					large_increase_of_kobold_tolerance_effect = yes
					hidden_effect = {
						capital_scope = { add_kobold_minority_size_effect = yes }
						capital_scope = { add_kobold_minority_size_effect = yes }
						random_owned_province = {
							limit = {
								has_kobold_minority_trigger = no
							}
							add_kobold_minority_size_effect = yes
						}
						random_owned_province = {
							limit = {
								has_kobold_minority_trigger = no
							}
							add_kobold_minority_size_effect = yes
						}
						random_owned_province = {
							limit = {
								has_kobold_minority_trigger = no
							}
							add_kobold_minority_size_effect = yes
						}
						random_owned_province = {
							limit = {
								has_kobold_minority_trigger = no
							}
							add_kobold_minority_size_effect = yes
						}
						random_owned_province = {
							limit = {
								has_kobold_minority_trigger = no
							}
							add_kobold_minority_size_effect = yes
						}
					}
				}
			}
		}
	}
	
	Y85_expand_blackstep_territory = {
		icon = mission_warrior_gold
		required_missions = { Y85_demand_blackstep_tribute }
		position = 13
		
		trigger = {
			mission_completed = Y85_yanshen_bankers_union
			has_country_modifier = Y85_scale_baron_president
			adm_power = 100
			dip_power = 100
			if = {
				limit = {
					exists = R78
					R78 = { is_subject_of = ROOT }
				}
				NOT = { R78 = { liberty_desire = 1 } }
				
			}
			if = {
				limit = {
					exists = R79
					R79 = { is_subject_of = ROOT }
				}
				NOT = { R79 = { liberty_desire = 1 } }
			}
			if = {
				limit = {
					exists = R11
					R11 = { is_subject_of = ROOT }
				}
				NOT = { R11 = { liberty_desire = 1 } }
			}
		}
		
		effect = {
			add_adm_power = -100
			add_dip_power = -100
			if = {
				limit = {
					4856 = {
						has_province_modifier = Y85_scale_bank_t6
					}
				}
				4856 = {
					remove_province_modifier = Y85_scale_bank_t6
					add_permanent_province_modifier = {
						name = Y85_scale_bank_t7
						duration = -1
					}
				}
			}
			else_if = {
				limit = {
					4856 = {
						has_province_modifier = Y85_scale_bank_t5
					}
				}
				4856 = {
					remove_province_modifier = Y85_scale_bank_t5
					add_permanent_province_modifier = {
						name = Y85_scale_bank_t6
						duration = -1
					}
				}
			}
			else_if = {
				limit = {
					4856 = {
						has_province_modifier = Y85_scale_bank_t4
					}
				}
				4856 = {
					remove_province_modifier = Y85_scale_bank_t4
					add_permanent_province_modifier = {
						name = Y85_scale_bank_t5
						duration = -1
					}
				}
			}
			else_if = {
				limit = {
					4856 = {
						has_province_modifier = Y85_scale_bank_t3
					}
				}
				4856 = {
					remove_province_modifier = Y85_scale_bank_t3
					add_permanent_province_modifier = {
						name = Y85_scale_bank_t4
						duration = -1
					}
				}
			}
			else_if = {
				limit = {
					4856 = {
						has_province_modifier = Y85_scale_bank_t2
					}
				}
				4856 = {
					remove_province_modifier = Y85_scale_bank_t2
					add_permanent_province_modifier = {
						name = Y85_scale_bank_t3
						duration = -1
					}
				}
			}
			else_if = {
				limit = {
					4856 = {
						has_province_modifier = Y85_scale_bank_t1
					}
				}
				4856 = {
					remove_province_modifier = Y85_scale_bank_t1
					add_permanent_province_modifier = {
						name = Y85_scale_bank_t2
						duration = -1
					}
				}
			}
			custom_tooltip = Y85_scale_bank_outpost_ruin_kingdoms_tt
			if = {
				limit = {
					R78 = {	is_subject_of = ROOT }
				}
				hidden_effect = {
					every_province = {
						limit = {
							OR = {
								culture = goldscale_kobold
								has_kobold_minority_trigger = yes
							}
							owned_by = R78
							NOT = { has_province_modifier = Y85_scale_bank_outpost }
							NOT = { province_id = 4856 }
						}
						add_permanent_province_modifier = {
							name = Y85_scale_bank_outpost
							duration = -1
						}
					}
				}
				R78 = {
					add_country_modifier = {
						name = Y85_merged_banking_systems
						duration = -1
					}
				}
			}
			if = {
				limit = {
					R79 = {	is_subject_of = ROOT }
				}
				hidden_effect = {
					every_province = {
						limit = {
							OR = {
								culture = goldscale_kobold
								has_kobold_minority_trigger = yes
							}
							owned_by = R79
							NOT = { has_province_modifier = Y85_scale_bank_outpost }
							NOT = { province_id = 4856 }
						}
						add_permanent_province_modifier = {
							name = Y85_scale_bank_outpost
							duration = -1
						}
					}
				}
				R79 = {
					add_country_modifier = {
						name = Y85_merged_banking_systems
						duration = -1
					}
				}
			}
			if = {
				limit = {
					R11 = {	is_subject_of = ROOT }
				}
				hidden_effect = {
					every_province = {
						limit = {
							OR = {
								culture = goldscale_kobold
								has_kobold_minority_trigger = yes
							}
							owned_by = R11
							NOT = { has_province_modifier = Y85_scale_bank_outpost }
							NOT = { province_id = 4856 }
						}
						add_permanent_province_modifier = {
							name = Y85_scale_bank_outpost
							duration = -1
						}
					}
				}
				R11 = {
					add_country_modifier = {
						name = Y85_merged_banking_systems
						duration = -1
					}
				}
			}
			hidden_effect = {
				every_owned_province = {
					limit = {
						culture = goldscale_kobold
					}
					add_province_modifier = {
						name = Y85_kobold_emigration
						duration = 3650
					}
				}
			}
		}
	}
}

balrijin_5_2 = {
	slot = 5
	generic = no
	ai = yes
	potential = {
		tag = Y85
		has_country_flag = Y85_chapter_5_2
	}
	has_country_shield = yes
	
	Y85_merge_banking_institutions = {
		icon = medici_bank_ledgers
		required_missions = { Y85_warming_a_lonely_heart }
		position = 10
		
		trigger = {
			adm_power = 200
			Y05 = {
				is_subject_of = ROOT
				NOT = { liberty_desire = 50 }
			}
			
		}
		
		effect = {
			add_adm_power = -200
			Y05 = {
				remove_country_modifier = Y85_promised_representation
				add_country_modifier = {
					name = Y85_republican_representation
					duration = -1
				}
			}
			custom_tooltip = Y85_lanjinhui_party_formed_tt
			set_country_flag = Y85_lanjinhui_party_formed_flag
		}
	}
	
	Y85_develop_lanjinhui_institutions = {
		icon = mission_early_modern_university
		required_missions = { Y85_merge_banking_institutions }
		position = 11
		
		provinces_to_highlight = {
			is_capital_of = Y05
			NOT = { num_of_times_improved = 15 }
		}
		
		trigger = {
			Y05 = {
				is_subject_of = ROOT
			}
			Y05 = {
				any_owned_province = {
					is_capital_of = Y05
					num_of_times_improved = 15
				}
			}
			NOT = {
				Y05 = {
					is_lacking_institutions = yes
				}
			}
			NOT = {
				institution_difference = {
					who = Y05
					value = 1
				}
			}
		}
		
		effect = {
			add_country_modifier = {
				name = Y85_dual_learning
				duration = 36500
			}
			Y05 = {
				add_country_modifier = {
					name = Y85_dual_learning2
					duration = 36500
				}
			}
		}
	}
	
	Y85_tianlou_trade = {
		icon = mission_cromandel_coast
		required_missions = { Y85_develop_lanjinhui_institutions }
		position = 12
		
		provinces_to_highlight = {
			province_id = 4871
			NOT = {
				AND = {
					owned_by = ROOT
					is_core = ROOT
					development = 50
				}
			}
		}
		
		trigger = {
			Y05 = {
				is_subject_of = ROOT
			}
			Y05 = {
				owns_core_province = 4871
			}	
			4871 = {
				if = {
					limit = { has_dlc = "Dharma" }
					province_has_center_of_trade_of_level = 3
				}
				development = 50
			}			
		}
		
		effect = {
			country_event = { id = flavour_balrijin.50 }
			add_mercantilism = 10
		}
	}
	
	Y85_the_golden_republic = {
		icon = mission_trade_in_gold_coast
		required_missions = { Y85_tianlou_trade }
		position = 13
		
		trigger = {
			dip_power = 800
			Y05 = {
				is_subject_of = ROOT
			}
			NOT = {
				Y05 = {
					liberty_desire = 1
				}
			}
			statesman = 3
			has_reform = golden_republic_reform
		}
		
		effect = {
			add_dip_power = -800
			country_event = { id = flavour_balrijin.54 }
		}
	}
}
	