bd_1_1 = {
	slot = 1
	generic = no
	ai = yes
	has_country_shield = yes
	
	potential = {
		tag = Z99
	}
	Z99_army_restructuration = {
		icon = mission_subdue_rajputana

		position = 2
		
		required_missions = {
			Z99_the_ascension
		}
		
		trigger = {
			OR = {
				AND = {
					mil_power = 100
					advisor  = army_reformer
				}
				mil_power = 350
			}
		}
		
		effect = {
			if = {
				limit = { advisor  = army_reformer }
				add_mil_power = -100
			}
			else = {
				add_mil_power = -350
			}
			add_country_modifier = {
				name = black_army_restructuration
				duration = 1825
			}
		}
	}
	
	Z99_mage_general = {
		icon = mission_mage_general

		position = 3
		
		required_missions = {
			Z99_army_restructuration
		}
		
		trigger = {
			NOT = { has_country_modifier = black_army_restructuration }
			OR = {
				AND = {
					mil_power = 100
					advisor  = court_mage
				}
				mil_power = 350
			}
		}
		
		effect = {
			if = {
				limit = { advisor  = court_mage }
				add_mil_power = -100
			}
			else = {
				add_mil_power = -350
			}
			add_country_modifier = {
				name = black_mage_general
				duration = -1
			}
		}
	}
	
	Z99_magicka_segmentum = {
		icon = mission_conquer_maharashtra

		position = 4
		
		required_missions = {
			Z99_mage_general
		}
		
		trigger = {
			land_forcelimit = 200				
			has_leader_with = {
				shock = 7
				general = yes
			}
			mil_power = 150
		}
		
		effect = {
			add_mil_power = -150
			add_country_modifier = {
				name = black_magicka_segmentum
				duration = -1
			}
		}
	}
	
	Z99_promote_meritocracy = {
		icon = mission_have_two_subjects

		position = 5
		
		required_missions = {
			Z99_magicka_segmentum
		}
		
		trigger = {
			at_war_with_religious_enemy = yes
			adm_power = 100
			mil_power = 100
			army_tradition = 50
		}
		
		effect = {
			add_army_tradition = -10
			add_adm_power = -100
			add_mil_power = -100
			add_country_modifier = {
				name = black_promote_meritocracy
				duration = -1
			}
		}
	}
	
	Z99_secrets_of_the_north = {
		icon = mission_protect_white_sea_trade

		position = 7
		
		required_missions = {
			Z99_bringer_of_order
		}
		
		trigger = {
			is_at_war = no
			stability = 2
		}
		
		effect = {
			country_event = { id = black_demesne.13 }
		}
	}
	
	Z99_sailing_the_reach = {
		icon = mission_raid_christian_trade

		position = 8
		
		required_missions = {
			Z99_secrets_of_the_north
		}
		
		provinces_to_highlight = {
			province_id = 740
		}
		
		trigger = {
			owns_or_subject_of = 740
			740 = {
				NOT = { devastation = 10 }
				has_shipyard_building_trigger = yes
			}
		}
		
		effect = {
			740 = {
				add_base_tax = 2
				add_base_production = 2
				add_base_manpower = 4
			}
			country_event = { id = black_demesne.14 }
		}
	}
}

bd_1_2 = {
	slot = 1
	generic = no
	ai = yes
	has_country_shield = yes
	
	potential = {
		tag = Z99
		has_country_flag = bd_1_2
	}
	
	Z99_finding_the_surge = {
		icon = mission_the_surge

		position = 9
		
		required_missions = {
			Z99_sailing_the_reach
		}
		
		trigger = {
			custom_trigger_tooltip = {
				tooltip = finding_the_surge_tooltip
				has_global_flag = jorgurem_alive
			}
		}
		
		effect = {
			add_prestige_excess_to_splendour_effect = { VAL=20 }
			hidden_effect = {
				set_country_flag = bd_1_3
				swap_non_generic_missions = yes
			}
		}
	}
}

bd_1_3 = {
	slot = 1
	generic = no
	ai = yes
	has_country_shield = yes
	
	potential = {
		tag = Z99
		has_country_flag = bd_1_3
	}
	
	Z99_jorgurem_the_frozen = {
		icon = mission_jorgurem_the_frozen

		position = 10
		
		required_missions = {
			Z99_finding_the_surge
		}
		
		trigger = {
			custom_trigger_tooltip = {
				tooltip = jorgurem_is_dead_tooltip
				has_global_flag = jorgurem_is_dead
			}
		}
		
		effect = {
			add_prestige_excess_to_splendour_effect = { VAL=25 }
			hidden_effect = {
				set_country_flag = bd_1_4
				swap_non_generic_missions = yes
			}
		}
	}
}

bd_1_4 = {
	slot = 1
	generic = no
	ai = yes
	has_country_shield = yes
	
	potential = {
		tag = Z99
		has_country_flag = bd_1_4
	}
	
	Z99_scepter_of_scepters = {
		icon = mission_scepter_of_scepters

		position = 11
		
		required_missions = {
			Z99_jorgurem_the_frozen
		}
		
		trigger = {
			mission_completed = Z99_scepter_industry
			has_ruler_modifier = black_scepter_of_scepter
		}
		
		effect = {
			add_prestige_or_monarch_power = { VAL=20 }
			hidden_effect = {
				set_country_flag = bd_1_5
				swap_non_generic_missions = yes
			}
		}
	}
}

bd_1_5 = {
	slot = 1
	generic = no
	ai = yes
	has_country_shield = yes
	
	potential = {
		tag = Z99
		has_country_flag = bd_1_5
	}
	
	Z99_arise = {
		icon = mission_arise

		position = 12
		
		required_missions = {
			Z99_scepter_of_scepters
		}
		
		trigger = {
			has_ruler_modifier = black_scepter_of_scepter
			is_at_war = no
			mil_power = 150
			dip_power = 150
			adm_power = 150
			owns_or_subject_of = 985
			985 = { development = 30 }
		}
		
		effect = {
			add_mil_power = -150
			add_adm_power = -150
			add_dip_power = -150
			country_event = { id = black_demesne.10 }
		}
	}
}

bd_1_6 = {
	slot = 1
	generic = no
	ai = yes
	has_country_shield = yes
	
	potential = {
		tag = Z99
	}
	
	Z99_ibevar = {
		icon = mission_big_house

		position = 13
		
		required_missions = {
			Z99_the_dark_decree
		}
		
		provinces_to_highlight = {
			OR = {
				AND = {
					region = forlorn_vale_region
					has_elven_majority_trigger = yes
				}
				province_id = 352
			}
			NOT = { country_or_subject_holds = ROOT }
		}
		
		trigger = {
			if = {
				limit = {
					forlorn_vale_region = { has_elven_majority_trigger = yes }
				}
				forlorn_vale_region = {
					type = all
					OR = {
						AND = {
							has_elven_majority_trigger = yes
							country_or_subject_holds = ROOT
						}
						NOT = { has_elven_majority_trigger = yes }
					}
				}
			}
			else = {
				owns_or_subject_of = 352
			}
		}
		
		effect = {
			add_dip_power = 100
			add_adm_power = 100
		}
	}
	
	Z99_of_teal_blood = {
		icon = mission_racial

		position = 14
		
		required_missions = {
			Z99_ibevar
		}
		
		provinces_to_highlight = {
			region = forlorn_vale_region
			OR = {
				unrest = 0
				NOT = { country_or_subject_holds = ROOT }
			}
		}
		
		trigger = {
			forlorn_vale_region = {
				type = all
				country_or_subject_holds = ROOT
				NOT = { unrest = 1 }
			}
		}
		
		effect = {
			country_event = { id = black_demesne.15 }
		}
	}
	
	Z99_a_crown_of_gold = {
		icon = mission_into_africa

		position = 15
		
		required_missions = {
			Z99_of_teal_blood
		}
		
		provinces_to_highlight = {
			province_id = 234
		}
		
		trigger = {
			owns_or_subject_of = 234
		}
		
		effect = {
			country_event = { id = black_demesne.16 }
		}
	}
	
	Z99_a_tower_of_black = {
		icon = mission_seren_cathedral

		position = 16
		
		required_missions = {
			Z99_a_crown_of_gold
		}
		
		provinces_to_highlight = {
			province_id = 216
		}
		
		trigger = {
			owns_or_subject_of = 216
		}
		
		effect = {
			country_event = { id = black_demesne.17 }
		}
	}
	
	Z99_the_coal_river = {
		icon = mission_burning_separation

		position = 17
		
		required_missions = {
			Z99_a_tower_of_black
		}
		
		provinces_to_highlight = {
			region = alenic_frontier_region
			OR = {
				has_latent_trade_goods = coal
				trade_goods = coal
			}
			NOT = { country_or_subject_holds = ROOT }
		}
		
		trigger = {
			alenic_frontier_region = {
				type = all
				OR = {
					AND = {
						OR = {
							has_latent_trade_goods = coal
							trade_goods = coal
						}
						country_or_subject_holds = ROOT
					}
					NOT = {
						has_latent_trade_goods = coal
						trade_goods = coal
					}
				}
			}
		}
		
		effect = {
			alenic_frontier_region = {
				limit = {
					OR = {
						has_latent_trade_goods = coal
						trade_goods = coal
					}
				}
				add_base_production = 5
			}
		}
	}
	
	Z99_citizen_integration = {
		icon = mission_brazilian_bandeirantes

		position = 18
		
		required_missions = {
			Z99_the_coal_river
		}
		
		provinces_to_highlight = {
			region = alenic_frontier_region
			has_human_majority_trigger = yes
			NOT = { country_or_subject_holds = ROOT }
		}
		
		trigger = {
			alenic_frontier_region = {
				type = all
				OR = {
					AND = {
						has_human_majority_trigger = yes
						country_or_subject_holds = ROOT
					}
					NOT = { has_human_majority_trigger = yes }
				}
			}
		}
		
		effect = {
			country_event = { id = black_demesne.18 }
		}
	}
	
	Z99_a_new_supply = {
		icon = mission_frozen_star

		position = 19
		
		required_missions = {
			Z99_citizen_integration
		}
		
		provinces_to_highlight = {
			region = dragon_coast_region
			trade_goods = damestear
			NOT = { country_or_subject_holds = ROOT }
		}
		
		trigger = {
			dragon_coast_region = {
				type = all
				OR = {
					AND = {
						trade_goods = damestear
						country_or_subject_holds = ROOT
					}
					NOT = { trade_goods = damestear }
				}
			}
		}
		
		effect = {
			add_country_modifier = {
				name = black_the_coastal_tears
				duration = -1
			}
		}
	}
	
	Z99_freeing_the_minds = {
		icon = mission_dark_book

		position = 20
		
		required_missions = {
			Z99_a_new_supply
		}
		
		provinces_to_highlight = {
			continent = europe
			OR = {
				has_gnomish_majority_trigger = yes
				has_gnomish_minority_trigger = yes
			}
			NOT = { country_or_subject_holds = ROOT }
		}
		
		trigger = {
			europe = {
				type = all
				OR = {
					AND = {
						OR = {
							has_gnomish_majority_trigger = yes
							has_gnomish_minority_trigger = yes
						}
						country_or_subject_holds = ROOT
					}
					NOT = {
						OR = {
							has_gnomish_majority_trigger = yes
							has_gnomish_minority_trigger = yes
						}
					}
				}
			}
		}
		
		effect = {
			country_event = { id = black_demesne.19 }
		}
	}
}

bd_2_1 = {
	slot = 2
	generic = no
	ai = yes
	has_country_shield = yes
	
	potential = {
		tag = Z99
	}
	
	Z99_eastern_consolidation = {
		icon = mission_crush_delhi

		position = 2
		
		required_missions = {
			Z99_the_ascension
		}
		
		provinces_to_highlight = {
			region = west_castanor_region
			NOT = { country_or_subject_holds = ROOT }
		}
		
		trigger = {
			west_castanor_region = {
				type = all
				country_or_subject_holds = ROOT
			}
		}
		
		effect = {
			add_stability_or_adm_power = yes
			add_prestige_excess_to_splendour_effect = { VAL=10 }
		}
	}
	
	Z99_pacifiy_the_east = {
		icon = mission_early_modern_university

		position = 3
		
		required_missions = {
			Z99_eastern_consolidation
		}
		
		provinces_to_highlight = {
			region = west_castanor_region
			OR = {
				NOT = { country_or_subject_holds = ROOT }
				unrest = 1
			}
		}
		
		trigger = {
			west_castanor_region = {
				type = all
				country_or_subject_holds = ROOT
				NOT = { unrest = 1 }
			}
		}
		
		effect = {
			add_country_modifier = {
				name = black_pacifier_of_the_east
				duration = 18250
			}
		}
	}
	
	Z99_gone_with_the_old = {
		icon = mission_gone_with_the_old

		position = 4
		
		required_missions = {
			Z99_mage_general
		}
		
		trigger = {
			is_at_war = no
			if = {
				limit = { ai = no }
				has_estate_privilege = estate_adventurers_organization_licensed_adventurers
				stability = 3
			}
		}
		
		effect = {
			reduce_stability_or_adm_power = yes
			add_country_modifier = {
				name = black_adventurer_reform
				duration = 1095
			}
		}
	}
	
	Z99_in_her_acolytes_service = {	#changed this. was formerly about new sheriffs -Jay
		icon = mission_imperial_spain

		position = 5
		
		required_missions = {
			Z99_gone_with_the_old
		}
		
		trigger = {
			NOT = { has_country_modifier = black_adventurer_reform }
			adm_power = 100
			mil_power = 100
		}
		
		effect = {
			add_adm_power = -100
			add_mil_power = -100
			custom_tooltip = in_her_acolytes_service_tooltip
			hidden_effect = { set_country_flag = in_her_acolytes_service }
		}
	}
	
	Z99_breaking_the_godshield = {
		icon = mission_invade_gujarat

		position = 7
		
		required_missions = {
			Z99_bringer_of_order
		}
		
		provinces_to_highlight = {
			province_id = 441
		}
		
		trigger = {
			owns_or_subject_of = 441
		}
		
		effect = {
			country_event = { id = black_demesne.21 }
		}
	}
	
	Z99_the_sack_of_gablain = {
		icon = mission_mounted_battle

		position = 8
		
		required_missions = {
			Z99_breaking_the_godshield
		}
		
		provinces_to_highlight = {
			province_id = 433
		}
		
		trigger = {
			owns_or_subject_of = 433
		}
		
		effect = {
			country_event = { id = black_demesne.22 }
		}
	}
	
	Z99_freeing_the_slaves = {
		icon = mission_nomad

		position = 9
		
		required_missions = {
			Z99_the_sack_of_gablain
		}
		
		provinces_to_highlight = {
			region = dostanor_region
			NOT = { country_or_subject_holds = ROOT }
		}
		
		trigger = {
			dostanor_region = {
				type = all
				country_or_subject_holds = ROOT
			}
		}
		
		effect = {
			add_adm_power = 150
			add_prestige_excess_to_splendour_effect = { VAL=20 }
		}
	}
	
	Z99_end_ettalindes_line = {
		icon = mission_marwari_horses

		position = 10
		
		required_missions = {
			Z99_freeing_the_slaves
		}
		
		trigger = {
			dostanor_region = {
				type = all
				country_or_subject_holds = ROOT
			}
			mil_power = 100
		}
		
		effect = {
			country_event = { id = black_demesne.104 }
			add_mil_power = -100
		}
	}
	
	Z99_peasant_life = {
		icon = mission_homeless_children

		position = 11
		
		required_missions = {
			Z99_end_ettalindes_line
		}
		
		trigger = {
			adm_power = 150
			mil_power = 150
			dostanor_region = {
				type = all
				country_or_subject_holds = ROOT
			}
		}
		
		effect = {
			country_event = { id = black_demesne.23 }
		}
	}
	
	Z99_the_dark_decree = {
		icon = mission_missive

		position = 12
		
		required_missions = {
			Z99_peasant_life
		}
		
		trigger = {
			power_projection = 50
			if = {
				limit = { has_dlc = "Mandate of Heaven" }
				splendor = 500
			}
			OR = {
				num_of_provinces_owned_or_owned_by_non_sovereign_subjects_with = {
					value = 20
					is_part_of_hre = yes
				}
				NOT = { hre_size = 1 }
			}
		}
		
		effect = {
			country_event = { id = black_demesne.24 }
		}
	}
	
	Z99_the_means_of_projection = {
		icon = mission_sea_battles

		position = 13
		
		required_missions = {
			Z99_the_dark_decree
		}
		
		provinces_to_highlight = {
			area = isle_of_tef_area
			NOT = { country_or_subject_holds = ROOT }
		}
		
		trigger = {
			isle_of_tef_area = {
				type = all
				country_or_subject_holds = ROOT
			}
		}
		
		effect = {
			country_event = { id = black_demesne.26 }
		}
	}
	
	Z99_seven_jewels = {
		icon = mission_subjugate_saurashtra

		position = 14
		
		required_missions = {
			Z99_the_means_of_projection
		}
		
		provinces_to_highlight = {
			OR = {
				province_id = 52
				province_id = 328
				province_id = 329
				province_id = 587
				province_id = 327
				province_id = 569
				province_id = 283
			}
			NOT = { country_or_subject_holds = ROOT }
		}
		
		trigger = {
			52 = { country_or_subject_holds = ROOT }
			328 = { country_or_subject_holds = ROOT }
			329 = { country_or_subject_holds = ROOT }
			587 = { country_or_subject_holds = ROOT }
			327 = { country_or_subject_holds = ROOT }
			569 = { country_or_subject_holds = ROOT }
			283 = { country_or_subject_holds = ROOT }
			adm_power = 150
			dip_power = 150
		}
		
		effect = {
			country_event = { id = black_demesne.27 }
		}
	}
	
	Z99_for_a_single_crown = {
		icon = mission_blood_sacrifice

		position = 15
		
		required_missions = {
			Z99_seven_jewels
		}
		
		provinces_to_highlight = {
			area = east_damesear_area
			NOT = { country_or_subject_holds = ROOT }
		}
		
		trigger = {
			east_damesear_area = {
				country_or_subject_holds = ROOT
			}
		}
		
		effect = {
			8 = { add_claim = ROOT }
			add_dip_power = 50
			add_mil_power = 50
			add_adm_power = 50
		}
	}
	
	Z99_a_crown_of_ashes = {
		icon = mission_destroyed_city

		position = 16
		
		required_missions = {
			Z99_for_a_single_crown
		}
		
		provinces_to_highlight = {
			province_id = 8
		}
		
		trigger = {
			8 = { country_or_subject_holds = ROOT }
		}
		
		effect = {
			country_event = { id = black_demesne.28 }
		}
	}
	
	Z99_a_field_of_dust = {
		icon = mission_ghost_town

		position = 17
		
		required_missions = {
			Z99_a_crown_of_ashes
			Z99_a_tower_of_black
		}
		
		provinces_to_highlight = {
			region = small_country_region
			
			NOT = { country_or_subject_holds = ROOT }
		}
		
		trigger = {
			small_country_region = {
				type = all
				country_or_subject_holds = ROOT
			}
		}
		
		effect = {
			country_event = { id = black_demesne.29 }
		}
	}
	
	Z99_elven_resort = {
		icon = mission_sinister_castle

		position = 18
		
		required_missions = {
			Z99_a_field_of_dust
		}
		
		provinces_to_highlight = {
			area = redglades_area
			
			NOT = { country_or_subject_holds = ROOT }
		}
		
		trigger = {
			redglades_area = {
				type = all
				country_or_subject_holds = ROOT
			}
		}
		
		effect = {
			add_prestige_excess_to_splendour_effect = { VAL=20 }
		}
	}
	
	Z99_a_noble_delicacy = {
		icon = mission_bankers_of_cambay

		position = 19
		
		required_missions = {
			Z99_elven_resort
		}
		
		provinces_to_highlight = {
			region = lencenor_region
			trade_goods = wine
			NOT = { country_or_subject_holds = ROOT }
		}
		
		trigger = {
			custom_trigger_tooltip = {
				tooltip = a_noble_delicacy_tooltip
				lencenor_region = {
					type = all
					if = {
						limit = { trade_goods = wine }
						country_or_subject_holds = ROOT
					}
				}
			}
		}
		
		effect = {
			country_event = { id = black_demesne.32 }
		}
	}
	
	Z99_freeing_the_body = {
		icon = mission_freeing_the_body

		position = 20
		
		required_missions = {
			Z99_a_new_supply
		}
		
		provinces_to_highlight = {
			region = dragon_coast_region
			OR = {
				has_kobold_majority_trigger = yes
				has_kobold_minority_trigger = yes
			}
			NOT = { country_or_subject_holds = ROOT }
		}
		
		trigger = {
			custom_trigger_tooltip = {
				tooltip = freeing_the_body_tooltip
				dragon_coast_region = {
					type = all
					if = {
						limit = {
							OR = {
								has_kobold_majority_trigger = yes
								has_kobold_minority_trigger = yes
							}
						}
						country_or_subject_holds = ROOT
					}
				}
			}
		}
		
		effect = {
			country_event = { id = black_demesne.31 }
		}
	}
	
	Z99_renaissance = {
		icon = mission_magnificent_castle

		position = 21
		
		required_missions = {
			Z99_freeing_the_body
			Z99_freeing_the_minds
		}
		
		trigger = {
			is_at_war = no
			dip_power = 350
			prestige = 95
		}
		
		effect = {
			add_dip_power = -350
			country_event = { id = black_demesne.66 }
		}
	}
}

bd_3_1 = {
	slot = 3
	generic = no
	ai = yes
	has_country_shield = yes
	
	potential = {
		tag = Z99
	}
	
	Z99_the_ascension	= {
		icon = mission_the_ascension

		position = 1

		required_missions = {
		}
		
		trigger = {
			is_at_war = no
		}
		
		effect = {
			country_event = { id = black_demesne.33 }
			custom_tooltip = add_magic_study_modifier_10_tt
			update_magic_study_experience_modifier = { value=10 }
		}
	}
	
	Z99_inner_consolidation	= {
		icon = mission_city_prosperity

		position = 2
		
		required_missions = {
			Z99_the_ascension
		}
		
		provinces_to_highlight = {
			region = inner_castanor_region
			NOT = { country_or_subject_holds = ROOT }
		}
		
		trigger = {
			inner_castanor_region = {
				type = all
				country_or_subject_holds = ROOT
			}
		}
		
		effect = {
			add_stability_or_adm_power = yes
			add_prestige_excess_to_splendour_effect = { VAL=10 }
		}
	}
	
	Z99_castonath_is_prosperous	= {
		icon = mission_conquer_mewar

		position = 3
		
		required_missions = {
			Z99_inner_consolidation
			Z99_eastern_consolidation
			Z99_southern_consolidation
		}
		
		provinces_to_highlight = {
			area = castonath_area
			NOT = { is_prosperous = yes }
		}
		
		trigger = {
			castonath_area = {
				type = all
				country_or_subject_holds = ROOT
				if = {
					limit = { has_dlc = "Mandate of Heaven" }
					custom_trigger_tooltip = {
						tooltip = province_is_prosperous
						is_prosperous = yes
					}
				}
				else = {
					development = 40
				}
			}
		}
		
		effect = {
			country_event  = { id = black_demesne.34 }
		}
	}
	
	Z99_absolute_power	= {
		icon = mission_shady_encounter

		position = 4
		
		required_missions = {
			Z99_pacifiy_the_east
			Z99_castonath_is_prosperous
			Z99_secure_the_south
		}
		
		trigger = {
			OR = {
				absolutism = 50
				AND = {
					adm_power = 350
					mil_power = 350
					dip_power = 350
				}
			}
			acolyte_dominion = 1
		}
		
		effect = {
			if = {
				limit = { NOT = { absolutism = 50 } }
				add_adm_power = -350
				add_mil_power = -350
				add_dip_power = -350
				add_absolutism = 20
			}
			else = {
				add_absolutism = 5
			}
			custom_tooltip = absolute_power_dominions_law_tooltip
			hidden_effect = { set_country_flag = absolute_power_dominions_law }
			custom_tooltip = add_magic_study_modifier_10_tt
			update_magic_study_experience_modifier = { value=10 }
		}
	}
	
	Z99_corrupt_absolutly = {
		icon = mission_necromancy

		position = 5
		
		required_missions = {
			Z99_absolute_power
		}
		
		trigger = {
			if = {
				limit = { ai = no }
				stability = 3
			}
			NOT = { corruption = 1 }
			is_at_war = no
		}
		
		effect = {
			add_power_projection = {
				type = mission_rewards_power_projection
				amount = 20
			}
			custom_tooltip = add_magic_study_modifier_10_tt
			update_magic_study_experience_modifier = { value=10 }
		}
	}
	
	Z99_bringer_of_order = {
		icon = mission_beheading

		position = 6
		
		required_missions = {
			Z99_corrupt_absolutly
			Z99_promote_meritocracy
			Z99_in_her_acolytes_service
			Z99_breathing_gods
			Z99_collegia_oxcura
		}
		
		trigger = {
			acolyte_dominion = 2
			is_at_war = yes
			stability = 3
			prestige = 95
		}
		
		effect = {
			add_country_modifier = {
				name = black_bringer_of_order
				duration = -1
			}
			every_subject_country = {
				limit = { is_subject_of_type = acolyte_dominion }
				add_country_modifier = {
					name = black_bringer_of_order
					duration = -1
				}
			}
		}
	}
	
	Z99_in_thy_name	= {
		icon = mission_pray_light

		position = 7
		
		required_missions = {
			Z99_bringer_of_order
		}
		
		trigger = {
			is_at_war = no
			years_of_income = 1
		}
		
		effect = {
			add_years_of_income = -1
			country_event = { id = black_demesne.35 }
		}
	}
	
	Z99_to_his_chosen_few	= {
		icon = mission_three_death

		position = 8
		
		required_missions = {
			Z99_in_thy_name
		}
		
		trigger = {
			acolyte_dominion = 3
		}
		
		effect = {
			country_event = { id = black_demesne.37 }
		}
	}
	
	Z99_the_blakpurgis	= {
		icon = mission_blackpurgis

		position = 9
		
		required_missions = {
			Z99_to_his_chosen_few
		}
		
		trigger = {
			acolyte_dominion = 3
			stability = 3
		}
		
		effect = {
			country_event = { id = black_demesne.55 }
		}
	}
	
	Z99_west_deepwoods	= {
		icon = mission_green_village

		position = 10
		
		required_missions = {
			Z99_a_timber_need
		}
		
		provinces_to_highlight = {
			region = west_deepwoods_region
			NOT = { country_or_subject_holds = ROOT }
		}
		
		trigger = {
			west_deepwoods_region = {
				type = all
				country_or_subject_holds = ROOT
			}
		}
		
		effect = {
			add_prestige_excess_to_splendour_effect = { VAL=25 }
		}
	}
	
	Z99_scepter_industry	= {
		icon = mission_conquer_malwa_guj

		position = 11
		
		required_missions = {
			Z99_west_deepwoods
		}
		
		provinces_to_highlight = {
			region = west_deepwoods_region
			OR = {
				NOT = { country_or_subject_holds = ROOT }
				devastation = 1
			}
		}
		
		trigger = {
			west_deepwoods_region = {
				type = all
				country_or_subject_holds = ROOT
				NOT = { devastation = 1 }
			}
		}
		
		effect = {
			hidden_effect = { set_country_flag = black_scepter }
			country_event = { id = black_demesne.38 }
		}
	}
	
	Z99_the_twin_spies	= {
		icon = mission_desert_city

		position = 12
		
		required_missions = {
			Z99_peasant_life
		}
		
		provinces_to_highlight = {
			OR = {
				province_id = 451
				province_id = 417
			}
			NOT = { country_or_subject_holds = ROOT }
		}
		
		trigger = {
			451 = { country_or_subject_holds = ROOT }
			417 = { country_or_subject_holds = ROOT }
		}
		
		effect = {
			country_event = { id = black_demesne.39 }
		}
	}
	
	Z99_the_eyes_and_the_ears	= {
		icon = mission_dual_diplomacy

		position = 13
		
		required_missions = {
			Z99_the_twin_spies
		}
		
		provinces_to_highlight = {
			OR = {
				province_id = 451
				province_id = 417
			}
			OR = {
				NOT = { development = 35 }
				NOT = { country_or_subject_holds = ROOT }
			}
		}
		
		trigger = {
			451 = {
				development = 35
				country_or_subject_holds = ROOT
			}
			417 = {
				development = 35
				country_or_subject_holds = ROOT
			}
		}
		
		effect = {
			add_power_projection = {
				type = mission_rewards_power_projection
				amount = 20
			}
			add_country_modifier = {
				name = black_the_eyes_and_the_ears
				duration = -1
			}
		}
	}
	
	Z99_operation_overseer	= {
		icon = mission_fleet_arrival

		position = 14
		
		required_missions = {
			Z99_the_eyes_and_the_ears
			Z99_the_means_of_projection
		}
		
		trigger = {
			years_of_income = 2
			OR = {
				AND = {
					acolyte_dominion = 2
					manpower = 100
				}
				AND = {
					acolyte_dominion = 3
					manpower = 150
				}
				AND = {
					acolyte_dominion = 4
					manpower = 200
				}
				AND = {
					acolyte_dominion = 5
					manpower = 250
				}
				AND = {
					acolyte_dominion = 6
					manpower = 300
				}
				AND = {
					acolyte_dominion = 7
					manpower = 350
				}
			}
			all_subject_country = {
				NOT = { liberty_desire = 50 }
			}
		}
		
		effect = {
			add_years_of_income = -2
			country_event = { id = black_demesne.73 }
			custom_tooltip = operation_overseer_tooltip
		}
	}
	
	Z99_the_khet_shores	= {
		icon = mission_occupy_alexandria

		position = 15
		
		required_missions = {
			Z99_operation_overseer
		}
		
		provinces_to_highlight = {
			region = north_salahad_region
			has_port = yes
			NOT = { country_or_subject_holds = ROOT }
		}
		
		trigger = {
			num_of_provinces_owned_or_owned_by_non_sovereign_subjects_with = {
				value = 10
				region = north_salahad_region
				has_port = yes
			}
		}
		
		effect = {
			add_stability_or_adm_power = yes
			add_prestige_excess_to_splendour_effect = { VAL=10 }
		}
	}
	
	Z99_stabilizing_our_grip	= {
		icon = mission_monarch_in_throne_room

		position = 16
		
		required_missions = {
			Z99_the_khet_shores
		}
		
		trigger = {
			num_of_provinces_owned_or_owned_by_non_sovereign_subjects_with = {
				value = 50
				OR = {
					region = north_salahad_region
					region = akan_region
				}
			}
			OR = {
				adm_power = 500
				AND = {
					acolyte_dominion = 1
					adm_power = 450
				}
				AND = {
					acolyte_dominion = 2
					adm_power = 400
				}
				AND = {
					acolyte_dominion = 3
					adm_power = 350
				}
				AND = {
					acolyte_dominion = 4
					adm_power = 300
				}
				AND = {
					acolyte_dominion = 5
					adm_power = 200
				}
			}
		}
		
		effect = {
			if = {
				limit = { acolyte_dominion = 5 }
				add_adm_power = -200
			}
			else_if = {
				limit = { acolyte_dominion = 4 }
				add_adm_power = -300
			}
			else_if = {
				limit = { acolyte_dominion = 3 }
				add_adm_power = -350
			}
			else_if = {
				limit = { acolyte_dominion = 2 }
				add_adm_power = -400
			}
			else_if = {
				limit = { acolyte_dominion = 1 }
				add_adm_power = -450
			}
			else = {
				add_adm_power = -500
			}
			country_event = { id = black_demesne.40 }
		}
	}
	
	Z99_claiming_the_mandate	= {
		icon = mission_vedic_education

		position = 17
		
		required_missions = {
			Z99_stabilizing_our_grip
		}
		
		trigger = {
			always = yes
		}
		
		effect = {
			custom_tooltip = will_come_with_sarhal_expansion_tooltip
		}
	}
	
	Z99_dwarf_fortress	= {
		icon = mission_sufi_shrines

		position = 18
		
		required_missions = {
			Z99_a_field_of_dust
		}
		
		provinces_to_highlight = {
			area = ruby_mountains_area
			NOT = { country_or_subject_holds = ROOT }
		}
		
		trigger = {
			ruby_mountains_area = {
				type = all
				country_or_subject_holds = ROOT
			}
		}
		
		effect = {
			add_prestige_excess_to_splendour_effect = { VAL=10 }
			add_adm_power = 50
			add_dip_power = 50
		}
	}
	
	Z99_fate_of_the_ancients	= {
		icon = mission_skull

		position = 19
		
		required_missions = {
			Z99_dwarf_fortress
			Z99_elven_resort
		}
		
		trigger = {
			is_at_war = no
			stability = 3
			adm_power = 150
		}
		
		effect = {
			add_adm_power = -150
			country_event = { id = black_demesne.67 }
		}
	}
	
	Z99_politics	= {
		icon = mission_whisper

		position = 20
		
		required_missions = {
			Z99_the_heart
		}
		
		provinces_to_highlight = {
			OR = {
				region = bulwar_proper_region
				region = harpy_hills_region
				region = bahar_region
			}
			
			NOT = { country_or_subject_holds = ROOT }
		}
		
		trigger = {
			bulwar_proper_region = {
				type = all
				country_or_subject_holds = ROOT
			}
			harpy_hills_region = {
				type = all
				country_or_subject_holds = ROOT
			}
			bahar_region = {
				type = all
				country_or_subject_holds = ROOT
			}
		}
		
		effect = {
			country_event = { id = black_demesne.41 }
		}
	}
	
	Z99_far_and_wide	= {
		icon = mission_far_and_wide

		position = 22
		
		required_missions = {
			Z99_renaissance
			Z99_power
		}
		
		trigger = {
			is_at_war = no
		}
		
		effect = {
			country_event = { id = black_demesne.42 }
			custom_tooltip = add_magic_study_modifier_100_tt
			update_magic_study_experience_modifier = { value=100 }
		}
	}
}

bd_4_1 = {
	slot = 4
	generic = no
	ai = yes
	has_country_shield = yes
	
	potential = {
		tag = Z99
	}
	
	Z99_southern_consolidation	= {
		icon = mission_trade_with_cathay

		position = 2
		
		required_missions = {
			Z99_the_ascension
		}
		
		provinces_to_highlight = {
			region = south_castanor_region
			
			NOT = { country_or_subject_holds = ROOT }
		}
		
		trigger = {
			south_castanor_region = {
				type = all
				country_or_subject_holds = ROOT
			}
		}
		
		effect = {
			add_stability_or_adm_power = yes
			add_prestige_excess_to_splendour_effect = { VAL=10 }
		}
	}
	
	Z99_secure_the_south	= {
		icon = mission_rb_increase_our_reach

		position = 3
		
		required_missions = {
			Z99_southern_consolidation
		}
		
		provinces_to_highlight = {
			area = dostans_way_area
		}
		
		trigger = {
			dostans_way_area = {
				has_fort_building_trigger = yes
			}
			mil_power = 50
		}

		effect = {
			add_mil_power = -50
			random_owned_province = {
				limit = { has_fort_building_trigger = yes area = dostans_way_area }
				add_permanent_province_modifier = {
					name = black_fortress
					duration = -1
				}
			}
		}
	}
	
	Z99_the_black_blueprint	= {
		icon = mission_religious

		position = 4
		
		required_missions = {
			Z99_the_second_acolyte
		}
		
		trigger = {
			stability = 3
			is_at_war = no
		}
		
		effect = {
			country_event = { id = black_demesne.43 }
		}
	}
	
	Z99_breathing_gods	= {
		icon = mission_women_prayer

		position = 5
		
		required_missions = {
			Z99_the_black_blueprint
		}
		
		trigger = {
			dip_power = 150
			adm_power = 150
		}
		
		effect = {
			add_dip_power = -150
			add_adm_power = -150
			country_event = { id = black_demesne.65 }
		}
	}
	
	Z99_unveiling_the_shroud	= {
		icon = mission_misty_forest

		position = 7
		
		required_missions = {
			Z99_bringer_of_order
		}
		
		trigger = {
			land_forcelimit = 250
			acolyte_dominion = 3
		}
		
		effect = {
			country_event = { id = black_demesne.44 }
		}
	}
	
	Z99_a_growing_need	= {
		icon = mission_green_village

		position = 8
		
		required_missions = {
			Z99_unveiling_the_shroud
		}
		
		trigger = {
			OR = {
				acolyte_dominion = 4
				AND = {
					acolyte_dominion = 3
					adm_power = 150
				}
				AND = {
					acolyte_dominion = 2
					adm_power = 300
				}
			}
		}
		
		effect = {
			if = {
				limit = { acolyte_dominion = 4 }
			}
			else_if = {
				limit = { acolyte_dominion = 3 }
				add_adm_power = -150
			}
			else = {
				add_adm_power = -300
			}
			country_event = { id = black_demesne.45 }
		}
	}
	
	Z99_a_timber_need	= {
		icon = mission_wine_monopolies

		position = 9
		
		required_missions = {
			Z99_a_growing_need
		}
		
		trigger = {
			dip_power = 100
			is_at_war = no
		}
		
		effect = {
			add_dip_power = -100
			add_country_modifier = {
				name = black_a_timber_need
				duration = 12775
			}
			every_subject_country = {
				limit = { is_subject_of_type = acolyte_dominion }
				add_country_modifier = {
					name = black_a_timber_need
					duration = 12775
				}
			}
		}
	}
	
	Z99_the_verdant_link	= {
		icon = mission_delighted_mage

		position = 10
		
		required_missions = {
			Z99_a_timber_need
		}
		
		provinces_to_highlight = {
			superregion = deepwoods_superregion
			has_province_modifier = verdant_link
			NOT = { country_or_subject_holds = ROOT }
		}
		
		trigger = {
			custom_trigger_tooltip = {
				tooltip = own_verdant_link_tooltip
				deepwoods_superregion = {
					type = all
					if = {
						limit = { has_province_modifier = verdant_link }
						country_or_subject_holds = ROOT
					}
				}
			}
		}
		
		effect = {
			custom_tooltip = add_magic_study_modifier_15_tt
			update_magic_study_experience_modifier = { value=15 }
			add_prestige_or_monarch_power = { VAL=20 }
		}
	}
	
	Z99_the_verdant_secret	= {
		icon = mission_secret_of_the_veil

		position = 11
		
		required_missions = {
			Z99_the_verdant_link
		}
		
		trigger = {
			OR = {
				AND = {
					adm_power = 300
					mil_power = 300
					dip_power = 300
				}
				AND = {
					is_abjuration_1 = yes
					adm_power = 200
					mil_power = 200
					dip_power = 200
				}
				AND = {
					is_abjuration_2 = yes
					adm_power = 100
					mil_power = 100
					dip_power = 100
				}
				is_abjuration_3 = yes
			}
		}
		
		effect = {
			if = {
				limit = { has_ruler_flag = abjuration_3 }
			}
			else_if = {
				limit = { has_ruler_flag = abjuration_2 }
				add_adm_power = -100
				add_mil_power = -100
				add_dip_power = -100
			}
			else_if = {
				limit = { has_ruler_flag = abjuration_1 }
				add_adm_power = -200
				add_mil_power = -200
				add_dip_power = -200
			}
			else = {
				add_adm_power = -300
				add_mil_power = -300
				add_dip_power = -300
			}
			country_event = { id = black_demesne.46 }
		}
	}
	
	Z99_encroaching_light	= {
		icon = mission_mountain_castle

		position = 12
		
		required_missions = {
			Z99_the_verdant_secret
			Z99_scepter_industry
			Z99_luxury_industry
		}
		
		trigger = {
			stability = 3
			is_at_war = no
		}
		
		effect = {
			country_event = { id = black_demesne.47 }
		}
	}
	
	Z99_breaking_the_quiet	= {
		icon = mission_retake_ceuta

		position = 13
		
		required_missions = {
			Z99_encroaching_light
		}
		
		trigger = {
			is_at_war = no
			dip_power = 100
			adm_power = 100
		}
		
		effect = {
			add_dip_power = -100
			add_adm_power = -100
			add_country_modifier = {
				name = black_breaking_the_quiet
				duration = 1825
			}
		}
	}
	
	Z99_secrets_of_the_veil	= {
		icon = mission_verdant_secret

		position = 14
		
		required_missions = {
			Z99_breaking_the_quiet
		}
		
		trigger = {
			NOT = { has_country_modifier = black_breaking_the_quiet }
			custom_trigger_tooltip = {
				tooltip = is_abjuration_3_tt
				has_ruler_flag = abjuration_3
			}
		}
		
		effect = {
			country_event = { id = black_demesne.48 }
		}
	}
	
	Z99_timed_research	= {
		icon = mission_timed_research

		position = 15
		
		required_missions = {
			Z99_secrets_of_the_veil
		}
		
		trigger = {
			dip_power = 100
			adm_power = 100
		}
		
		effect = {
			add_dip_power = -100
			add_adm_power = -100
			custom_tooltip = unlock_timed_research_privilege_tooltip
			hidden_effect = { set_country_flag = black_timed_research }
		}
	}
	
	Z99_first_bulwari_steps	= {
		icon = mission_pacify_the_berbers

		position = 16
		
		required_missions = {
			Z99_the_khet_shores
		}
		
		provinces_to_highlight = {
			region = bulwar_proper_region
			NOT = { country_or_subject_holds = ROOT }
		}
		
		trigger = {
			num_of_provinces_owned_or_owned_by_non_sovereign_subjects_with = {
				value = 10
				region = bulwar_proper_region
			}
		}
		
		effect = {
			add_dip_power = 150
			add_prestige_excess_to_splendour_effect = { VAL=10 }
		}
	}
	
	Z99_operation_sunset	= {
		icon = mission_conquer_arakan

		position = 17
		
		required_missions = {
			Z99_first_bulwari_steps
		}
		
		trigger = {
			is_at_war = no
			all_subject_country = {
				NOT = { liberty_desire = 50 }
			}
		}
		
		effect = {
			custom_tooltip = operation_sunset_tooltip
			country_event = { id = black_demesne.74 }
		}
	}
	
	Z99_the_entrance	= {
		icon = mission_growth_of_ahmedabad

		position = 18
		
		required_missions = {
			Z99_operation_sunset
		}
		
		provinces_to_highlight = {
			province_id = 565
		}
		
		trigger = {
			565 = {
				country_or_subject_holds = ROOT
			}
		}
		
		effect = {
			country_event = { id = black_demesne.49 }
		}
	}
	
	Z99_the_heart	= {
		icon = mission_guilds_of_barcelona

		position = 19
		
		required_missions = {
			Z99_the_entrance
		}
		
		provinces_to_highlight = {
			province_id = 601
		}
		
		trigger = {
			601 = {
				country_or_subject_holds = ROOT
			}
		}
		
		effect = {
			country_event = { id = black_demesne.50 }
		}
	}
	
	Z99_brotherhood	= {
		icon = mission_guarded_market

		position = 20
		
		required_missions = {
			Z99_the_heart
		}
		
		provinces_to_highlight = {
			region = bulwar_proper_region
			OR = {
				NOT = {
					OR = {
						has_owner_accepted_culture = yes
						has_owner_culture = yes
						owner = { is_subject_of_type = acolyte_dominion }
					}
				}
				NOT = { country_or_subject_holds = ROOT }
			}
		}
		
		trigger = {
			bulwar_proper_region = {
				type = all
				OR = {
					has_owner_accepted_culture = yes
					has_owner_culture = yes
					owner = { is_subject_of_type = acolyte_dominion }
				}
				country_or_subject_holds = ROOT
			}
		}
		
		effect = {
			country_event = { id = black_demesne.69 }
		}
	}
	
	Z99_power	= {
		icon = mission_thinking_king

		position = 21
		
		required_missions = {
			Z99_brotherhood
			Z99_politics
			Z99_order
		}
		
		trigger = {
			is_at_war = no
		}
		
		effect = {
			country_event = { id = black_demesne.70 }
		}
	}
}

bd_5_1 = {
	slot = 5
	generic = no
	ai = yes
	has_country_shield = yes
	
	potential = {
		tag = Z99
	}
	
	Z99_the_first_acolyte	= {
		icon = mission_writing_book

		position = 2
		
		required_missions = {
			Z99_the_ascension
		}
		
		trigger = {
			OR = {
				AND = {
					is_at_war = no
					any_owned_province = {
						has_state_edict = acolyte_territory_edict
					}
				}
				acolyte_dominion = 1
			}
		}
		
		effect = {
			if = {
				limit = { acolyte_dominion = 1 }
				add_dip_power = 100
				add_mil_power = 100
				add_adm_power = 100
				add_prestige_excess_to_splendour_effect = { VAL=10 }
			}
			else = {
				hidden_effect = { set_country_flag = special_acolyte_creation }
				country_event = { id = black_demesne.5 }
			}
			custom_tooltip = unlock_acolyte_estate_tooltip
			hidden_effect = {
				set_country_flag = black_acolyte_estate
				# set_estate_privilege = estate_acolytes_land_share_20
				# set_estate_privilege = estate_acolytes_the_black_host
				country_event = { id = black_demesne.102 days = 1 }
			}
		}
	}
	
	Z99_the_second_acolyte	= {
		icon = mission_priest_church

		position = 3
		
		required_missions = {
			Z99_the_first_acolyte
		}
		
		trigger = {
			OR = {
				AND = {
					is_at_war = no
					any_owned_province = {
						has_state_edict = acolyte_territory_edict
					}
				}
				acolyte_dominion = 2
			}
		}
		
		effect = {
			if = {
				limit = { acolyte_dominion = 2 }
				add_dip_power = 200
				add_mil_power = 200
				add_adm_power = 200
				add_prestige_excess_to_splendour_effect = { VAL=10 }
			}
			else = {
				hidden_effect = { set_country_flag = special_acolyte_creation }
				country_event = { id = black_demesne.5 }
			}
			hidden_effect = { set_country_flag = black_acolyte_estate }
		}
	}
	
	Z99_wardens_of_the_state	= {
		icon = mission_the_covenant

		position = 4
		
		required_missions = {
			Z99_the_second_acolyte
		}
		
		trigger = {
			is_at_war = no
			dip_power = 150
			adm_power = 150
		}
		
		effect = {
			add_dip_power = -150
			add_adm_power = -150
			country_event = { id = black_demesne.51 }
		}
	}
	
	Z99_collegia_oxcura	= {
		icon = mission_dha_thatchil

		position = 5
		
		required_missions = {
			Z99_wardens_of_the_state
		}
		
		trigger = {
			OR = {
				AND = {
					advisor = court_mage
					adm_power = 100
				}
				adm_power = 300
			}
		}
		
		effect = {
			if = {
				limit = { advisor = court_mage }
				add_adm_power = -100
			}
			else = {
				add_adm_power = -300
			}
			country_event = { id = black_demesne.52 }
		}
	}
	
	Z99_test_subjects	= {
		icon = mission_alone_in_the_wood

		position = 8
		
		required_missions = {
			Z99_unveiling_the_shroud
		}
		
		provinces_to_highlight = {
			OR = {
				province_id = 3068
				province_id = 3054
			}
			NOT = { country_or_subject_holds = ROOT }
		}
		
		trigger = {
			3068 = {
				country_or_subject_holds = ROOT
			}
			3054 = {
				country_or_subject_holds = ROOT
			}
		}
		
		effect = {
			country_event = { id = black_demesne.53 }
		}
	}
	
	Z99_border_laboratories	= {
		icon = mission_make_it_fall

		position = 9
		
		required_missions = {
			Z99_test_subjects
		}
		
		provinces_to_highlight = {
			OR = {
				province_id = 889
				province_id = 813
			}
		}
		
		trigger = {
			889 = {
				country_or_subject_holds = ROOT
				development = 25
			}
			813 = {
				country_or_subject_holds = ROOT
				development = 25
			}
		}
		
		effect = {
			889 = {
				add_permanent_province_modifier = {
					name = black_border_laboratories
					duration = -1
				}
			}
			813 = {
				add_permanent_province_modifier = {
					name = black_border_laboratories
					duration = -1
				}
			}
			add_adm_power = 50
		}
	}
	
	Z99_east_deepwoods	= {
		icon = mission_alone_in_the_forest

		position = 10
		
		required_missions = {
			Z99_a_timber_need
		}
		
		provinces_to_highlight = {
			region = east_deepwoods_region
			NOT = { country_or_subject_holds = ROOT }
		}
		
		trigger = {
			east_deepwoods_region = {
				type = all
				country_or_subject_holds = ROOT
			}
		}
		
		effect = {
			add_prestige_or_monarch_power = { VAL=25 }
		}
	}
	
	Z99_luxury_industry	= {
		icon = mission_rajput_trade_guilds

		position = 11
		
		required_missions = {
			Z99_east_deepwoods
		}
		
		trigger = {
			adm_power = 150
			dip_power = 150
		}
		
		effect = {
			add_adm_power = -150
			add_dip_power = -150
			east_deepwoods_region = {
				limit = { trade_goods = tropical_wood }
				add_permanent_province_modifier = {
					name = black_luxury_industry
					duration = -1
				}
			}
		}
	}
}
	
bd_5_2 = {
	slot = 5
	generic = no
	ai = yes
	has_country_shield = yes
	
	potential = {
		tag = Z99
		has_dlc = "Leviathan"
		has_country_flag = bd_5_2
	}
	
	Z99_the_dames_tear	= {
		icon = mission_the_dame_tears

		position = 13
		
		required_missions = {
			Z99_encroaching_light
		}
		
		trigger = {
			OR = {
				damestear = 1
				any_subject_country = {
					damestear = 1
				}
				trading_bonus = {
					trade_goods = damestear
					value = yes
				}
			}
		}
		
		effect = {
			country_event = { id = black_demesne.54 }
		}
	}
	
	Z99_the_nine_eternal_pillars	= {
		icon = mission_magisterium_breakthrought

		position = 14
		
		provinces_to_highlight = {
			OR = {
				province_id = 3006
				province_id = 3018
				province_id = 3016
				province_id = 3011
				province_id = 3027
				province_id = 3024
				province_id = 3037
				province_id = 3041
				province_id = 3045
			}
		}
		
		required_missions = {
			Z99_the_dames_tear
			Z99_breaking_the_quiet
		}
		
		trigger = {
			is_at_war = no
			adm_power = 200
			dip_power = 200
			years_of_income = 2
			3006 = { 
				country_or_subject_holds = ROOT
				NOT = { has_construction = building }
				NOT = { has_construction = core }
				NOT = { has_construction = culture }
				NOT = { has_construction = missionary }
				NOT = { has_colonist = yes }
			}
			3018 = { 
				country_or_subject_holds = ROOT
				NOT = { has_construction = building }
				NOT = { has_construction = core }
				NOT = { has_construction = culture }
				NOT = { has_construction = missionary }
				NOT = { has_colonist = yes }
			}
			3016 = { 
				country_or_subject_holds = ROOT
				NOT = { has_construction = building }
				NOT = { has_construction = core }
				NOT = { has_construction = culture }
				NOT = { has_construction = missionary }
				NOT = { has_colonist = yes }
			}
			3011 = { 
				country_or_subject_holds = ROOT
				NOT = { has_construction = building }
				NOT = { has_construction = core }
				NOT = { has_construction = culture }
				NOT = { has_construction = missionary }
				NOT = { has_colonist = yes }
			}
			3027 = { 
				country_or_subject_holds = ROOT
				NOT = { has_construction = building }
				NOT = { has_construction = core }
				NOT = { has_construction = culture }
				NOT = { has_construction = missionary }
				NOT = { has_colonist = yes }
			}
			3024 = { 
				country_or_subject_holds = ROOT
				NOT = { has_construction = building }
				NOT = { has_construction = core }
				NOT = { has_construction = culture }
				NOT = { has_construction = missionary }
				NOT = { has_colonist = yes }
			}
			3037 = { 
				country_or_subject_holds = ROOT
				NOT = { has_construction = building }
				NOT = { has_construction = core }
				NOT = { has_construction = culture }
				NOT = { has_construction = missionary }
				NOT = { has_colonist = yes }
			}
			3041 = { 
				country_or_subject_holds = ROOT
				NOT = { has_construction = building }
				NOT = { has_construction = core }
				NOT = { has_construction = culture }
				NOT = { has_construction = missionary }
				NOT = { has_colonist = yes }
			}
			3045 = { 
				country_or_subject_holds = ROOT
				NOT = { has_construction = building }
				NOT = { has_construction = core }
				NOT = { has_construction = culture }
				NOT = { has_construction = missionary }
				NOT = { has_colonist = yes }
			}
		}
		
		effect = {
			add_adm_power = -200
			add_dip_power = -200
			add_years_of_income = -2
			country_event = { id = black_demesne.58 }
		}
	}
}


bd_5_3 = {
	slot = 5
	generic = no
	ai = yes
	has_country_shield = yes
	
	potential = {
		tag = Z99
		has_country_flag = bd_5_3
	}
	
	Z99_underground_path	= {
		icon = mission_rb_trinity_college_dublin

		position = 15
		
		provinces_to_highlight = {
			OR = {
				AND = {
					province_id = 3006
					NOT = { has_great_project = { type = eternal_pillar_1 tier = 3 } }
				}
				AND = {
					province_id = 3018
					NOT = { has_great_project = { type = eternal_pillar_2 tier = 3 } }
				}
				AND = {
					province_id = 3016
					NOT = { has_great_project = { type = eternal_pillar_3 tier = 3 } }
				}
				AND = {
					province_id = 3011
					NOT = { has_great_project = { type = eternal_pillar_4 tier = 3 } }
				}
				AND = {
					province_id = 3027
					NOT = { has_great_project = { type = eternal_pillar_5 tier = 3 } }
				}
				AND = {
					province_id = 3024
					NOT = { has_great_project = { type = eternal_pillar_6 tier = 3 } }
				}
				AND = {
					province_id = 3037
					NOT = { has_great_project = { type = eternal_pillar_7 tier = 3 } }
				}
				AND = {
					province_id = 3041
					NOT = { has_great_project = { type = eternal_pillar_8 tier = 3 } }
				}
				AND = {
					province_id = 3045
					NOT = { has_great_project = { type = eternal_pillar_9 tier = 3 } }
				}
			}
		}
		
		required_missions = {
			Z99_the_nine_eternal_pillars
		}
		
		trigger = {
			3006 = { 
				country_or_subject_holds = ROOT
				has_great_project = {
					type = eternal_pillar_1
					tier = 3
				}
			}
			3018 = { 
				country_or_subject_holds = ROOT
				has_great_project = {
					type = eternal_pillar_2
					tier = 3
				}
			}
			3016 = { 
				country_or_subject_holds = ROOT
				has_great_project = {
					type = eternal_pillar_3
					tier = 3
				}
			}
			3011 = { 
				country_or_subject_holds = ROOT
				has_great_project = {
					type = eternal_pillar_4
					tier = 3
				}
			}
			3027 = { 
				country_or_subject_holds = ROOT
				has_great_project = {
					type = eternal_pillar_5
					tier = 3
				}
			}
			3024 = { 
				country_or_subject_holds = ROOT
				has_great_project = {
					type = eternal_pillar_6
					tier = 3
				}
			}
			3037 = { 
				country_or_subject_holds = ROOT
				has_great_project = {
					type = eternal_pillar_7
					tier = 3
				}
			}
			3041 = { 
				country_or_subject_holds = ROOT
				has_great_project = {
					type = eternal_pillar_8
					tier = 3
				}
			}
			3045 = { 
				country_or_subject_holds = ROOT
				has_great_project = {
					type = eternal_pillar_9
					tier = 3
				}
			}
		}
		
		effect = {
			country_event = { id = black_demesne.59 }
		}
	}
}

bd_5_4 = {
	slot = 5
	generic = no
	ai = yes
	has_country_shield = yes
	
	potential = {
		tag = Z99
		has_country_flag = bd_5_4
	}
	
	Z99_the_world_root	= {
		icon = mission_tree_fishing

		position = 16
		
		required_missions = {
			Z99_underground_path
		}
		
		trigger = {
			if = {
				limit = { ai = no }
				custom_trigger_tooltip = {
					tooltip = the_world_root_tooltip
					874 = { has_province_modifier = black_world_root }
				}
			}
			else = {
				stability = 3
			}
			is_at_war = no
		}
		
		effect = {
			country_event = { id = black_demesne.61 }
			hidden_effect = { set_country_flag = world_root_mapped }
		}
	}
}

bd_5_5 = {
	slot = 5
	generic = no
	ai = yes
	has_country_shield = yes
	
	potential = {
		tag = Z99
		has_country_flag = bd_5_5
	}
	
	Z99_the_well_of_majesty	= {
		icon = mission_well_of_majesty

		position = 17
		
		required_missions = {
			Z99_the_world_root
		}
		
		trigger = {
			874 = {
				has_great_project = {
					type = well_of_majesty
					tier = 3
				}
			}
		}
		
		effect = {
			country_event = { id = black_demesne.63 }
			hidden_effect = { 
				set_country_flag = bd_5_6
				swap_non_generic_missions = yes
			}
		}
	}
}

bd_5_6 = {
	slot = 5
	generic = no
	ai = yes
	has_country_shield = yes
	
	potential = {
		tag = Z99
		has_country_flag = bd_5_6
	}
	
	Z99_solaris	= {
		icon = mission_solaris

		position = 19
		
		required_missions = {
			Z99_the_well_of_majesty
			Z99_the_entrance
		}
		
		trigger = {
			is_at_war = no
			is_conjuration_3 = yes
			is_illusion_3 = yes
			is_evocation_3 = yes
		}
		
		effect = {
			country_event = { id = black_demesne.68 }
		}
	}
}

bd_5_7 = {
	slot = 5
	generic = no
	ai = yes
	has_country_shield = yes
	
	potential = {
		tag = Z99
	}
	
	Z99_order	= {
		icon = mission_unite_home_region

		position = 20
		
		required_missions = {
			Z99_the_heart
		}
		
		trigger = {
		}
		
		effect = {
			country_event = { id = black_demesne.71 }
		}
	}
}


