
mykx_1 = {
	slot = 1
	generic = no
	ai = yes
	potential = {
		tag = G93
	}
	has_country_shield = yes
	
	G93_replenish_scourge_fleet = {
		icon = imperial_navy
		required_missions = {  }
		position = 1
		
		trigger = {
			navy_size = 30
		}
		
		effect = {
			add_navy_tradition = 5
			add_country_modifier = {
				name = "reveria_naval_enthusiasm"
				duration = 7300
			}
		}
	}
	
	G93_expand_secondary_docks = {
		icon = fortify_malta
		required_missions = { G93_replenish_scourge_fleet G93_docks_for_our_ships }
		position = 2
		
		provinces_to_highlight = {
			OR = {
				province_id = 1055
				province_id = 1086
			}
			NOT = {
				AND = {
					owned_by = ROOT
					is_core = ROOT
					has_dock_building_trigger = yes
					has_shipyard_building_trigger = yes
				}
			}
		}
		
		trigger = {
			1055 = {
				owned_by = ROOT
				is_core = ROOT
				has_dock_building_trigger = yes
				has_shipyard_building_trigger = yes
				# has_building = impressment_offices
			}
			1086 = {
				owned_by = ROOT
				is_core = ROOT
				has_dock_building_trigger = yes
				has_shipyard_building_trigger = yes
				# has_building = impressment_offices
			}
		}
		
		effect = {
			add_navy_tradition = 5
			add_sailors = 1000
		}
	}
	
	G93_the_troll_toll = {
		icon = mission_fleet_arrival
		required_missions = { G93_expand_secondary_docks }
		position = 3
		
		provinces_to_highlight = {
			province_id = 1519
		}
		
		trigger = {
			1519 = {
				has_privateer_share_in_trade_node = {
					who = ROOT
					share = 0.25
				}
			}
		}
		
		effect = {
			define_advisor = {
				type = trader
				name = "Thekek 'The Grabbler'"
				skill = 2
				culture = west_sandfang_gnoll
				religion = xhazobkult
				cost_multiplier = 0.33
			}
			add_country_modifier = {
				name = mykx_privateer_influx
				duration = 7300 #20 Years
			}
			add_navy_tradition = 5
			add_sailors = 1000
		}
	}
	
	G93_naval_and_smuggle_plans = {
		icon = mission_caribbean_cn
		required_missions = { G93_the_troll_toll G93_securing_our_surroundings }
		position = 4
		
		provinces_to_highlight = {
			owned_by = ROOT
			has_port = yes
			NOT = {
				AND = {
					has_shipyard_building_trigger = no
					num_free_building_slots = 1
					NOT = { has_construction = building }
					is_colony = no
				}
			}
		}
		
		trigger = {
			dip_power = 100
			treasury = 1000
			calc_true_if = {
				custom_trigger_tooltip = {
					tooltip = G93_shipyards_tt
					all_owned_province = {
						has_port = yes
						has_shipyard_building_trigger = no
						num_free_building_slots = 1
						NOT = { has_construction = building }
						is_colony = no
					}
				}
				amount = 10
			}
		}
		
		effect = {
			add_dip_power = -100
			custom_tooltip = mykx_10_shipyards_tt
			hidden_effect = {
				random_owned_province = {
					limit = {
						has_port = yes
						has_shipyard_building_trigger = no
						num_free_building_slots = 1
						NOT = { has_construction = building }
						is_colony = no
					}
					add_building_construction = {
						building = shipyard
						speed = 0.5
						cost = 0.8
					}
				}
				random_owned_province = {
					limit = {
						has_port = yes
						has_shipyard_building_trigger = no
						num_free_building_slots = 1
						NOT = { has_construction = building }
						is_colony = no
					}
					add_building_construction = {
						building = shipyard
						speed = 0.5
						cost = 0.8
					}
				}
				random_owned_province = {
					limit = {
						has_port = yes
						has_shipyard_building_trigger = no
						num_free_building_slots = 1
						NOT = { has_construction = building }
						is_colony = no
					}
					add_building_construction = {
						building = shipyard
						speed = 0.5
						cost = 0.8
					}
				}
				random_owned_province = {
					limit = {
						has_port = yes
						has_shipyard_building_trigger = no
						num_free_building_slots = 1
						NOT = { has_construction = building }
						is_colony = no
					}
					add_building_construction = {
						building = shipyard
						speed = 0.5
						cost = 0.8
					}
				}
				random_owned_province = {
					limit = {
						has_port = yes
						has_shipyard_building_trigger = no
						num_free_building_slots = 1
						NOT = { has_construction = building }
						is_colony = no
					}
					add_building_construction = {
						building = shipyard
						speed = 0.5
						cost = 0.8
					}
				}
				random_owned_province = {
					limit = {
						has_port = yes
						has_shipyard_building_trigger = no
						num_free_building_slots = 1
						NOT = { has_construction = building }
						is_colony = no
					}
					add_building_construction = {
						building = shipyard
						speed = 0.5
						cost = 0.8
					}
				}
				random_owned_province = {
					limit = {
						has_port = yes
						has_shipyard_building_trigger = no
						num_free_building_slots = 1
						NOT = { has_construction = building }
						is_colony = no
					}
					add_building_construction = {
						building = shipyard
						speed = 0.5
						cost = 0.8
					}
				}
				random_owned_province = {
					limit = {
						has_port = yes
						has_shipyard_building_trigger = no
						num_free_building_slots = 1
						NOT = { has_construction = building }
						is_colony = no
					}
					add_building_construction = {
						building = shipyard
						speed = 0.5
						cost = 0.8
					}
				}
				random_owned_province = {
					limit = {
						has_port = yes
						has_shipyard_building_trigger = no
						num_free_building_slots = 1
						NOT = { has_construction = building }
						is_colony = no
					}
					add_building_construction = {
						building = shipyard
						speed = 0.5
						cost = 0.8
					}
				}
				random_owned_province = {
					limit = {
						has_port = yes
						has_shipyard_building_trigger = no
						num_free_building_slots = 1
						NOT = { has_construction = building }
						is_colony = no
					}
					add_building_construction = {
						building = shipyard
						speed = 0.5
						cost = 0.8
					}
				}
				random_owned_province = {
					limit = {
						has_port = yes
						has_shipyard_building_trigger = no
						num_free_building_slots = 1
						NOT = { has_construction = building }
						is_colony = no
					}
					add_building_construction = {
						building = shipyard
						speed = 0.5
						cost = 0.8
					}
				}
			}
		}
	}
	
	G93_ruined_sea_monopoly = {
		icon = mission_caribbean_cn
		required_missions = { G93_naval_and_smuggle_plans }
		position = 4
		
		provinces_to_highlight = {
			OR = {
				province_id = 1077
				province_id = 1086
				province_id = 1055
				province_id = 1083
				province_id = 1006
			}
			NOT = {
				AND = {
					owned_by = ROOT
					is_core = ROOT
					has_trade_building_trigger = yes
				}
			}
		}
		
		trigger = {
			1077 = {
				owned_by = ROOT
				is_core = ROOT
				has_trade_building_trigger = yes
			}
			1086 = {
				owned_by = ROOT
				is_core = ROOT
				has_trade_building_trigger = yes
			}
			1055 = {
				owned_by = ROOT
				is_core = ROOT
				has_trade_building_trigger = yes
			}
			1083 = {
				owned_by = ROOT
				is_core = ROOT
				has_trade_building_trigger = yes
			}
			1006 = {
				owned_by = ROOT
				is_core = ROOT
				has_trade_building_trigger = yes
			}
		}
		
		effect = {
			add_faction_influence = {
				faction = pr_smugglers
				influence = 10
			}
			add_country_modifier = {
				name = mykx_ruined_sea_dominance
				duration = 7300 #20 Years
			}
		}
	}
}

mykx_2 = {
	slot = 2
	generic = no
	ai = yes
	potential = {
		tag = G93
	}
	has_country_shield = yes
	
	G93_docks_for_our_ships = {
		icon = adriatic_access
		required_missions = {  }
		position = 1
		
		provinces_to_highlight = {
			province_id = 1077
			NOT = {
				AND = {
					has_dock_building_trigger = yes
					has_shipyard_building_trigger = yes
				}
			}
		}
		
		trigger = {
			treasury = 200
			1077 = {
				has_dock_building_trigger = yes
				has_shipyard_building_trigger = yes
			}
		}
		
		effect = {
			add_treasury = -200
			add_navy_tradition = 5
			1077 = {
				add_province_modifier = {
					name = "mykx_ilzin_dockyard"
					duration = -1
				}
			}
		}
	}
	
	G93_the_calasanni = {
		icon = capture_adriatic_ports
		required_missions = { G93_collecting_our_bearings }
		position = 2
		
		provinces_to_highlight = {
			province_id = 1086
		}
		
		trigger = {
			if = {
				limit = { exists = G98 }
				has_spy_network_in = {
					who = G98
					value = 20
				}
				OR = {
					1086 = { has_province_modifier = slaves_raided }
					owns_core_province = 1086
				}
			}
			else = {
				is_year = 1510
				owns_core_province = 1086
				NOT = { exists = G98 }
			}
		}
		
		effect = {
			if = {
				limit = { exists = G98 }
				add_spy_network_in = {
					who = G98
					value = -20
				}
				every_province = {
					limit = { owned_by = G98 }
					add_permanent_claim = ROOT
				}
			}
			else = {
				add_prestige = 5
			}
		}
	}
	
	G93_fate_of_the_calasanni = {
		icon = mission_burning_castle
		required_missions = { G93_the_calasanni }
		position = 3
		
		trigger = {
			owns = 1086
			NOT = { exists = G98 }
		}
		
		provinces_to_highlight = {
			province_id = 1086
			NOT = { owned_by = ROOT }
		}
		
		effect = {
			if = {
				limit = { any_owned_province = { culture = arbarani } }
				country_event = { id = mykx.1 }
			}
			else = {
				country_event = { id = mykx.2 }
			}
		}
	}
	
	G93_followers_of_saamir = {
		icon = mission_break_sicily
		required_missions = { G93_fate_of_the_calasanni }
		position = 4
		
		provinces_to_highlight = {
			province_id = 1052
		}
		
		trigger = {
			if = {
				limit = { exists = G92 }
				has_spy_network_in = {
					who = G92
					value = 20
				}
				OR = {
					1052 = { has_province_modifier = slaves_raided }
					owns_core_province = 1052
				}
			}
			else = {
				is_year = 1510
				owns_core_province = 1052
				NOT = { exists = G92 }
			}
		}
		
		effect = {
			if = {
				limit = { exists = G92 }
				add_spy_network_in = {
					who = G92
					value = -20
				}
				every_province = {
					limit = { owned_by = G92 }
					add_permanent_claim = ROOT
				}
			}
			else = {
				add_prestige = 5
			}
		}
	}
	
	G93_set_the_sun_on_saamir = {
		icon = mission_burning_castle
		required_missions = { G93_followers_of_saamir }
		position = 5
		
		provinces_to_highlight = {
			province_id = 1052
			NOT = { owned_by = ROOT }
		}
		
		trigger = {
			owns = 1052
			NOT = { exists = G92 }
		}
		
		effect = {
			if = {
				limit = {
					any_owned_province = {
							culture = zanite
					}
				}
				country_event = { id = mykx.3 }
			}
			else = {
				country_event = { id = mykx.4 }
			}
		}
	}
}

mykx_3 = {
	slot = 3
	generic = no
	ai = yes
	potential = {
		tag = G93
	}
	has_country_shield = yes
	
	G93_collecting_our_bearings = {
		icon = mission_look_west
		required_missions = {  }
		position = 1
		
		provinces_to_highlight = {
			region = ruined_isles_region
			NOT = { has_discovered = ROOT }
		}
		
		trigger = {
			calc_true_if = {
				ruined_isles_region = {
					has_discovered = ROOT
				}
				amount = 14
			}
		}
		
		effect = {
			country_event = { id = mykx.5 }
		}
	}
	
	G93_securing_our_surroundings = {
		icon = mission_retake_ceuta
		required_missions = { G93_collecting_our_bearings }
		position = 3
		
		provinces_to_highlight = {
			area = mykx_isles_area
			NOT = {
				AND = {
					owned_by = ROOT
					is_core = ROOT
				}
			}
		}
		
		trigger = {
			mykx_isles_area = {
				type = all
				owned_by = ROOT
				is_core = ROOT
			}
		}
		
		effect = {
			country_event = { id = mykx.6 }
		}
	}
	
	G93_wealth_of_the_north = {
		icon = mission_jawal_silver_mine
		required_missions = { G93_securing_our_surroundings }
		position = 4
		
		provinces_to_highlight = {
			colonial_region = colonial_noruin
			has_port = yes
			NOT = { has_discovered = ROOT }
		}
		
		trigger = {
			colonial_noruin = {
				type = all
				OR = {
					has_discovered = ROOT
					has_port = no
				}
			}
		}
		
		effect = {
			country_event = { id = mykx.7 }
		}
	}
	
	G93_raiders_of_noruin = {
		icon = mission_impaled_soldies
		required_missions = { G93_wealth_of_the_north }
		position = 5
		
		provinces_to_highlight = {
			colonial_region = colonial_noruin
			NOT = {
				has_province_modifier = slaves_raided
				has_port = no
				country_or_subject_holds = ROOT
				is_empty = yes
				owner = { truce_with = ROOT }
			}
		}
		
		trigger = {
			colonial_noruin = {
				type = all
				OR = {
					country_or_subject_holds = ROOT
					has_province_modifier = slaves_raided
					has_port = no
					is_empty = yes
					owner = { truce_with = ROOT }
				}
			}
		}
		
		effect = {
			add_stability_or_adm_power = yes
			add_country_modifier = {
				name = "mykx_raiders_of_noruin"
				duration = -1
			}
		}
	}
	
	G93_proclaim_grand_republic_of_mykx = {
		icon = mission_empire
		required_missions = { G93_every_ship_an_observer G93_set_the_sun_on_saamir G93_ruined_sea_monopoly G93_raiders_of_noruin G93_graxarr_everpyre }
		position = 6
		
		provinces_to_highlight = {
			OR = {
				province_id = 1077
				province_id = 1075
			}
			NOT = {
				AND = {
					owned_by = ROOT
					is_core = ROOT
				}
			}
		}
		
		trigger = {
			stability = 1
			is_at_war = no
			has_any_disaster = no
			total_development = 200
			treasury = 200
			adm_power = 50
			dip_power = 50
			custom_trigger_tooltip = {
				tooltip = xhazobkult_execute_sacrifices_party_tt
				check_variable = {
					which = total_gathered_sacrifices
					value = 5
				}
			}
			owns_core_province = 1077
			owns_core_province = 1075
		}
		
		effect = {
			add_treasury = -200
			add_adm_power = -50
			add_dip_power = -50
			country_event = { id = mykx.8 }
			ruined_isles_region = {
				add_permanent_claim = ROOT
			}
			set_country_flag = mykx_feast_had_flag
			swap_non_generic_missions = yes
		}
	}
}

mykx_4 = {
	slot = 4
	generic = no
	ai = yes
	potential = {
		tag = G93
	}
	has_country_shield = yes
	
	G93_punishments_in_the_pirate_code = {
		icon = crusader_fleet
		required_missions = {  }
		position = 1
		
		trigger = {
			republican_tradition = 90
			government_reform_progress = 25
		}
		
		effect = {
			add_republican_tradition = -10
			change_government_reform_progress = -25
			country_event = { id = mykx.9 }
		}
	}
	
	G93_dwarves_on_ships = {
		icon = crusader_fleet
		required_missions = { G93_collecting_our_bearings }
		position = 2
		
		provinces_to_highlight = {
			province_id = 1055
		}
		
		trigger = {
			if = {
				limit = { exists = G90 }
				has_spy_network_in = {
					who = G90
					value = 20
				}
				OR = {
					1055 = { has_province_modifier = slaves_raided }
					owns_core_province = 1055
				}
			}
			else = {
				is_year = 1510
				owns_core_province = 1055
				NOT = { exists = G90 }
			}
		}
		
		effect = {
			if = {
				limit = {
					exists = G90
				}
				add_spy_network_in = {
					who = G90
					value = -20
				}
				every_province = {
					limit = {
						owned_by = G90
					}
					add_permanent_claim = ROOT
				}
			}
			else = {
				add_prestige = 5
			}
		}
	}
	
	G93_fate_of_the_dwarves = {
		icon = mission_burning_man
		required_missions = { G93_dwarves_on_ships }
		position = 3
		
		provinces_to_highlight = {
			province_id = 1055
			NOT = {
				AND = {
					owned_by = ROOT
					is_core = ROOT
				}
			}
		}
		
		trigger = {
			owns = 1055
			NOT = { exists = G90 }
		}
		
		effect = {
			if = {
				limit = {
					any_owned_province = {
						culture = silver_dwarf
					}
				}
				country_event = { id = mykx.10 }
			}
			else = {
				country_event = { id = mykx.11 }
			}
		}
	}
	
	G93_repair_graxarr_temple = {
		icon = mission_jungle_pilgrim
		required_missions = { G93_securing_our_surroundings G93_fate_of_the_dwarves }
		position = 4
		
		provinces_to_highlight = {
			province_id = 1075
			NOT = {
				AND = {
					owned_by = ROOT
					is_core = ROOT
					num_free_building_slots = 1
					NOT = { has_construction = building }
				}
			}
		}
		
		trigger = {
			adm_power = 100
			custom_trigger_tooltip = {
			tooltip = mykx_graxarr_costs_tt
				OR = {
					treasury = 250
					AND = {
						has_country_modifier = mykx_dwarven_workforce
						treasury = 100
					}
				}
			}
			owns_core_province = 1075
			1075 = {
				num_free_building_slots = 1
				NOT = { has_construction = building }
			}
		}
		
		effect = {
			1075 = {
				add_building_construction = {
					building = cathedral
					speed = 3
					cost = 0
				}
			}
			if = {
				limit = { has_country_modifier = mykx_dwarven_workforce }
				add_treasury = -100
				1075 = { add_dwarven_minority_size_effect = yes }
			}
			else = {
				add_treasury = -250
			}
		}
	}
	
	G93_graxarr_everpyre = {
		icon = mission_burning_parthenon
		required_missions = { G93_repair_graxarr_temple }
		position = 5
		
		provinces_to_highlight = {
			province_id = 1075
			NOT = {
				AND = {
					owned_by = ROOT
					is_core = ROOT
					has_building = cathedral
					fort_level = 1
					has_province_modifier = mykx_graxarr
				}
			}
		}
		
		trigger = {
			owns_core_province = 1075
			1075 = {
				has_building = cathedral
				fort_level = 1
				has_province_modifier = mykx_graxarr
			}
		}
		
		effect = {
			country_event = { id = mykx.13 }
		}
	}
}

mykx_5 = {
	slot = 5
	generic = no
	ai = yes
	potential = {
		tag = G93
	}
	has_country_shield = yes
	
	G93_articles_on_the_crippled_and_limbless = {
		icon = reform_the_nomocanon
		required_missions = {  }
		position = 1
		
		trigger = {
			republican_tradition = 90
			government_reform_progress = 25
		}
		
		effect = {
			add_republican_tradition = -10
			change_government_reform_progress = -25
			country_event = { id = mykx.14 }
		}
	}
	
	G93_articles_on_settling_disputes = {
		icon = reform_the_nomocanon
		required_missions = { G93_punishments_in_the_pirate_code G93_articles_on_the_crippled_and_limbless }
		position = 2
		
		trigger = {
			republican_tradition = 85
			government_reform_progress = 25
		}
		
		effect = {
			add_republican_tradition = -10
			change_government_reform_progress = -25
			country_event = { id = mykx.15 }
		}
	}
	
	G93_articles_on_government_contracts = {
		icon = reform_the_nomocanon
		required_missions = { G93_articles_on_settling_disputes }
		position = 3
		
		trigger = {
			republican_tradition = 80
			government_reform_progress = 25
		}
		
		effect = {
			add_republican_tradition = -10
			change_government_reform_progress = -25
			country_event = { id = mykx.16 }
		}
	}
	
	G93_articles_on_standardized_prize_shares = {
		icon = reform_the_nomocanon
		required_missions = { G93_articles_on_government_contracts }
		position = 4
		
		trigger = {
			republican_tradition = 75
			government_reform_progress = 25
		}
		
		effect = {
			add_republican_tradition = -10
			change_government_reform_progress = -25
			country_event = { id = mykx.17 }
		}
	}
	
	G93_every_ship_an_observer = {
		icon = mission_brahmin_administrators
		required_missions = { G93_articles_on_standardized_prize_shares }
		position = 5
		
		trigger = {
			republican_tradition = 70
			government_reform_progress = 25
		}
		
		effect = {
			add_republican_tradition = -10
			change_government_reform_progress = -25
			add_country_modifier = {
				name = "mykx_every_ship_an_observer"
				duration = -1
			}
		}
	}
}

mykx_1_B = {
	slot = 1
	generic = no
	ai = yes
	potential = {
		tag = G93
		has_country_flag = mykx_feast_had_flag
	}
	has_country_shield = yes
	
	G93_vanbury_ships = {
		icon = mission_grand_bengali_shipyards
		required_missions = { G93_proclaim_grand_republic_of_mykx }
		position = 7
		
		provinces_to_highlight = {
			OR = {
				area = north_vanburia_area
				area = east_vanburia_area
				area = west_vanburia_area
				area = torn_isles_area
			}
			NOT = { has_discovered = ROOT }
		}
		
		trigger = {
			north_vanburia_area = {
				type = all
				has_discovered = ROOT
			}
			east_vanburia_area = {
				type = all
				has_discovered = ROOT
			}
			west_vanburia_area = {
				type = all
				has_discovered = ROOT
			}
			torn_isles_area = {
				type = all
				has_discovered = ROOT
			}
			OR = {
				exists = G97
				is_year = 1520
			}
		}
		
		effect = {
			country_event = { id = mykx.18 }
		}
	}
	
	G93_vanbury_gold = {
		icon = mission_african_gold
		required_missions = { G93_vanbury_ships }
		position = 8
		
		provinces_to_highlight = {
			province_id = 2164
			NOT = {
				AND = {
					owned_by = ROOT
					is_core = ROOT
				}
			}
		}
		
		trigger = {
			OR = {
				2164 = { has_province_modifier = slaves_raided }
				owns_core_province = 2164
			}
		}
		
		effect = {
			tor_nayyi_region = {
				add_permanent_claim = ROOT
			}
		}
	}
	
	G93_gate_to_the_west = {
		icon = mission_develop_nevas_port
		required_missions = { G93_vanbury_gold }
		position = 9
		
		provinces_to_highlight = {
			OR = {
				AND = {
					province_id = 2164
					NOT = {
						AND = {
							owned_by = ROOT
							is_core = ROOT
							has_dock_building_trigger = yes
							has_shipyard_building_trigger = yes
						}
					}
				}
				AND = {
					OR = {
						province_id = 2022
						province_id = 2736
					}
					NOT = { has_discovered = ROOT }
				}
			}
		}
		
		trigger = {
			2164 = {
				owned_by = ROOT
				is_core = ROOT
				has_dock_building_trigger = yes
				has_shipyard_building_trigger = yes
			}
			2022 = { has_discovered = ROOT }
			2736 = { has_discovered = ROOT }
		}
		
		provinces_to_highlight = {
			province_id = 2164
		}
		
		effect = {
			country_event = { id = mykx.19 }
		}
	}
	
	G93_scourge_of_kheionai = {
		icon = mission_raid_on_venice
		required_missions = { G93_gate_to_the_west }
		position = 10
		
		provinces_to_highlight = {
			OR = {
				province_id = 2728
				province_id = 2731
				province_id = 2732
				province_id = 2736
				province_id = 2738
				province_id = 2745
				province_id = 2669
				province_id = 2674
				province_id = 2677
				province_id = 2680
			}
			NOT = {
				has_province_modifier = slaves_raided
				country_or_subject_holds = ROOT
			}
		}
		
		trigger = {
			OR = {
				2728 = { has_province_modifier = slaves_raided }
				owns_or_subject_of = 2728
			}
			OR = {
				2731 = { has_province_modifier = slaves_raided }
				owns_or_subject_of = 2731
			}
			OR = {
				2732 = { has_province_modifier = slaves_raided }
				owns_or_subject_of = 2732
			}
			OR = {
				2736 = { has_province_modifier = slaves_raided }
				owns_or_subject_of = 2736
			}
			OR = {
				2738 = { has_province_modifier = slaves_raided }
				owns_or_subject_of = 2738
			}
			OR = {
				2745 = { has_province_modifier = slaves_raided }
				owns_or_subject_of = 2745
			}
			OR = {
				2669 = { has_province_modifier = slaves_raided }
				owns_or_subject_of = 2669
			}
			OR = {
				2674 = { has_province_modifier = slaves_raided }
				owns_or_subject_of = 2674
			}
			OR = {
				2677 = { has_province_modifier = slaves_raided }
				owns_or_subject_of = 2677
			}
			OR = {
				2680 = { has_province_modifier = slaves_raided }
				owns_or_subject_of = 2680
			}
		}
		
		effect = {
			add_splendor = 200
			add_power_projection = {
				type = mission_rewards_power_projection
				amount = 10
			}
			random_owned_province = {
				limit = {
					OR = {
						province_id = 2174
						province_id = 2724
						province_id = 2725
						province_id = 2735
						province_id = 2681
						province_id = 2718
						province_id = 2750
						province_id = 2747
						province_id = 2672
						province_id = 2717
						province_id = 2716
					}
				}
				save_trade_goods = yes
				change_trade_goods = precursor_relics
				add_base_production = 5
			}
		}
	}
	
	G93_scourge_of_south_aelantir = {
		icon = mission_raid_on_venice
		required_missions = { G93_blood_and_gold_initiative }
		position = 12
		
		trigger = {
			num_of_owned_provinces_with = {
				value = 9
				continent = south_america
				controlled_by = ROOT
				has_province_modifier = trade_post_modifier
			}
		}
		
		effect = {
			add_years_of_income = 1
			add_splendor = 200
			add_power_projection = {
				type = mission_rewards_power_projection
				amount = 10
			}
		}
	}
	
	G93_window_to_the_far_west = {
		icon = mission_to_the_south_china_sea
		required_missions = { G93_scourge_of_north_aelantir G93_scourge_of_south_aelantir }
		position = 13
		
		provinces_to_highlight = {
			OR = {
				province_id = 5356
				province_id = 4925
				province_id = 4871
				province_id = 4879
				province_id = 4884
				province_id = 4955
			}
		}
		
		trigger = {
			has_institution = global_trade
			OR = {
				5356 = { has_discovered = ROOT }
				4925 = { has_discovered = ROOT }
				4871 = { has_discovered = ROOT }
				4879 = { has_discovered = ROOT }
				4884 = { has_discovered = ROOT }
				4955 = { has_discovered = ROOT }
			}
		}
		
		effect = {
			5356 = { add_permanent_claim = ROOT }
			4925 = { add_permanent_claim = ROOT }
			4871 = { add_permanent_claim = ROOT }
			4879 = { add_permanent_claim = ROOT }
			4884 = { add_permanent_claim = ROOT }
			4955 = { add_permanent_claim = ROOT }
			4774 = { add_permanent_claim = ROOT }
			4963 = { add_permanent_claim = ROOT }
			4962 = { add_permanent_claim = ROOT }
			4701 = { add_permanent_claim = ROOT }
			4570 = { add_permanent_claim = ROOT }
		}
	}
}

mykx_2_B = {
	slot = 2
	generic = no
	ai = yes
	potential = {
		tag = G93
		has_country_flag = mykx_feast_had_flag
	}
	has_country_shield = yes
	
	G93_banished_isles = {
		icon = mission_invade_island
		required_missions = { G93_proclaim_grand_republic_of_mykx }
		position = 7
		
		provinces_to_highlight = {
			colonial_region = colonial_endralliande
			NOT = { has_discovered = ROOT }
			has_port = yes
		}
		
		trigger = {
			colonial_endralliande = {
				type = all
				OR = {
					has_discovered = ROOT
					has_port = no
				}
			}
		}
		
		effect = {
			country_event = { id = mykx.20 }
		}
	}
	
	G93_banished_trade = {
		icon = mission_arabian_sea_trade
		required_missions = { G93_banished_isles }
		position = 8
		
		provinces_to_highlight = {
			OR = {
				province_id = 1057
				province_id = 932
				province_id = 945
				province_id = 928
			}
			NOT = {
				AND = {
					owned_by = ROOT
					is_core = ROOT
				}
			}
		}
		
		trigger = {
			owns_core_province = 1057
			owns_core_province = 932
			owns_core_province = 945
			owns_core_province = 928
		}
		
		effect = {
			endralliande_region = {
				add_permanent_claim = ROOT
			}
			ravenous_isle_region = {
				add_permanent_claim = ROOT
			}
		}
	}
	
	G93_sella_export = {
		icon = the_shape_of_trades_to_come
		required_missions = { G93_start_mass_production }
		position = 9
		
		provinces_to_highlight = {
			OR = {
				province_id = 1015
				province_id = 1999
			}
			NOT = {
				AND = {
					owned_by = ROOT
					is_core = ROOT
					has_province_modifier = trade_post_modifier
					has_trade_building_trigger = yes
				}
			}
		}
		
		trigger = {
			OR = {
				1015 = {
					owned_by = ROOT
					is_core = ROOT
					has_province_modifier = trade_post_modifier
					has_trade_building_trigger = yes
				}
				1999 = {
					owned_by = ROOT
					is_core = ROOT
					has_province_modifier = trade_post_modifier
					has_trade_building_trigger = yes
				}
			}
		}
		
		effect = {
			mykx_isles_area = { add_prosperity = 25 }
			add_splendor = 200
			add_power_projection = {
				type = mission_rewards_power_projection
				amount = 10
			}
		}
	}
	
	G93_scourge_of_eordand = {
		icon = mission_raid_on_venice
		required_missions = { G93_gate_to_the_west }
		position = 10
		
		provinces_to_highlight = {
			OR = {
				province_id = 2037
				province_id = 2030
				province_id = 2028
				province_id = 2022
				province_id = 2018
				province_id = 2008
				province_id = 2007
				province_id = 1990
				province_id = 1969
				province_id = 1965
			}
			NOT = {
				has_province_modifier = slaves_raided
				country_or_subject_holds = ROOT
			}
		}
		
		trigger = {
			OR = {
				2037 = { has_province_modifier = slaves_raided }
				owns_or_subject_of = 2037
			}
			OR = {
				2030 = { has_province_modifier = slaves_raided }
				owns_or_subject_of = 2030
			}
			OR = {
				2028 = { has_province_modifier = slaves_raided }
				owns_or_subject_of = 2028
			}
			OR = {
				2022 = { has_province_modifier = slaves_raided }
				owns_or_subject_of = 2022
			}
			OR = {
				2018 = { has_province_modifier = slaves_raided }
				owns_or_subject_of = 2018
			}
			OR = {
				2008 = { has_province_modifier = slaves_raided }
				owns_or_subject_of = 2008
			}
			OR = {
				2007 = { has_province_modifier = slaves_raided }
				owns_or_subject_of = 2007
			}
			OR = {
				1990 = { has_province_modifier = slaves_raided }
				owns_or_subject_of = 1990
			}
			OR = {
				1969 = { has_province_modifier = slaves_raided }
				owns_or_subject_of = 1969
			}
			OR = {
				1965 = { has_province_modifier = slaves_raided }
				owns_or_subject_of = 1965
			}
		}
		
		effect = {
			add_splendor = 200
			add_power_projection = {
				type = mission_rewards_power_projection
				amount = 10
			}
			random_owned_province = {
				limit = {
					OR = {
						province_id = 2062
						province_id = 2061
						province_id = 2053
						province_id = 2159
						province_id = 1987
						province_id = 2797
					}
				}
				change_trade_goods = precursor_relics
				add_base_production = 5
			}
		}
	}
	
	G93_blood_and_gold_initiative = {
		icon = mission_writing_book
		required_missions = { G93_scourge_of_eordand G93_scourge_of_kheionai }
		position = 11
		
		trigger = {
			num_of_owned_provinces_with = {
				value = 10
				has_province_modifier = trade_post_modifier
				controlled_by = ROOT
			}
			treasury = 500
			adm_power = 100
			advisor = spymaster
		}
		
		effect = {
			add_treasury = -500
			add_adm_power = -100
			add_country_modifier = {
				name = "mykx_blood_and_gold_initiative"
				duration = -1
			}
			custom_tooltip = mykx_blood_and_gold_tt
			north_america = {
				limit = {
					has_port = yes
					NOT = { owned_by = ROOT }
					OR = {
						province_has_center_of_trade_of_level = 1
						has_river_estuary_trigger = yes
					}
				}
				add_permanent_claim = ROOT
			}
			south_america = {
				limit = {
					has_port = yes
					NOT = { owned_by = ROOT }
					OR = {
						province_has_center_of_trade_of_level = 1
						has_river_estuary_trigger = yes
					}
				}
				add_permanent_claim = ROOT
			}
		}
	}
	
	G93_scourge_of_north_aelantir = {
		icon = mission_raid_on_venice
		required_missions = { G93_blood_and_gold_initiative }
		position = 12
		
		trigger = {
			num_of_owned_provinces_with = {
				value = 10
				continent = north_america
				has_province_modifier = trade_post_modifier
				controlled_by = ROOT
			}
		}
		
		effect = {
			add_years_of_income = 1
			add_splendor = 200
			add_power_projection = {
				type = mission_rewards_power_projection
				amount = 10
			}
		}
	}
	
	G93_cannorian_crave = {
		icon = crusader_fleet
		required_missions = { G93_scourge_of_north_aelantir G93_scourge_of_south_aelantir }
		position = 13
		
		provinces_to_highlight = {
			OR = {
				province_id = 1263
				province_id = 1292
				province_id = 1294
				province_id = 1322
			}
		}
		
		trigger = {
			has_institution = global_trade
			OR = {
				1263 = {
					has_privateer_share_in_trade_node = {
						who = ROOT
						share = 0.25
					}
				}
				1292 = {
					has_privateer_share_in_trade_node = {
						who = ROOT
						share = 0.25
					}
				}
				1294 = {
					has_privateer_share_in_trade_node = {
						who = ROOT
						share = 0.25
					}
				}
				1322 = {
					has_privateer_share_in_trade_node = {
						who = ROOT
						share = 0.25
					}
				}
			}
		}
		
		effect = {
			112 = { add_permanent_claim = ROOT }
			101 = { add_permanent_claim = ROOT }
			26 = { add_permanent_claim = ROOT }
			14 = { add_permanent_claim = ROOT }
			169 = { add_permanent_claim = ROOT }
			177 = { add_permanent_claim = ROOT }
			956 = { add_permanent_claim = ROOT }
			959 = { add_permanent_claim = ROOT }
			723 = { add_permanent_claim = ROOT }
			740 = { add_permanent_claim = ROOT }
			1252 = { add_permanent_claim = ROOT }
			151 = { add_permanent_claim = ROOT }
			376 = { add_permanent_claim = ROOT }
			380 = { add_permanent_claim = ROOT }
			451 = { add_permanent_claim = ROOT }
		}
	}
}

mykx_3_B = {
	slot = 3
	generic = no
	ai = yes
	potential = {
		tag = G93
		has_country_flag = mykx_feast_had_flag
	}
	has_country_shield = yes
	
	G93_research_demons_blood = {
		icon = mission_dark_ritual
		required_missions = { G93_proclaim_grand_republic_of_mykx }
		position = 7
		
		provinces_to_highlight = {
			province_id = 1077
			NOT = { has_production_building_trigger = yes }
		}
		
		trigger = {
			treasury = 1000
			advisor = natural_scientist
			1077 = { has_production_building_trigger = yes }
		}
		
		effect = {
			add_treasury = -1000
			country_event = { id = mykx.21 days = 365 }
		}
	}
	
	G93_start_mass_production = {
		icon = mission_rb_import_potatoes
		required_missions = { G93_research_demons_blood }
		position = 8
		
		provinces_to_highlight = {
			province_id = 2214
			NOT = {
				AND = {
					owned_by = ROOT
					is_core = ROOT
				}
			}
			NOT = {
				ROOT = {
					any_owned_province = {
						has_terrain = mushroom_forest_terrain
					}
				}
			}
		}
		
		trigger = {
			has_reform = black_market_consortium_reform
			OR = {
				owns_core_province = 2214
				any_owned_province = {
					has_terrain = mushroom_forest_terrain
				}
			}
			any_owned_province = {
				trade_goods = tea
				has_production_building_trigger = yes
			}
			any_owned_province = {
				trade_goods = spices
				has_production_building_trigger = yes
			}
			any_owned_province = {
				trade_goods = tobacco
				has_production_building_trigger = yes
			}
		}
		
		effect = {
			country_event = { id = mykx.22 }
		}
	}
	
	G93_cheshoshmar_export = {
		icon = the_shape_of_trades_to_come
		required_missions = { G93_start_mass_production }
		position = 9
		
		provinces_to_highlight = {
			province_id = 1948
			NOT = {
				AND = {
					owned_by = ROOT
					is_core = ROOT
					has_province_modifier = trade_post_modifier
					has_trade_building_trigger = yes
				}
			}
		}
		
		trigger = {
			1948 = {
				owned_by = ROOT
				is_core = ROOT
				has_province_modifier = trade_post_modifier
				has_trade_building_trigger = yes
			}
		}
		
		effect = {
			mykx_isles_area = { add_prosperity = 25 }
			add_splendor = 200
			add_power_projection = {
				type = mission_rewards_power_projection
				amount = 10
			}
		}
	}
	
	G93_great_bone_citadel = {
		icon = mission_dark_ritual
		required_missions = { G93_cheshoshmar_export }
		position = 10
		
		provinces_to_highlight = {
			province_id = 1948
			NOT = {
				AND = {
					owned_by = ROOT
					is_core = ROOT
					culture = ROOT
					religion = ROOT
				}
			}
		}
		
		trigger = {
			1948 = {
				owned_by = ROOT
				is_core = ROOT
				culture = ROOT
				religion = ROOT
			}
		}
		
		effect = {
			country_event = { id = mykx.24 }
		}
	}
	
	G93_the_citadel_repaired = {
		icon = mission_dark_ritual
		required_missions = { G93_great_bone_citadel }
		position = 11
		
		provinces_to_highlight = {
			province_id = 1948
			NOT = {
				AND = {
					owned_by = ROOT
					is_core = ROOT
					culture = ROOT
					religion = ROOT
					OR = {
						has_great_project = {
							type = bone_citadel
							tier = 1
						}
						has_great_project = {
							type = bone_citadel
							tier = 2
						}
						has_great_project = {
							type = bone_citadel
							tier = 3
						}
					}
				}
			}
		}
		
		trigger = {
			1948 = {
				owned_by = ROOT
				is_core = ROOT
				culture = ROOT
				religion = ROOT
				OR = {
					has_great_project = {
						type = bone_citadel
						tier = 1
					}
					has_great_project = {
						type = bone_citadel
						tier = 2
					}
					has_great_project = {
						type = bone_citadel
						tier = 3
					}
				}
			}
		}
		
		effect = {
			country_event = { id = mykx.25 }
		}
	}
	
	G93_the_citadel_expanded = {
		icon = mission_dark_ritual
		required_missions = { G93_the_citadel_repaired }
		position = 12
		
		provinces_to_highlight = {
			province_id = 1948
			NOT = {
				AND = {
					owned_by = ROOT
					is_core = ROOT
					culture = ROOT
					religion = ROOT
					OR = {
						has_great_project = {
							type = bone_citadel
							tier = 2
						}
						has_great_project = {
							type = bone_citadel
							tier = 3
						}
					}
				}
			}
		}
		
		trigger = {
			1948 = {
				owned_by = ROOT
				is_core = ROOT
				culture = ROOT
				religion = ROOT
				OR = {
					has_great_project = {
						type = bone_citadel
						tier = 2
					}
					has_great_project = {
						type = bone_citadel
						tier = 3
					}
				}
			}
		}
		
		effect = {
			country_event = { id = mykx.26 }
		}
	}
	
	G93_a_promise_fulfilled = {
		icon = mission_dark_ritual
		required_missions = { G93_the_citadel_expanded }
		position = 13
		
		provinces_to_highlight = {
			province_id = 1948
			NOT = {
				AND = {
					owned_by = ROOT
					is_core = ROOT
					culture = ROOT
					religion = ROOT
					has_great_project = {
						type = bone_citadel
						tier = 3
					}
				}
			}
		}
		
		trigger = {
			1948 = {
				owned_by = ROOT
				is_core = ROOT
				culture = ROOT
				religion = ROOT
				has_great_project = {
					type = bone_citadel
					tier = 3
				}
			}
			has_or_building_flagship = no
			check_variable = { which = total_gathered_sacrifices value = 30 }
		}
		
		effect = {
			change_variable = { which = total_gathered_sacrifices value = -30 }
			country_event = { id = mykx.27 }
		}
	}
	
	G93_declare_scourge_of_all_seas = {
		icon = mission_empire
		required_missions = { G93_window_to_the_far_west G93_cannorian_crave G93_a_promise_fulfilled G93_captain_retiree_programme G93_cannon_standardisation }
		position = 14
		
		trigger = {
			num_of_owned_provinces_with = {
				value = 25
				has_province_modifier = trade_post_modifier
				controlled_by = ROOT
			}
			treasury = 1000
			adm_power = 50
			dip_power = 50
			total_development = 600
			custom_trigger_tooltip = {
				tooltip = xhazobkult_execute_sacrifices_party_tt
				check_variable = {
					which = total_gathered_sacrifices
					value = 5
				}
			}
		}
		
		effect = {
			country_event = { id = mykx.30 }
			add_patriarch_authority = 0.1
			hidden_effect = {
				change_variable = { which = total_gathered_sacrifices value = -5 }
			}
			set_government_rank = 3
			add_treasury = -1000
			add_adm_power = -50
			add_dip_power = -50
			add_prestige = 50
			add_splendor = 800
				add_power_projection = {
				type = mission_rewards_power_projection
				amount = 20
			}
		}
	}
}

mykx_4_B = {
	slot = 4
	generic = no
	ai = yes
	potential = {
		tag = G93
		has_country_flag = mykx_feast_had_flag
	}
	has_country_shield = yes
	
	G93_structure_the_electorate = {
		icon = law_of_the_pious
		required_missions = { G93_proclaim_grand_republic_of_mykx }
		position = 7
		
		provinces_to_highlight = {
			province_id = 1077
			NOT = { development = 30 }
		}
		
		trigger = {
			adm_power = 200
			treasury = 200
			advisor = statesman
			1077 = { development = 30 }
		}
		
		effect = {
			add_adm_power = -200
			add_treasury = -200
			country_event = { id = mykx.29 }
		}
	}
	
	G93_expand_the_bureaucracy = {
		icon = mission_dark_book
		required_missions = { G93_structure_the_electorate }
		position = 7
		
		provinces_to_highlight = {
			province_id = 1077
			NOT = { base_tax = 10 }
		}
		
		trigger = {
			adm_power = 200
			treasury = 200
			advisor = statesman
			1077 = { base_tax = 10 }
		}
		
		effect = {
			add_adm_power = -200
			add_treasury = -200
			add_country_modifier = {
				name = "mykx_expanded_bureaucracy"
				duration = -1
			}
		}
	}
	
	G93_trollsbay_export = {
		icon = the_shape_of_trades_to_come
		required_missions = { G93_start_mass_production }
		position = 9
		
		provinces_to_highlight = {
			OR = {
				province_id = 1035
				province_id = 1028
			}
			NOT = {
				AND = {
					owned_by = ROOT
					is_core = ROOT
					has_province_modifier = trade_post_modifier
					has_trade_building_trigger = yes
				}
			}
		}
		
		trigger = {
			OR = {
				1035 = {
					owned_by = ROOT
					is_core = ROOT
					has_province_modifier = trade_post_modifier
					has_trade_building_trigger = yes
				}
				1028 = {
					owned_by = ROOT
					is_core = ROOT
					has_province_modifier = trade_post_modifier
					has_trade_building_trigger = yes
				}
			}
		}
		
		effect = {
			mykx_isles_area = { add_prosperity = 25 }
			add_splendor = 200
			add_power_projection = {
				type = mission_rewards_power_projection
				amount = 10
			}
		}
	}
	
	G93_privateer_reforms = {
		icon = mission_aragonese_navy
		required_missions = { G93_trollsbay_export G93_great_dockyards_project }
		position = 11
		
		trigger = {
			adm_power = 100
			OR = {
				faction_in_power = pr_buccaneers
				faction_in_power = pr_captains
				faction_in_power = pr_smugglers
			}
		}
		
		effect = {
			add_adm_power = -100
			if = {
				limit = { faction_in_power = pr_buccaneers }
				add_country_modifier = {
					name = "mykx_buccanneers_privateer_reform"
					duration = -1
				}
			}
			if = {
				limit = { faction_in_power = pr_captains }
				add_country_modifier = {
					name = "mykx_captains_privateer_reform"
					duration = -1
				}
			}
			if = {
				limit = { faction_in_power = pr_smugglers }
				add_country_modifier = {
					name = "mykx_smugglers_privateer_reform"
					duration = -1
				}
			}
		}
	}
	
	G93_smuggler_funding_act = {
		icon = mission_african_gold
		required_missions = { G93_the_citadel_repaired G93_naval_adminstrators }
		position = 12
		
		trigger = {
			faction_influence = {
				faction = pr_smugglers
				influence = 20
			}
		}
		
		effect = {
			add_country_modifier = {
				name = "mykx_smuggler_funding_act"
				duration = -1
			}
		}
	}
	
	G93_captain_retiree_programme = {
		icon = adjust_the_general_means
		required_missions = { G93_better_than_burying G93_smuggler_funding_act }
		position = 13
		
		trigger = {
			has_adm_advisor_2 = yes
			has_dip_advisor_2 = yes
			has_mil_advisor_2 = yes
			faction_influence = {
				faction = pr_captains
				influence = 20
			}
		}
		
		effect = {
			add_country_modifier = {
				name = "mykx_captain_retiree_programme"
				duration = -1
			}
		}
	}
}

mykx_5_B = {
	slot = 5
	generic = no
	ai = yes
	potential = {
		tag = G93
		has_country_flag = mykx_feast_had_flag
	}
	has_country_shield = yes
	
	G93_form_the_marine_corps = {
		icon = mission_seize_the_bengal_coast
		required_missions = { G93_proclaim_grand_republic_of_mykx }
		position = 7
		
		provinces_to_highlight = {
			province_id = 1077
			NOT = {
				AND = {
					owned_by = ROOT
					is_core = ROOT
					base_manpower = 10
					has_manpower_building_trigger = yes
				}
			}
		}
		
		trigger = {
			army_professionalism = 0.20
			mil_power = 200
			treasury = 200
			advisor = army_reformer
			1077 = {
				owned_by = ROOT
				controlled_by = ROOT
				base_manpower = 10
				has_manpower_building_trigger = yes
			}
		}
		
		effect = {
			add_mil_power = -200
			add_treasury = -200
			add_country_modifier = {
				name = "mykx_marine_corps"
				duration = -1
			}
		}
	}
	
	G93_build_the_naval_academy = {
		icon = the_great_school
		required_missions = { G93_form_the_marine_corps }
		position = 8
		
		provinces_to_highlight = {
			province_id = 1078
			NOT = {
				AND = {
					owned_by = ROOT
					controlled_by = ROOT
					base_manpower = 10
				}
			}
		}
		
		trigger = {
			mil_power = 200
			OR = {
				treasury = 300
				1078 = { has_building = university }
			}
			advisor = army_reformer
			1078 = {
				owned_by = ROOT
				controlled_by = ROOT
				base_manpower = 10
			}
		}
		
		effect = {
			add_mil_power = -200
			if = {
				limit = { 1078 = { NOT = { has_building = university } } }
				add_treasury = -300
				1078 = { add_building = university }
			}
			country_event = { id = mykx.28 }
		}
	}
	
	G93_swimming_exams = {
		icon = mission_look_west
		required_missions = { G93_build_the_naval_academy G93_expand_the_bureaucracy }
		position = 9
		
		trigger = {
			sailors = 1000
			treasury = 200
		}
		
		effect = {
			add_sailors = -1000
			add_treasury = -200
			add_country_modifier = {
				name = "mykx_swimming_exams"
				duration = -1
			}
		}
	}
	
	G93_great_dockyards_project = {
		icon = toulon_dockyards
		required_missions = { G93_swimming_exams }
		position = 10
		
		provinces_to_highlight = {
			OR = {
				province_id = 1077
				province_id = 1948
				province_id = 1086
				province_id = 1055
				province_id = 1015
			}
			NOT = {
				AND = {
					owned_by = ROOT
					has_shipyard_building_trigger = yes
				}
			}
		}
		
		trigger = {
			treasury = 1000
			1077 = {
				owned_by = ROOT
				has_shipyard_building_trigger = yes
			}
			1948 = {
				owned_by = ROOT
				has_shipyard_building_trigger = yes
			}
			1086 = {
				owned_by = ROOT
				has_shipyard_building_trigger = yes
			}
			1055 = {
				owned_by = ROOT
				has_shipyard_building_trigger = yes
			}
			1015 = {
				owned_by = ROOT
				has_shipyard_building_trigger = yes
			}
		}
		
		effect = {
			add_treasury = -1000
			1077 = {
				add_base_production = 2
				add_province_modifier = {
					name = "mykx_great_dockyard"
					duration = -1
				}
			}
			1948 = {
				add_base_production = 2
				add_province_modifier = {
					name = "mykx_great_dockyard"
					duration = -1
				}
			}
			1086 = {
				add_base_production = 2
				add_province_modifier = {
					name = "mykx_great_dockyard"
					duration = -1
				}
			}
			1055 = {
				add_base_production = 2
				add_province_modifier = {
					name = "mykx_great_dockyard"
					duration = -1
				}
			}
			1015 = {
				add_base_production = 2
				add_province_modifier = {
					name = "mykx_great_dockyard"
					duration = -1
				}
			}
		}
	}
	
	G93_naval_adminstrators = {
		icon = mission_establish_high_seas_navy
		required_missions = { G93_great_dockyards_project }
		position = 11
		
		provinces_to_highlight = {
			owned_by = ROOT
			has_port = yes
			NOT = {
				has_shipyard_building_trigger = yes
				has_dock_building_trigger = yes
			}
		}
		
		trigger = {
			num_of_owned_provinces_with = {
				value = 60
				OR = {
					has_shipyard_building_trigger = yes
					has_dock_building_trigger = yes
				}
			}
		}
		
		effect = {
			add_country_modifier = {
				name = "mykx_sailing_administrators"
				duration = -1
			}
		}
	}
	
	G93_better_than_burying = {
		icon = mission_treasure_room
		required_missions = { G93_naval_adminstrators }
		position = 12
		
		provinces_to_highlight = {
			province_id = 1055
			NOT = {
				AND = {
					fort_level = 2
					has_courthouse_building_trigger = yes
					base_tax = 10
				}
			}
		}
		
		trigger = {
			1055 = {
				fort_level = 2
				has_courthouse_building_trigger = yes
				base_tax = 10
			}
		}
		
		effect = {
			add_country_modifier = {
				name = "mykx_dwarven_bank"
				duration = -1
			}
			add_sailors = -2000
			large_increase_of_dwarven_tolerance_effect = yes
			1055 = { add_dwarven_minority_size_effect = yes }
			1221 = { add_dwarven_minority_size_effect = yes }
		}
	}
	
	G93_cannon_standardisation = {
		icon = mission_rb_build_furnaces
		required_missions = { G93_better_than_burying }
		position = 13
		
		provinces_to_highlight = {
			province_id = 1221
			NOT = { has_production_building_trigger = yes }
		}
		
		trigger = {
			1221 = { has_production_building_trigger = yes }
			any_owned_province = {
				trade_goods = iron
				has_manufactory_trigger = yes
				base_production = 10
			}
			any_owned_province = {
				trade_goods = copper
				has_manufactory_trigger = yes
				base_production = 10
			}
			advisor = army_reformer
		}
		
		effect = {
			1221 = {
				change_trade_goods = naval_supplies
				add_base_production = 5
			}
			add_country_modifier = {
				name = "mykx_standardised_cannons"
				duration = -1
			}
			large_increase_of_dwarven_tolerance_effect = yes
		}
	}
}
