nuugdan_tsarai_1 = {
	slot = 1
	generic = no
	ai = yes
	potential = {
		OR = {
			tag = Y91
			tag = Y96
			tag = Y98
		}
	}
	has_country_shield = yes

	Y91_freeing_ogre_subjects = {
		icon = mission_city_of_the_world's_desire
		position = 2
		required_missions = { Y91_tuiista_jaal_horde }

		trigger = {
			if = {
				limit = { 
					5409 = {
						is_city = no
						is_colony = no
					}
				}
				if = {
					limit = { ai = no }
					5409 = {
						infantry_in_province = 1
						infantry_in_province = ROOT
					}
					is_year = 1465
					adm_power = 50
					owns_core_province = 5410
					owns_core_province = 5411
					owns_core_province = 5407
					treasury = 25
				}
				else = {
					is_year = 1520
					adm_power = 50
					treasury = 25
					owns_core_province = 5410
					owns_core_province = 5411
					owns_core_province = 5407
				}
			}
			else = {
				OR = {
					5409 = { owned_by = ROOT }
					any_country = {
						owns = 5409
						has_spy_network_from = {
							who = ROOT
							value = 30
						}
					}
				}
			}
		}
		
		provinces_to_highlight = {
			OR = {
				province_id = 5410
				province_id = 5411
				province_id = 5407
			}
			NOT = {
				owned_by = ROOT
			}
		}

		effect = {
			if = {
				limit = {
					5409 = {
						is_city = no
						is_colony = no
					}
				}
				5409 = {
					add_siberian_construction = 500
					kill_units = {
						who = ROOT
						type = infantry
						amount = 1
					}
				}
				add_treasury = -25
				add_adm_power = -50
			}
			takhsulme_area = { add_permanent_claim = ROOT }
			sugroltona_area = { add_permanent_claim = ROOT }
		}
	}
	
	Y91_start_oni_genocide = {
		icon = claim_the_borderlands
		position = 3
		required_missions = { Y91_freeing_ogre_subjects }

		trigger = {
			owns = 5409
			owns = 4830
			owns = 5430
			adm_power = 50
			mil_power = 50
		}
		
		provinces_to_highlight = {
			OR = {
				province_id = 5430
				province_id = 4830
				province_id = 5430
			}
			NOT = {
				owned_by = ROOT
			}
		}

		effect = {
			yambioka_area = { add_permanent_claim = ROOT }
			unbeksu_area = { add_permanent_claim = ROOT }
			mogutian_area = { add_permanent_claim = ROOT }
			add_adm_power = -50
			add_mil_power = -50
			hidden_effect = { largest_decrease_of_ogre_tolerance_effect = yes }
			country_event = { id = flavor_nuugdan_tsarai.9 }
		}
	}
	
	Y91_clearing_the_demons = {
		icon = take_the_littoral
		position = 4
		required_missions = { Y91_start_oni_genocide }

		trigger = {
			adm_power = 50
			mil_power = 50
			takhsulme_area = {
				type = all
				owned_by = ROOT
			}
			sugroltona_area = {
				type = all
				owned_by = ROOT
			}
			yambioka_area = {
				type = all
				owned_by = ROOT
			}
			unbeksu_area = {
				type = all
				owned_by = ROOT
			}
			4815 = {
				owned_by = ROOT
			}
		}
		
		provinces_to_highlight = {
			OR = {
				area = takhsulme_area
				area = sugroltona_area
				area = yambioka_area
				area = unbeksu_area
				province_id = 4815
			}
			NOT = {
				owned_by = ROOT
			}
		}

		effect = {
			add_adm_power = -50
			add_mil_power = -50
			hidden_effect = { largest_decrease_of_ogre_tolerance_effect = yes }
			country_event = { id = flavor_nuugdan_tsarai.10 }
		}
	}
	
}

nuugdan_tsarai_2 = {
	slot = 2
	generic = no
	ai = yes
	potential = {
		OR = {
			tag = Y91
			tag = Y96
			tag = Y98
		}
	}
	has_country_shield = yes
	
	Y91_tuiista_jaal_horde = {
		icon = mission_chinese_general_riding
		position = 1

		trigger = {
			is_at_war = no
			Y90 = {
				is_subject_of = ROOT
				NOT = { liberty_desire = 50 }
			}
			has_country_flag = Y91_struck_jaal_deal
		}

		effect = {
			if = {
				limit = {
					Y90 = { ai = no }
				}
				set_country_flag = was_tuiista_jaal_flag
				Y90 = {
					country_event = { id = flavor_nuugdan_tsarai.87 }
				}
			}
			else = {
				country_event = { id = flavor_nuugdan_tsarai.89 }
			}
		}
	}
	
	Y91_jindeshi_valley = {
		icon = mission_rice_field
		position = 2
		required_missions = { Y91_tuiista_jaal_horde }

		trigger = {
			jinqiu_area = {
				type = all
				owned_by = ROOT
			}
			jiangszun_area = {
				type = all
				owned_by = ROOT
			}
		}
		
		provinces_to_highlight = {
			OR = {
				area = jinqiu_area
				area = jiangszun_area
			}
			NOT = {
				owned_by = ROOT
			}
		}

		effect = {
			4842 = { add_core = Y90 }
			jinqiu_area = {
				cede_province = Y90
			}
			jiangszun_area = {
				cede_province = Y90
			}
			create_subject = {
				subject_type = "autonomous_vassal"
				subject = Y90
			}
			if = {
				limit = {
					tag = Y98
				}
				Y90 = {
					change_religion = saanorgegh
					change_primary_culture = daxug
					set_capital = 4842 
					4845 = { change_culture = daxug change_religion = saanorgegh }
					4848 = { change_culture = daxug change_religion = saanorgegh }
					4843 = { change_culture = daxug change_religion = saanorgegh }
					4844 = { change_culture = daxug change_religion = saanorgegh }
				}
				4842 = { center_of_trade = 1 }
				jinqiu_area = { add_permanent_claim = Y90 }
				jiangszun_area = { add_permanent_claim = Y90 }	
				jinqiu_area = { remove_claim = ROOT }
				jiangszun_area = { remove_claim = ROOT }		
				bianfang_area = { add_permanent_claim = Y90 }
				tianszi_area = { add_permanent_claim = Y90 }
				anjiang_area = { add_permanent_claim = Y90 }
				bianyuan_area = { add_permanent_claim = Y90 }
				lamzung_area = { add_permanent_claim = Y90 }
				4827 = { add_permanent_claim = Y90 }
				4901 = { add_permanent_claim = Y90 }
				clr_country_flag = Y91_jaal_horde
				remove_country_modifier = Y91_jaal_horde_fl
			}
			else = {
				Y90 = {
					change_religion = saanorgegh
					change_primary_culture = shuvuush
					set_capital = 4842 
					4845 = { change_culture = shuvuush change_religion = saanorgegh }
					4848 = { change_culture = shuvuush change_religion = saanorgegh }
					4843 = { change_culture = shuvuush change_religion = saanorgegh }
					4844 = { change_culture = shuvuush change_religion = saanorgegh }
				}
				4842 = { center_of_trade = 1 }
				jinqiu_area = { add_permanent_claim = Y90 }
				jiangszun_area = { add_permanent_claim = Y90 }	
				jinqiu_area = { remove_claim = ROOT }
				jiangszun_area = { remove_claim = ROOT }		
				bianfang_area = { add_permanent_claim = Y90 }
				tianszi_area = { add_permanent_claim = Y90 }
				anjiang_area = { add_permanent_claim = Y90 }
				bianyuan_area = { add_permanent_claim = Y90 }
				lamzung_area = { add_permanent_claim = Y90 }
				4827 = { add_permanent_claim = Y90 }
				4901 = { add_permanent_claim = Y90 }
				clr_country_flag = Y91_jaal_horde
				remove_country_modifier = Y91_jaal_horde_fl
				hidden_effect = {
					choogiaza_area = { remove_core = Y90 }
					yunghuun_area = { remove_core = Y90 }
					kheizavho_area = { remove_core = Y90 }
				}
			}
			if = {
				limit = {
					has_country_flag = was_tuiista_jaal_flag
				}
				country_event = { id = flavor_nuugdan_tsarai.88 }
			}
			hidden_effect = {
				Y90 = {
					add_manpower = 5
					if = {
						limit = {
							NOT = { stability = 0 }
						}
						add_stability = 1
					}
					if = {
						limit = {
							NOT = { stability = 0 }
						}
						add_stability = 1
					}
					if = {
						limit = {
							NOT = { stability = 0 }
						}
						add_stability = 1
					}
					if = {
						limit = {
							NOT = { prestige = 0 }
						}
						add_prestige = 10
					}
					if = {
						limit = {
							NOT = { prestige = 0 }
						}
						add_prestige = 10
					}
					if = {
						limit = {
							NOT = { prestige = 0 }
						}
						add_prestige = 10
					}
					if = {
						limit = {
							NOT = { prestige = 0 }
						}
						add_prestige = 10
					}
					if = {
						limit = {
							NOT = { prestige = 0 }
						}
						add_prestige = 10
					}
					if = {
						limit = {
							NOT = { prestige = 0 }
						}
						add_prestige = 10
					}
					if = {
						limit = {
							NOT = { prestige = 0 }
						}
						add_prestige = 10
					}
					if = {
						limit = {
							NOT = { prestige = 0 }
						}
						add_prestige = 10
					}
					if = {
						limit = {
							NOT = { prestige = 0 }
						}
						add_prestige = 10
					}
					if = {
						limit = {
							NOT = { prestige = 0 }
						}
						add_prestige = 10
					}
				}
			}
		}
	}
	
	Y91_razer_of_upper_yanshen = {
		icon = mission_steppe_warriors
		position = 3
		required_missions = { Y91_jindeshi_valley }

		trigger = {
			Y90 = {
				is_subject_of = ROOT
				NOT = { liberty_desire = 45 }
			}
			Y90 = {
				owns_core_province = 4826
				owns_core_province = 4846
			}
		}
		
		provinces_to_highlight = {
			OR = {
				province_id = 4826
				province_id = 4846
			}
			NOT = {
				owned_by = Y90
			}
		}

		effect = {
			add_treasury = 150
			add_adm_power = 200
			add_dip_power = 200
			add_mil_power = 200
		}
	}
	
	Y91_integrating_the_tuiista_jaal = {
		icon = mission_war_chest
		position = 4
		required_missions = { Y91_razer_of_upper_yanshen }

		trigger = {
			Y90 = {
				is_subject_of = ROOT
				NOT = { liberty_desire = 10 }
			}
			years_of_income = 1.0
			OR = { horde_unity = 60 legitimacy = 60 }
		}

		effect = {
			add_years_of_income = -1.0
			inherit = Y90
		}
	}
}

nuugdan_tsarai_3 = {
	slot = 3
	generic = no
	ai = yes
	potential = {
		OR = {
			tag = Y91
			tag = Y96
			tag = Y98
		}
	}
	has_country_shield = yes
	
	Y91_prepare_seconds = {
		icon = mission_conquer_50_development
		position = 1

		trigger = {
			NOT = { truce_with = Y16 }
			OR = {
				has_spy_network_in = {
					who = Y16
					value = 30
				}
				NOT = { exists = Y16 }
			}
		}

		effect = {
			jiantsiang_area = { add_permanent_claim = ROOT }
			yiguan_area = { add_permanent_claim = ROOT }
			add_spy_network_in = {
				who = Y16
				value = -30
			}
		}
	}
	
	Y91_fields_for_the_fearless = {
		icon = mission_manchu_warrior
		position = 2
		required_missions = { Y91_prepare_seconds }

		trigger = {
			jiantsiang_area = {
				type = all
				owned_by = ROOT
				is_core = ROOT
			}
			yiguan_area = {
				type = all
				owned_by = ROOT
				is_core = ROOT
			}
		}
		
		provinces_to_highlight = {
			OR = {
				area = jiantsiang_area
				area = yiguan_area
			}
			NOT = {
				AND = {
					is_core = ROOT
					owned_by = ROOT
				}
			}
		}

		effect = {
			if = {
				limit = { tag = Y98 }
				4923 = { change_culture = ROOT change_religion = ROOT add_base_tax = 1 add_base_production = 1 add_base_manpower = 1 }
				4922 = { change_culture = ROOT change_religion = ROOT add_base_tax = 1 add_base_production = 1 add_base_manpower = 1 }
				4918 = { change_culture = ROOT change_religion = ROOT add_base_tax = 1 add_base_production = 1 add_base_manpower = 1 }
				5406 = { add_base_tax = -1 add_base_production = -1 add_base_manpower = -1 }
				5408 = { add_base_tax = -1 add_base_production = -1 }
				5417 = { add_base_tax = -1 add_base_manpower = -1 }
				add_horde_unity = 10
				jianzhong_area = { add_permanent_claim = ROOT }
				xuanbing_area = { add_permanent_claim = ROOT }
				hidden_effect = {
					country_event = { id = flavor_nuugdan_tsarai.6 days = 365 }
				}
			}
			else = {
				4923 = { change_culture = shuvuush change_religion = ROOT add_base_tax = 1 add_base_production = 1 add_base_manpower = 1 }
				4922 = { change_culture = shuvuush change_religion = ROOT add_base_tax = 1 add_base_production = 1 add_base_manpower = 1 }
				4918 = { change_culture = shuvuush change_religion = ROOT add_base_tax = 1 add_base_production = 1 add_base_manpower = 1 }
				5406 = { add_base_tax = -1 add_base_production = -1 add_base_manpower = -1 }
				5408 = { add_base_tax = -1 add_base_production = -1 }
				5417 = { add_base_tax = -1 add_base_manpower = -1 }
				add_horde_unity = 10
				jianzhong_area = { add_permanent_claim = ROOT }
				xuanbing_area = { add_permanent_claim = ROOT }
				hidden_effect = {
					country_event = { id = flavor_nuugdan_tsarai.6 days = 365 }
				}
			}
		}
	}
	
	Y91_along_the_coast = {
		icon = mission_junk_boat
		position = 3
		required_missions = { Y91_fields_for_the_fearless }

		trigger = {
			jianzhong_area = {
				type = all
				owned_by = ROOT
				is_core = ROOT
			}
			xuanbing_area = {
				type = all
				owned_by = ROOT
				is_core = ROOT
			}
		}
		
		provinces_to_highlight = {
			OR = {
				area = jianzhong_area
				area = xuanbing_area
			}
			NOT = {
				AND = {
					is_core = ROOT
					owned_by = ROOT
				}
			}
		}

		effect = {
			beikyuan_area = { add_permanent_claim = ROOT }
			linghui_area = { add_permanent_claim = ROOT }
			beidugang_area = { add_permanent_claim = ROOT }
		}
	}
	
	Y91_at_the_tianlou_gate = {
		icon = mission_occupy_alexandria
		position = 4
		required_missions = { Y91_along_the_coast }

		trigger = {
			owns = 4913
			owns = 4907
		}
		
		provinces_to_highlight = {
			OR = {
				province_id = 4913
				province_id = 4907
			}
			NOT = {
				owned_by = ROOT
			}
		}

		effect = {
			every_province = {
				LIMIT = {
					continent = asia
					owned_by = Y19
				}
				add_permanent_claim = ROOT
			}
			IF = {
				LIMIT = { NOT = { 4871 = { owned_by = Y19 } } }
				4871 = { add_permanent_claim = ROOT }
			}
		}
	}
}

nuugdan_tsarai_98 = {
	slot = 3
	generic = no
	ai = yes
	potential = {
		OR = {
			tag = Y91
			tag = Y96
			tag = Y98
		}
		has_country_flag = Y91_face_stealers1
	}
	
	Y91_capture_facestealer = {
		icon = mission_bedouins
		position = 5

		trigger = {
			owns_core_province = 5405
			owns_core_province = 5380
			owns_core_province = 5379
			OR = {
				employed_advisor = {
					religion = saanorgegh
					type = inquisitor
				}
				employed_advisor = {
					religion = saanorgegh
					type = theologian
				}
			}
			treasury = 50
			manpower = 1
		}
		
		provinces_to_highlight = {
			OR = {
				province_id = 5405
				province_id = 5380
				province_id = 5379
			}
		}

		effect = {
			custom_tooltip = Y91_facestealer_capture_tooltip
			hidden_effect = {
				country_event = { id = flavor_nuugdan_tsarai.40 days = 365 }
			}
			add_treasury = -50
			add_manpower = -1
		}
	}
}

nuugdan_tsarai_97 = {
	slot = 3
	generic = no
	ai = yes
	potential = {
		OR = {
			tag = Y91
			tag = Y96
			tag = Y98
		}
		has_country_flag = Y91_face_stealers2
	}
	
	Y91_kill_facestealer = {
		icon = mission_hands_praying
		position = 6
		required_missions = { Y91_capture_facestealer }

		trigger = {
			treasury = 50
			OR = {
				employed_advisor = {
					religion = saanorgegh
					type = inquisitor
				}
				employed_advisor = {
					religion = saanorgegh
					type = theologian
				}
			}
			OR = {
				any_country = {
					OR = {
						has_reform = wulin
						has_reform = one_xia
						has_reform = indep_xiaken 
					}
					has_spy_network_from = {
						who = ROOT
						value = 30
					}
				}
				any_country = {
					OR = {
						has_reform = wulin
						has_reform = one_xia
						has_reform = indep_xiaken 
					}
					alliance_with = ROOT
				}
				any_owned_province = {
					culture = western_yan
				}
			}
		}
		
		provinces_to_highlight = {
		}

		effect = {
			custom_tooltip = Y91_facestealer_kill_tooltip
			hidden_effect = {
				country_event = { id = flavor_nuugdan_tsarai.41 days = 365 }
			}
			add_treasury = -50
		}
	}
}
	
nuugdan_tsarai_96 = {
	slot = 3
	generic = no
	ai = yes
	potential = {
		OR = {
			tag = Y91
			tag = Y96
			tag = Y98
		}
		has_country_flag = Y91_face_stealers3
	}
	
	Y91_facestealer_killers = {
		icon = mission_buddhist_monk_praying
		position = 7
		required_missions = { Y91_kill_facestealer }

		trigger = {
			treasury = 100
			manpower = 3
			employed_advisor = {
				type = army_reformer
			}
		}

		effect = {
			custom_tooltip = Y91_facestealer_killers_tooltip
			hidden_effect = {
				country_event = { id = flavor_nuugdan_tsarai.42 days = 365 }
			}
			add_treasury = -100
			add_manpower = -3
		}
	}
}

nuugdan_tsarai_95 = {
	slot = 2
	generic = no
	ai = yes
	potential = {
		OR = {
			tag = Y91
			tag = Y96
			tag = Y98
		}
		has_country_flag = Y91_face_stealerskillersform
	}
	
	Y91_clear_first_runsukhi = {
		icon = mission_non-western_cavalry_raid
		position = 5

		trigger = {
			owns_core_province = 5405
			5405 = {
				infantry_in_province = ROOT
				infantry_in_province = 3
				cavalry_in_province = ROOT
			}
			owns_core_province = 5380
			5380 = {
				infantry_in_province = ROOT
				infantry_in_province = 3
				cavalry_in_province = ROOT
			}
			owns_core_province = 5379
			5379 = {
				infantry_in_province = ROOT
				infantry_in_province = 3
				cavalry_in_province = ROOT
			}
		}
		
		provinces_to_highlight = {
			OR = {
				province_id = 5405
				province_id = 5380
				province_id = 5379
			}
		}

		effect = {
			custom_tooltip = Y91_facestealer_spawn_tooltip
			hidden_effect = {
				5405 = {
					spawn_rebels = {
						size = 1
						type = face_stealers_rebels
					}
					remove_province_modifier = Y91_plagued_by_face_eaters
				}
				5380 = {
					spawn_rebels = {
						size = 1
						type = face_stealers_rebels
					}
					remove_province_modifier = Y91_plagued_by_face_eaters
				}
				5379 = {
					spawn_rebels = {
						size = 1
						type = face_stealers_rebels
					}
					remove_province_modifier = Y91_plagued_by_face_eaters
				}
			}
			set_country_flag = Y91_face_stealersfirstcleared
#			swap_non_generic_missions = yes
		}
	}
}

nuugdan_tsarai_94 = {
	slot = 2
	generic = no
	ai = yes
	potential = {
		OR = {
			tag = Y91
			tag = Y96
			tag = Y98
		}
		has_country_flag = Y91_face_stealersmountainjoined
	}
	
	Y91_clear_mountain_runsukhi = {
		icon = mission_non-western_cavalry_raid
		position = 6
		required_missions = { Y91_clear_first_runsukhi }

		trigger = {
			owns_core_province = 5375
			5375 = {
				infantry_in_province = ROOT
				infantry_in_province = 5
				cavalry_in_province = ROOT
			}
			owns_core_province = 5338
			5338 = {
				infantry_in_province = ROOT
				infantry_in_province = 5
				cavalry_in_province = ROOT
			}
		}
		
		provinces_to_highlight = {
			OR = {
				province_id = 5375
				province_id = 5338
			}
		}

		effect = {
			custom_tooltip = Y91_facestealer_spawn_tooltip
			hidden_effect = {
				5375 = {
					spawn_rebels = {
						size = 2
						type = face_stealers_rebels
					}
					remove_province_modifier = Y91_plagued_by_face_eaters
				}
				5338 = {
					spawn_rebels = {
						size = 2
						type = face_stealers_rebels
					}
					remove_province_modifier = Y91_plagued_by_face_eaters
				}
			}
			set_country_flag = Y91_face_stealersmountaincleared
#			swap_non_generic_missions = yes
		}
	}
}

nuugdan_tsarai_93 = {
	slot = 2
	generic = no
	ai = yes
	potential = {
		OR = {
			tag = Y91
			tag = Y96
			tag = Y98
		}
		has_country_flag = Y91_face_stealersegoongaamjoined
	}
	
	Y91_clear_egoongaam_runsukhi = {
		icon = mission_non-western_cavalry_raid
		position = 7
		required_missions = { Y91_clear_mountain_runsukhi }

		trigger = {
			owns_core_province = 5381
			5381 = {
				infantry_in_province = ROOT
				infantry_in_province = 7
				cavalry_in_province = ROOT
			}
			owns_core_province = 5422
			5422 = {
				infantry_in_province = ROOT
				infantry_in_province = 7
				cavalry_in_province = ROOT
			}
			owns_core_province = 5383
			5383 = {
				infantry_in_province = ROOT
				infantry_in_province = 7
				cavalry_in_province = ROOT
			}
			owns_core_province = 5382
			5382 = {
				infantry_in_province = ROOT
				infantry_in_province = 7
				cavalry_in_province = ROOT
			}
		}
		
		provinces_to_highlight = {
			OR = {
				province_id = 5381
				province_id = 5422
				province_id = 5383
				province_id = 5382
			}
		}

		effect = {
			custom_tooltip = Y91_facestealer_spawn_tooltip
			hidden_effect = {
				5381 = {
					spawn_rebels = {
						size = 3
						type = face_stealers_rebels
					}
					remove_province_modifier = Y91_plagued_by_face_eaters
				}
				5422 = {
					spawn_rebels = {
						size = 3
						type = face_stealers_rebels
					}
					remove_province_modifier = Y91_plagued_by_face_eaters
				}
				5383 = {
					spawn_rebels = {
						size = 3
						type = face_stealers_rebels
					}
					remove_province_modifier = Y91_plagued_by_face_eaters
				}
				5382 = {
					spawn_rebels = {
						size = 3
						type = face_stealers_rebels
					}
					remove_province_modifier = Y91_plagued_by_face_eaters
				}
			}
			set_country_flag = Y91_face_stealersegoongaamcleared
			swap_non_generic_missions = yes
		}
	}
}

nuugdan_tsarai_92 = {
	slot = 2
	generic = no
	ai = yes
	potential = {
		OR = {
			tag = Y91
			tag = Y96
			tag = Y98
		}
		has_country_flag = Y91_face_stealerslakefolkjoined
	}
	
	Y91_clear_lakefolk_runsukhi = {
		icon = mission_non-western_cavalry_raid
		position = 8
		required_missions = { Y91_clear_egoongaam_runsukhi }

		trigger = {
			owns_core_province = 5337
			5337 = {
				infantry_in_province = ROOT
				infantry_in_province = 5
				cavalry_in_province = ROOT
			}
			owns_core_province = 5335
			5335 = {
				infantry_in_province = ROOT
				infantry_in_province = 5
				cavalry_in_province = ROOT
			}
			owns_core_province = 5336
			5336 = {
				infantry_in_province = ROOT
				infantry_in_province = 5
				cavalry_in_province = ROOT
			}
			owns_core_province = 5421
			5421 = {
				infantry_in_province = ROOT
				infantry_in_province = 5
				cavalry_in_province = ROOT
			}
			owns_core_province = 5418
			5418 = {
				infantry_in_province = ROOT
				infantry_in_province = 5
				cavalry_in_province = ROOT
			}
			owns_core_province = 5378
			5378 = {
				infantry_in_province = ROOT
				infantry_in_province = 5
				cavalry_in_province = ROOT
			}
		}
		
		provinces_to_highlight = {
			OR = {
				province_id = 5337
				province_id = 5335
				province_id = 5336
				province_id = 5421
				province_id = 5418
				province_id = 5378
			}
		}

		effect = {
			custom_tooltip = Y91_facestealer_spawn_tooltip
			hidden_effect = {
				5337 = {
					spawn_rebels = {
						size = 2
						type = face_stealers_rebels
					}
					remove_province_modifier = Y91_plagued_by_face_eaters
				}
				5335 = {
					spawn_rebels = {
						size = 2
						type = face_stealers_rebels
					}
					remove_province_modifier = Y91_plagued_by_face_eaters
				}
				5336 = {
					spawn_rebels = {
						size = 2
						type = face_stealers_rebels
					}
					remove_province_modifier = Y91_plagued_by_face_eaters
				}
				5421 = {
					spawn_rebels = {
						size = 2
						type = face_stealers_rebels
					}
					remove_province_modifier = Y91_plagued_by_face_eaters
				}
				5418 = {
					spawn_rebels = {
						size = 2
						type = face_stealers_rebels
					}
					remove_province_modifier = Y91_plagued_by_face_eaters
						add_province_modifier = {
						name = Y91_birb_logistics
						duration = -1
					}
				}
				5378 = {
					spawn_rebels = {
						size = 2
						type = face_stealers_rebels
					}
					remove_province_modifier = Y91_plagued_by_face_eaters
				}
			}
			set_country_flag = Y91_face_stealerslakefolkcleared
			swap_non_generic_missions = yes
		}
	}
}

nuugdan_tsarai_91 = {
	slot = 2
	generic = no
	ai = yes
	potential = {
		OR = {
			tag = Y91
			tag = Y96
			tag = Y98
		}
		has_country_flag = Y91_face_stealersmountaincleared
		has_country_flag = Y91_face_stealerslakefolkcleared
		has_country_flag = Y91_face_stealersegoongaamcleared
	}
	
	Y91_into_the_mountain = {
		icon = mission_extent_yasak_to_the_east
		position = 9
		required_missions = { Y91_clear_lakefolk_runsukhi }

		trigger = {
			custom_trigger_tooltip = {
				tooltip = Y91_have_a_deity
				OR = {
					has_personal_deity = tsarai
					has_personal_deity = jaal
					has_personal_deity = oedek
					has_personal_deity = bhengudakhnar
					has_personal_deity = daxuusgen
					has_personal_deity = faceless_queen
					has_personal_deity = menjaeng
				}
			}
			treasury = 100
			mil_power = 100
			ruler_has_mage_personality = yes
			owns_core_province = 5418
			5418 = {
				has_ruler_leader_from = ROOT
				infantry_in_province = 20
				cavalry_in_province = ROOT
			}
		}
		
		provinces_to_highlight = {
			OR = {
				province_id = 5418
				province_id = 2194
			}
		}

		effect = {
			add_treasury = -100
			add_mil_power = -100
			custom_tooltip = Y91_facestealer_finale_tooltip
			hidden_effect = {
				country_event = { id = flavor_nuugdan_tsarai.44 days = 5 }
				set_ruler_flag = Y91_facestealerinvasionattempt1alive
			}
		}
	}
}

nuugdan_tsarai_4 = {
	slot = 4
	generic = no
	ai = yes
	potential = {
		OR = {
			tag = Y91
			tag = Y96
			tag = Y98
		}
	}
	has_country_shield = yes
	
	Y91_lucky_scales = {
		icon = mission_rice_field
		position = 1

		trigger = {
			OR = {
				alliance_with = Y13
				has_spy_network_in = {
					who = Y05
					value = 30
				}
				NOT = { exists = Y05 }
			}
		}
		
		provinces_to_highlight = {
			OR = {
				area = ningxiang_area
				area = liuminxiang_area
				area = erluxi_area
			}
		}

		effect = {
			if = {
				limit = { alliance_with = Y13 }
				country_event = { id = flavor_nuugdan_tsarai.75 }
			}
			else = {
				ningxiang_area = { add_permanent_claim = ROOT }
				liuminxiang_area = { add_permanent_claim = ROOT }
				erluxi_area = { add_permanent_claim = ROOT }
			}
		}
	}
	
	Y91_jiangdu_reborn = {
		icon = the_ostend_company
		position = 2
		required_missions = { Y91_lucky_scales }

		trigger = {
			OR = {
				alliance_with = Y13
				Y13 = { is_subject_of = ROOT }
				NOT = { exists = Y13 }
			}
			NOT = { exists = Y05 }
			ningxiang_area = {
				type = all
				OR = {
					owned_by = ROOT
					owned_by = Y13
				}
			}
			liuminxiang_area = {
				type = all
				OR = {
					owned_by = ROOT
					owned_by = Y13
				}
			}
			erluxi_area = {
				type = all
				OR = {
					owned_by = ROOT
					owned_by = Y13
				}
			}
		}
		
		provinces_to_highlight = {
			OR = {
				area = ningxiang_area
				area = liuminxiang_area
				area = erluxi_area
			}
			NOT = {
				OR = {
					owned_by = ROOT
					owned_by = Y13
				}
			}
		}

		effect = {
			custom_tooltip = Y91_jiangdu_reborn_tt
			if = {
				limit = { 
					Y13 = { 
						exists = yes
						ai = no
					}
				}
				Y13 = { 
					country_event = { id = flavor_nuugdan_tsarai.86 }
				}
			}
			else_if = {
				limit = { 
					NOT = { exists = Y13 }
				}
				create_vassal = Y13
				if = {
					limit = {
						Y13 = { 
							NOT = { religion = high_philosophy }
						}
					}
					Y13 = { change_religion = high_philosophy }
				}
			}
			else_if = {
				limit = { alliance_with = Y13 }
				vassalize = Y13
				if = {
					limit = {
						any_owned_province = { is_core = Y13 }
					}
					every_owned_province = {
						limit = { is_core = Y13 }
						cede_province = Y13
					}
				}
			}
			else = {
				if = {
					limit = {
						any_owned_province = { is_core = Y13 }
					}
					every_owned_province = {
						limit = { is_core = Y13 }
						cede_province = Y13
					}
				}
			}
			add_adm_power = 100
			add_splendor = 200
			hidden_effect = {
				country_event = { id = flavor_nuugdan_tsarai.7 days = 3650 }
			}
			linyuan_area = { add_permanent_claim = ROOT }
			yanzhong_area = { add_permanent_claim = ROOT }
		}
	}
	
	Y91_yanchung_logistics = {
		icon = mission_trade_with_cathay
		position = 3
		required_missions = { Y91_jiangdu_reborn }

		trigger = {
			linyuan_area = {
				type = all
				country_or_non_sovereign_subject_holds = ROOT
			}
			yanzhong_area = {
				type = all
				country_or_non_sovereign_subject_holds = ROOT
			}
			owns_core_province = 4859
		}
		
		provinces_to_highlight = {
			OR = {
				area = linyuan_area
				area = yanzhong_area
			}
			NOT = {
				country_or_non_sovereign_subject_holds = ROOT
			}
		}

		effect = {
			add_adm_power = -50
			4859 = {
				add_local_autonomy = -25
				add_province_modifier = {
					name = Y91_yanzhong_supply_system
					duration = 9125
				}
			}
			hongnguan_area = { add_permanent_claim = ROOT }
		}
	}
	
	Y91_nostalgic_fields = {
		icon = mission_conquer_tunisia
		position = 4
		required_missions = { Y91_yanchung_logistics }

		trigger = {
			owns_or_non_sovereign_subject_of = 4880
			owns_or_non_sovereign_subject_of = 4896
			owns_or_non_sovereign_subject_of = 4895
		}
		
		provinces_to_highlight = {
			OR = {
				province_id = 4880
				province_id = 4896
				province_id = 4895
			}
			NOT = {
				owned_by = ROOT
			}
		}

		effect = {
			add_army_tradition = 5
			add_country_modifier = {
				name = Y91_desert_campaign_veterancy
				duration = 9125
			}
		}
	}
	
	Y91_the_flanking = {
		icon = mission_break_sicily
		position = 5
		required_missions = { Y91_nostalgic_fields Y91_at_the_tianlou_gate  }

		trigger = {
			owns_or_non_sovereign_subject_of = 4871
			owns_or_non_sovereign_subject_of = 4904
			owns_or_non_sovereign_subject_of = 4876
			owns_or_non_sovereign_subject_of = 4880
			owns_or_non_sovereign_subject_of = 4896
			owns_or_non_sovereign_subject_of = 4895
		}
		
		provinces_to_highlight = {
			OR = {
				province_id = 4871
				province_id = 4904
				province_id = 4876
				province_id = 4880
				province_id = 4896
				province_id = 4895
			}
		}

		effect = {
			iongsim_area = { add_permanent_claim = ROOT }
			if = {
				limit = {
					NOT = { 
						4869 = { country_or_non_sovereign_subject_holds = ROOT }
					}
				}
				4879 = { 
					add_province_modifier = {
						name = Y91_feiten_flanking
						duration = 3650
					}
				}
			}
		}
	}
	
	Y91_daxugo_ambitions = {
		icon = mission_empire
		position = 6
		required_missions = { Y91_the_flanking }

		trigger = {
			owns_core_province = 4925
			owns_core_province = 4871
			owns_or_non_sovereign_subject_of = 4868
			owns_core_province = 4859
			owns_core_province = 4879
			if = {
				limit = {
					Y13 = { is_subject_of = ROOT }
				}
				dip_power = 400
				NOT = { 
					Y13 = { 
						liberty_desire = 50 
					}
				}
			}
		}
		
		provinces_to_highlight = {
			OR = {
				province_id = 4925
				province_id = 4871
				province_id = 4868
				province_id = 4859
				province_id = 4879
			}
			NOT = {
				OR = {
					owned_by = ROOT
					AND = {
						province_id = 4868
						country_or_non_sovereign_subject_holds = ROOT
					}
				}
			}
		}

		effect = {
			add_splendor = 800
			if = {
				limit = {
					Y13 = { is_subject_of = ROOT }
				}
				inherit = Y13
				add_dip_power = -400
			}
			add_country_modifier = {
				name = Y91_foundation_for_an_empire
				duration = 9125
			}
			yanshen_superregion = {
				limit = {
					NOT = { is_core = ROOT }
					NOT = { owned_by = ROOT }
				}
				add_claim = ROOT
			}
		}
	}
}

nuugdan_tsarai_5 = {
	slot = 5
	generic = no
	ai = yes
	potential = {
		OR = {
			tag = Y91
			tag = Y96
			tag = Y98
		}
	}
	has_country_shield = yes
	
	Y91_plan_daengun_invasion = {
		icon = mission_unite_home_region
		position = 1

		trigger = {
			if = {
				limit = { ai = no }
				NOT = {
					is_in_war = {
						participants = Y93
					}
				}
				Y92 = {
					is_subject_of = ROOT
					NOT = { liberty_desire = 45 }
				}
				NOT = { truce_with = Y93 }
				has_spy_network_in = {
					who = Y93
					value = 40
				}
			}
			else = {
				is_at_war = no
				Y92 = {
					is_subject_of = ROOT
				}
				NOT = { truce_with = Y93 }
				NOT = { Y93 = { has_ruler = "Jeong-Hun" } }
			}
		}

		effect = {
			declare_war_with_cb = {
				who = Y93
				casus_belli = cb_horde_vs_civ
				war_goal_province = 5365
			}
			ondeog_area = { add_permanent_claim = ROOT }
			segang_area = { add_permanent_claim = Y92 }
			5351 = {
				add_province_modifier = {
					name = Y91_birb_sabotage
					duration = 730
				}
			}
			5365 = {
				add_province_modifier = {
					name = Y91_birb_sabotage
					duration = 730
				}
			}
			add_spy_network_in = {
				who = Y93
				value = -40
			}
		}
	}
	
	Y91_peace_treaty = {
		icon = mission_al_andalus
		position = 2
		required_missions = { Y91_plan_daengun_invasion }
		
		trigger = {
			if = {
				limit = { ai = no }
				Y92 = {
					is_subject_of = ROOT
					NOT = { liberty_desire = 45 }
				}
				is_in_war = {
					defenders = Y93
					attackers = ROOT
					casus_belli = cb_horde_vs_civ
				}
				war_score_against = {
					who = Y93
					value = 60
				}
			}
			else = {
				Y92 = {
					is_subject_of = ROOT
					NOT = { liberty_desire = 45 }
				}
				is_in_war = {
					defenders = Y93
					attackers = ROOT
					casus_belli = cb_horde_vs_civ
				}
				war_score_against = {
					who = Y93
					value = 35
				}
			}
		}


		effect = {
			white_peace = Y93
			Y93 = {
				every_owned_province = {
				limit = { area = ondeog_area }
				cede_province = ROOT
				}
				every_owned_province = {
				limit = { area = segang_area }
				cede_province = Y92
				}
				add_treasury = -150
			}
			add_treasury = 100
			Y92 = { add_treasury = 50 }
			add_power_projection = {
				type = mission_rewards_power_projection
				amount = 20
			}
			
			hidden_effect = {
				country_event = { id = flavor_nuugdan_tsarai.8 days = 60 }
			}
		}
	}
	
	Y91_guwaamud_ambitions = {
		icon = mission_empire
		position = 3

		trigger = {
			Y92 = {
				is_subject_of = ROOT
				NOT = { liberty_desire = 50 }
			}
			jibojagi_area = {
				type = all
				OR = {
					AND = {
						owned_by = ROOT
						is_core = ROOT
					}
					AND = {
						owned_by = Y92
						is_core = Y92
					}
				}
			}
			segang_area = {
				type = all
				OR = {
					AND = {
						owned_by = ROOT
						is_core = ROOT
					}
					AND = {
						owned_by = Y92
						is_core = Y92
					}
				}
			}
			suppiu_area = {
				type = all
				OR = {
					AND = {
						owned_by = ROOT
						is_core = ROOT
					}
					AND = {
						owned_by = Y92
						is_core = Y92
					}
				}
			}
			ondeog_area = {
				type = all
				OR = {
					AND = {
						owned_by = ROOT
						is_core = ROOT
					}
					AND = {
						owned_by = Y92
						is_core = Y92
					}
				}
			}
			dip_power = 200
			years_of_income = 0.5
			OR = { horde_unity = 100 legitimacy = 100 }
		
		}
		
		provinces_to_highlight = {
			OR = {
				area = jibojagi_area
				area = segang_area
				area = suppiu_area
				area = ondeog_area
			}
			NOT = {
				OR = {
					AND = {
						owned_by = ROOT
						is_core = ROOT
					}
					AND = {
						owned_by = Y92
						is_core = Y92
					}
				}
			}
		}

		effect = {
			country_event = { id = flavor_nuugdan_tsarai.12 days = 30 }
		}
	}
}
#	Y91_at_the_jiangdu_gate = {
#		icon = mission_control_surat
#		position = 3
#		required_missions = { Y91_yanchung_logistics }
#
#		trigger = {
#			OR = { owns = 4932 owns = 4867 }
#		}
#		
#		provinces_to_highlight = {
#			OR = {
#				province_id = 4932
#				province_id = 4867
#			}
#		}
#
#		effect = {
#			4868 = { add_permanent_claim = ROOT }
#		}
#	}
#	
#	Y91_integrating_jiangdu = {
#		icon = mission_asian_city
#		position = 4
#		required_missions = { Y91_at_the_jiangdu_gate }
#
#		trigger = {
#			owns_core_province = 4868
#		}
#		
#		provinces_to_highlight = {
#			OR = {
#				province_id = 4868
#			}
#		}
#
#		effect = {
#			add_prestige = 10
#		}
#	}
nuugdan_tsarai_99 = {
	slot = 5
	generic = no
	ai = yes
	potential = {
		has_country_flag = formed_guwaamud_flag
	}

	has_country_shield = yes
	Y91_finish_mainland_conquest = {
		icon = mission_chinese_general_riding
		position = 4
#		required_missions = { Y91_guwaamud_ambitions }

		trigger = {
			if = {
				limit = { was_tag = Y91 }
				any_owned_province = { culture = guwaadun }
			}
			if = {
				limit = { primary_culture = guwaadun }	#this was guwaamud which doesn't exist anymore so I changed it to guwaadun -Jay
				5348 = { culture = guwaadun }
			}
			if = {
				limit = { primary_culture = chimbija }
				5348 = { culture = chimbija }
			}
			odheongu_region = {
				type = all
				OR = {
					AND = {
						owned_by = ROOT
						is_core = ROOT
					}
				province_id = 5419
				}
			}
		}
		
		provinces_to_highlight = {
			region = odheongu_region
			NOT = {
				OR = {
					AND = {
						owned_by = ROOT
						is_core = ROOT
					}
					province_id = 5419
				}
			}
		}

		effect = {
			add_legitimacy = 10
			add_prestige = 10
			if = {
				limit = { NOT = { primary_culture = chimbija } }
				every_owned_province = {
					limit = {
						any_neighbor_province = {
							owned_by = ROOT
							culture = guwaadun
							NOT = { has_province_flag = Y91_guwaadunification }
						}
						culture_group = odheongun
						NOT = { culture = guwaadun }
					}
					change_culture = guwaadun
					add_base_tax = 1
					add_base_production = 1
					add_base_manpower = 1
					set_province_flag = Y91_guwaadunification
				}
				every_owned_province = {
					clr_province_flag = Y91_guwaadunification
				}
			}
			if = {
				limit = { primary_culture = chimbija }
				every_owned_province = {
					limit = {
						any_neighbor_province = {
							owned_by = ROOT
							culture = chimbija
							NOT = { has_province_flag = Y91_guwaadunification }
						}
						culture_group = odheongun
						NOT = { culture = chimbija }
					}
					change_culture = chimbija
					add_base_tax = 1
					add_base_production = 1
					add_base_manpower = 1
					set_province_flag = Y91_guwaadunification
				}
				every_owned_province = {
					clr_province_flag = Y91_guwaadunification
				}
			}
		}
	}
	
	Y91_develop_economy = {
		icon = mission_potosi_silver
		position = 5
		required_missions = { Y91_finish_mainland_conquest }

		trigger = {
			5358 = {
				owned_by = ROOT
				is_core = ROOT
				base_production = 10
			}
			5356 = {
				owned_by = ROOT
				is_core = ROOT
				base_production = 10
				has_trade_building_trigger = yes
				province_has_center_of_trade_of_level  = 2
			}
			5348 = {
				owned_by = ROOT
				is_core = ROOT
				development = 30
				has_tax_building_trigger = yes
			}
		}
		
		provinces_to_highlight = {
			OR = {
				province_id = 5358
				province_id = 5356
				province_id = 5348
			}
		}

		effect = {
			5356 = { add_province_modifier = { name = JY_LF_port duration = -1 } }
			custom_tooltip = Y91_buogoj_port_open_tooltip
			if = {
				limit = { NOT = { primary_culture = chimbija } }
				every_owned_province = {
					limit = {
						any_neighbor_province = {
							owned_by = ROOT
							culture = guwaadun
							NOT = { has_province_flag = Y91_guwaadunification }
						}
						culture_group = odheongun
						NOT = { culture = guwaadun }
					}
					change_culture = guwaadun
					add_base_tax = 1
					add_base_production = 1
					add_base_manpower = 1
					set_province_flag = Y91_guwaadunification
				}
				every_owned_province = {
					clr_province_flag = Y91_guwaadunification
				}
			}
			if = {
				limit = { primary_culture = chimbija }
				every_owned_province = {
					limit = {
						any_neighbor_province = {
							owned_by = ROOT
							culture = chimbija
							NOT = { has_province_flag = Y91_guwaadunification }
						}
						culture_group = odheongun
						NOT = { culture = chimbija }
					}
					change_culture = chimbija
					add_base_tax = 1
					add_base_production = 1
					add_base_manpower = 1
					set_province_flag = Y91_guwaadunification
				}
				every_owned_province = {
					clr_province_flag = Y91_guwaadunification
				}
			}
		}
	}
	
	Y91_build_Bhengudakhnar_temple = {
		icon = mission_develop_cordoba
		position = 6
		required_missions = { Y91_develop_economy }

		trigger = {
			custom_trigger_tooltip = {
				tooltip = Y91_bhengudakhnar_ascension
				OR = {
					has_global_flag = guwaamud_ascension
					NOT = { religion = saanorgegh }
				}
			}
			treasury = 200
			5348 = {
				owned_by = ROOT
				is_core = ROOT
				development = 40
				has_tax_building_trigger = yes
			}
		}
		
		provinces_to_highlight = {
			OR = {
				province_id = 5348
			}
		}

		effect = {
			add_treasury = -200
			if = {
				limit = { NOT = { primary_culture = chimbija } }
				country_event = { id = flavor_nuugdan_tsarai.39 days = 730 }
				5348 = { change_religion = saanorgegh }
				5350 = { change_religion = saanorgegh }
				5345 = { change_religion = saanorgegh }
				5346 = { change_religion = saanorgegh }
				5347 = { change_religion = saanorgegh }
				5355 = { change_religion = saanorgegh }
				every_owned_province = {
					limit = {
						any_neighbor_province = {
							owned_by = ROOT
							culture = guwaadun
							NOT = { has_province_flag = Y91_guwaadunification }
						}
						culture_group = odheongun
						NOT = { culture = guwaadun }
					}
					change_culture = guwaadun
					add_base_tax = 1
					add_base_production = 1
					add_base_manpower = 1
					set_province_flag = Y91_guwaadunification
				}
				every_owned_province = {
					clr_province_flag = Y91_guwaadunification
				}
			}
			if = {
				limit = { primary_culture = chimbija }
				# country_event = { id = flavor_nuugdan_tsarai.39 days = 730 }
				every_owned_province = {
					limit = {
						any_neighbor_province = {
							owned_by = ROOT
							culture = chimbija
							NOT = { has_province_flag = Y91_guwaadunification }
						}
						culture_group = odheongun
						NOT = { culture = chimbija }
					}
					change_culture = chimbija
					add_base_tax = 1
					add_base_production = 1
					add_base_manpower = 1
					set_province_flag = Y91_guwaadunification
				}
				every_owned_province = {
					clr_province_flag = Y91_guwaadunification
				}
			}
		}
	}
	
	Y91_somyonghon_cult = {
		icon = mission_look_west
		position = 7
		required_missions = { Y91_build_Bhengudakhnar_temple }

		trigger = {
			treasury = 50
			5419 = {
				owned_by = ROOT
				is_core = ROOT
				has_tax_building_trigger = yes
			}
		}
			
		provinces_to_highlight = {
			OR = {
				province_id = 5419
			}
		}

		effect = {
			add_treasury = -50
			country_event = { id = flavor_nuugdan_tsarai.43 days = 730 }
		}
	}
}

nuugdan_tsarai_6 = {
	slot = 1
	generic = no
	ai = yes
	potential = {
		tag = Y98
	}
	has_country_shield = yes

	Y91_plight_of_the_upper_raheni = {
		icon = mission_crusade_for_varna
		position = 5
		
		trigger = {
			custom_trigger_tooltip = {
				tooltip = Y91_plight_raheni_tooltip
				asia = {
					type = all
					OR = {
						country_or_subject_holds = ROOT	
						NOT = {
							OR = {
								is_core = R79
								is_core = R78
							}
						}
					}
				}
			}
		}
		
		provinces_to_highlight = {
			continent = asia
			OR = {
				is_core = R79
				is_core = R78
			}
		}

		effect = {
			custom_tooltip = Y91_claim_all_above_ground_hob_tooltip
			hidden_effect = {
				every_province = {
					limit = {
						continent = asia
						owned_by = R62
					}
					add_permanent_claim = ROOT
				}
			}
		}
	}
	
	Y91_liberation_for_all = {
		icon = mission_indian_stateman
		position = 6
		required_missions = { Y91_plight_of_the_upper_raheni }
		
		trigger = {
			asia = {
				type = all
				NOT = { owned_by = R62 }
			}
		}
		
		provinces_to_highlight = {
			continent = asia
			owned_by = R62
		}

		effect = {
			every_province = {
				limit = {
					continent = asia
					OR = {
						owned_by = R63
						owned_by = R64
					}
				}
				add_permanent_claim = ROOT
			}
			add_prestige = 10
			add_legitimacy = 10
		}
	}
	
	Y91_torches_for_all = {
		icon = mission_impaled_soldies
		position = 7
		required_missions = { Y91_liberation_for_all }
		
		trigger = {
			has_estate = estate_artificers
			NOT = { exists = R63 }
			NOT = { exists = R64 }
		}

		effect = {
			add_casus_belli = {
					type = cb_vassalize_mission
					months = 3000
					target = R65
			}
			dromak_area = { add_permanent_claim = ROOT }
			dromak_pass_area = { add_permanent_claim = ROOT }
			4320 = { add_permanent_claim = ROOT }
			4319 = { add_permanent_claim = ROOT }
			blastcrack_area = { add_permanent_claim = ROOT }
			country_event = { id = flavor_nuugdan_tsarai.19 }
		}
	}
	
	Y91_jade_for_all = {
		icon = mission_war_chest
		position = 8
		required_missions = { Y91_torches_for_all }
		
		trigger = {
			R65 = {
				is_subject_of = ROOT
			}
			dromak_area = {
				type = all
				owned_by = R65
			}
			dromak_pass_area = {
				type = all
				owned_by = R65
			}
			4320 = { owned_by = R65 }
			4319 = { owned_by = R65 }
			blastcrack_area = {
				type = all
				owned_by = R65
			}
		}

		effect = {
			jade_mines_region = { add_permanent_claim = R65 }
			mission_reward_artifice_points_3 = yes
			hidden_effect = {
				R65 = { grant_independence = yes }
			}
			create_subject = {
				subject_type = "autonomous_vassal"
				subject = R65
			}
		}
	}
}

nuugdan_tsarai_7 = {
	slot = 3
	generic = no
	ai = yes
	potential = {
		tag = Y98
		has_country_flag = daxugo_rebellions_started
	}
	has_country_shield = yes

	Y91_northern_yan_unification = {
		icon = mission_rice_field
		position = 8
		required_missions = { Y91_daxugo_reforms }
		
		trigger = {
			custom_trigger_tooltip = {
				tooltip = Y91_own_all_northern_yan
				yanshen_superregion = {
					type = all
					OR = {
						AND = {
							owned_by = ROOT
						}
						NOT = { culture = northern_yan }
					}
				}
			}
			custom_trigger_tooltip = {
				tooltip = Y91_core_all_northern_yan
				yanshen_superregion = {
					type = all
					OR = {
						AND = {
							is_core = ROOT
						}
						NOT = { culture = northern_yan }
					}
				}
			}
			custom_trigger_tooltip = {
				tooltip = Y91_pacify_all_northern_yan
				yanshen_superregion = {
					type = all
					OR = {
						has_province_modifier = Y91_recent_daxugo_rebellion
						NOT = { culture = northern_yan }
					}
				}
			}
			custom_trigger_tooltip = {
				tooltip = Y91_dev_all_northern_yan
				yanshen_superregion = {
					type = all
					OR = {
						AND = {
							development = 10
						}
						NOT = { culture = northern_yan }
					}
				}
			}
			yanshen_superregion = {
				type = all
				OR = {
					NOT = { 
						culture = northern_yan 
					}
					NOT = {
						controlled_by = REB
					}
				}
			}
			OR = {
				has_estate_privilege = estate_nobles_right_of_counsel
				NOT = { has_estate = estate_nobles }
			}
			OR = {
				consort_culture = northern_yan
				employed_advisor = {
					culture = northern_yan
					type = diplomat
				}
				dip_power = 200
			}
		}
		
		provinces_to_highlight = {
			superregion = yanshen_superregion
			culture = northern_yan
			NOT = {
				AND = {
					owned_by = ROOT
					is_core = ROOT
					development = 10
					has_province_modifier = Y91_recent_daxugo_rebellion
				}
			}
		}

		effect = {
			custom_tooltip = Y91_northern_yan_succesfully_pacified
			hidden_effect = {
				every_owned_province = {
					limit = {
						culture = northern_yan
					}
					remove_province_modifier = Y91_disaster_unrest
				}
			}
			add_country_modifier = {
				name = Y91_northern_yan_pacified
				duration = -1 
			}
			if = {
				limit = {
					NOT = {
						OR = {
							consort_culture = northern_yan
							employed_advisor = {
								culture = northern_yan
								type = diplomat
							}
						}
					}
				}
				add_dip_power = -200
			}
			set_country_flag = daxugo_north_yan_placated
		}
	}
	
	Y91_hill_yan_unification = {
		icon = mission_rb_prospect_for_coal
		position = 9
		
		trigger = {
			mission_completed = Y91_daxugo_reforms
			custom_trigger_tooltip = {
				tooltip = Y91_own_all_hill_yan
				yanshen_superregion = {
					type = all
					OR = {
						AND = {
							owned_by = ROOT
						}
						NOT = { culture = hill_yan }
					}
				}
			}
			custom_trigger_tooltip = {
				tooltip = Y91_core_all_hill_yan
				yanshen_superregion = {
					type = all
					OR = {
						AND = {
							is_core = ROOT
						}
						NOT = { culture = hill_yan }
					}
				}
			}
			custom_trigger_tooltip = {
				tooltip = Y91_pacify_all_hill_yan
				yanshen_superregion = {
					type = all
					OR = {
						has_province_modifier = Y91_recent_daxugo_rebellion
						NOT = { culture = hill_yan }
					}
				}
			}
			calc_true_if = {
				amount = 6
				yanshen_superregion = {
					type = all
					culture = hill_yan
					has_production_building_trigger = yes
				}
			}
			yanshen_superregion = {
				type = all
				OR = {
					NOT = { 
						culture = hill_yan 
					}
					NOT = {
						controlled_by = REB
					}
				}
			}
			OR = {
				consort_culture = hill_yan
				employed_advisor = {
					culture = hill_yan
					type = diplomat
				}
				dip_power = 200
			}
		}
		
		provinces_to_highlight = {
			superregion = yanshen_superregion
			culture = hill_yan
			NOT = {
				AND = {
					owned_by = ROOT
					is_core = ROOT
					has_province_modifier = Y91_recent_daxugo_rebellion
				}
			}
		}

		effect = {
			custom_tooltip = Y91_hill_yan_succesfully_pacified
			hidden_effect = {
				every_owned_province = {
					limit = {
						culture = hill_yan
					}
					remove_province_modifier = Y91_disaster_unrest
				}
			}
			add_country_modifier = {
				name = Y91_hill_yan_pacified
				duration = -1 
			}
			if = {
				limit = {
					NOT = {
						OR = {
							consort_culture = hill_yan
							employed_advisor = {
								culture = hill_yan
								type = diplomat
							}
						}
					}
				}
				add_dip_power = -200
			}
			set_country_flag = daxugo_hill_yan_placated
		}
	}
}

nuugdan_tsarai_8 = {
	slot = 4
	generic = no
	ai = yes
	potential = {
		tag = Y98
		has_country_flag = daxugo_rebellions_started
	}
	has_country_shield = yes

	Y91_daxugo_reforms = {
		icon = mission_scholar_officials
		position = 7
		
		trigger = {
			adm_power = 200
			treasury = 1000
		}
		
		provinces_to_highlight = {
			
		}

		effect = {
			add_adm_power = -200
			add_treasury = -1000
			add_country_modifier = {
				name = Y91_daxugo_reforms_promised
				duration = -1 
			}
		}
	}
	
	Y91_river_yan_unification = {
		icon = mission_se_along_the_river
		position = 8
		required_missions = { Y91_daxugo_reforms }
		
		trigger = {
			custom_trigger_tooltip = {
				tooltip = Y91_own_all_river_yan
				yanshen_superregion = {
					type = all
					OR = {
						AND = {
							owned_by = ROOT
						}
						NOT = { culture = river_yan }
					}
				}
			}
			custom_trigger_tooltip = {
				tooltip = Y91_core_all_river_yan
				yanshen_superregion = {
					type = all
					OR = {
						AND = {
							is_core = ROOT
						}
						NOT = { culture = river_yan }
					}
				}
			}
			custom_trigger_tooltip = {
				tooltip = Y91_pacify_all_river_yan
				yanshen_superregion = {
					type = all
					OR = {
						has_province_modifier = Y91_recent_daxugo_rebellion
						NOT = { culture = river_yan }
					}
				}
			}
			custom_trigger_tooltip = {
				tooltip = Y91_dev_all_river_yan
				yanshen_superregion = {
					type = all
					OR = {
						AND = {
							province_has_center_of_trade_of_level = 2
							has_trade_building_trigger = yes
						}
						NOT = { culture = river_yan }
						NOT = { has_terrain = city_terrain }
					}
				}
			}
			custom_trigger_tooltip = {
				tooltip = Y91_road_all_river_yan
				golden_highway_yanshen_coast = {
					type = all
					has_province_modifier = golden_highway
				}
				golden_highway_upper_yanshen = {
					type = all
					has_province_modifier = golden_highway
				}
			}
			has_estate_privilege = estate_burghers_free_enterprise
			yanshen_superregion = {
				type = all
				OR = {
					NOT = { 
						culture = river_yan 
					}
					NOT = {
						controlled_by = REB
					}
				}
			}
			OR = {
				consort_culture = river_yan
				employed_advisor = {
					culture = river_yan
					type = diplomat
				}
				dip_power = 200
			}
		}
		
		provinces_to_highlight = {
			OR = {
				AND = {
					superregion = yanshen_superregion
					culture = river_yan
					OR = {
						AND = {
							has_terrain = city_terrain
							NOT = {
								province_has_center_of_trade_of_level = 2
								has_trade_building_trigger = yes
							}
						}
						NOT = {
							has_province_modifier = Y91_recent_daxugo_rebellion
						}
					}
				}
				AND = {
					province_group = golden_highway_yanshen_coast
					NOT = { has_province_modifier = golden_highway }
				}
				AND = {
					province_group = golden_highway_upper_yanshen
					NOT = { has_province_modifier = golden_highway }
				}
			}
		}

		effect = {
			custom_tooltip = Y91_river_yan_succesfully_pacified
			hidden_effect = {
				every_owned_province = {
					limit = {
						culture = river_yan
					}
					remove_province_modifier = Y91_disaster_unrest
				}
			}
			add_country_modifier = {
				name = Y91_river_yan_pacified
				duration = -1 
			}
			if = {
				limit = {
					NOT = {
						OR = {
							consort_culture = river_yan
							employed_advisor = {
								culture = river_yan
								type = diplomat
							}
						}
					}
				}
				add_dip_power = -200
			}
			set_country_flag = daxugo_river_yan_placated
		}
	}
	
	Y91_western_yan_unification = {
		icon = mission_asian_trader
		position = 10
		required_missions = { Y91_river_yan_unification Y91_forest_yan_unification Y91_hill_yan_unification }
		
		trigger = {
			has_country_flag = daxugo_rebellions_finished
			prestige = 75
			dip_power = 100
		}
		
		provinces_to_highlight = {

		}

		effect = {
			add_dip_power = -100
			every_province = {
				limit = {
					continent = asia
					culture = western_yan
					NOT = { is_core = ROOT }
					NOT = { owned_by = ROOT }
				}
				add_permanent_claim = ROOT
			}
		}
	}
	
	Y91_yan_unification = {
		icon = mission_manchu_warrior
		position = 11
		required_missions = { Y91_western_yan_unification }
		
		trigger = {
			yanshen_superregion = {
				type = all
				OR = {
					AND = {
						owned_by = ROOT
						is_core = ROOT
					}
					NOT = { culture_group = yan }
				}
			}
			xianjie_region = {
				type = all
				OR = {
					AND = {
						owned_by = ROOT
						is_core = ROOT
					}
					NOT = { culture = western_yan }
				}
			}
		}
		
		provinces_to_highlight = {
			OR = {
				AND = {
					superregion = yanshen_superregion
					culture_group = yan
					NOT = {
						is_core = ROOT
						owned_by = ROOT
					}
				}
				AND = {
					region = xianjie_region
					culture = western_yan
					NOT = { 
						is_core = ROOT
						owned_by = ROOT
					}
				}
			}
		}

		effect = {
			add_prestige = 50
			add_splendor = 800
			add_country_modifier = {
				name = Y91_yan_unification_modifier
				duration = -1 
			}
		}
	}
}

nuugdan_tsarai_9 = {
	slot = 5
	generic = no
	ai = yes
	potential = {
		tag = Y98
		has_country_flag = daxugo_rebellions_started
	}
	has_country_shield = yes

	Y91_coastal_yan_unification = {
		icon = mission_invade_island
		position = 8
		required_missions = { Y91_daxugo_reforms }
		
		trigger = {
			custom_trigger_tooltip = {
				tooltip = Y91_own_all_coastal_yan
				yanshen_superregion = {
					type = all
					OR = {
						AND = {
							owned_by = ROOT
						}
						NOT = { culture = coastal_yan }
					}
				}
			}
			custom_trigger_tooltip = {
				tooltip = Y91_core_all_coastal_yan
				yanshen_superregion = {
					type = all
					OR = {
						AND = {
							is_core = ROOT
						}
						NOT = { culture = coastal_yan }
					}
				}
			}
			custom_trigger_tooltip = {
				tooltip = Y91_pacify_all_coastal_yan
				yanshen_superregion = {
					type = all
					OR = {
						has_province_modifier = Y91_recent_daxugo_rebellion
						NOT = { culture = coastal_yan }
					}
				}
			}
			yanshen_superregion = {
				type = all
				OR = {
					NOT = { 
						culture = coastal_yan 
					}
					NOT = {
						controlled_by = REB
					}
				}
			}
			OR = {
				consort_culture = coastal_yan
				employed_advisor = {
					culture = coastal_yan
					type = diplomat
				}
				dip_power = 200
			}
			navy_size_percentage = 0.50
			1371 = { is_strongest_trade_power = ROOT }
			if = {
				limit = { has_dlc = "Emperor" }
				has_estate_privilege = estate_burghers_private_trade_fleets
			}
		}
		
		provinces_to_highlight = {
			superregion = yanshen_superregion
			culture = coastal_yan
			NOT = {
				AND = {
					owned_by = ROOT
					is_core = ROOT
					has_province_modifier = Y91_recent_daxugo_rebellion
				}
			}
		}

		effect = {
			custom_tooltip = Y91_coastal_yan_succesfully_pacified
			hidden_effect = {
				every_owned_province = {
					limit = {
						culture = coastal_yan
					}
					remove_province_modifier = Y91_disaster_unrest
				}
			}
			add_country_modifier = {
				name = Y91_coastal_yan_pacified
				duration = -1 
			}
			if = {
				limit = {
					NOT = {
						OR = {
							consort_culture = coastal_yan
							employed_advisor = {
								culture = coastal_yan
								type = diplomat
							}
						}
					}
				}
				add_dip_power = -200
			}
			set_country_flag = daxugo_coastal_yan_placated
		}
	}
	
	Y91_forest_yan_unification = {
		icon = prosper_in_piedmont
		position = 9
		
		trigger = {
			mission_completed = Y91_daxugo_reforms
			custom_trigger_tooltip = {
				tooltip = Y91_own_all_forest_yan
				yanshen_superregion = {
					type = all
					OR = {
						AND = {
							owned_by = ROOT
						}
						NOT = { culture = forest_yan }
					}
				}
			}
			custom_trigger_tooltip = {
				tooltip = Y91_core_all_forest_yan
				yanshen_superregion = {
					type = all
					OR = {
						AND = {
							is_core = ROOT
						}
						NOT = { culture = forest_yan }
					}
				}
			}
			custom_trigger_tooltip = {
				tooltip = Y91_pacify_all_forest_yan
				yanshen_superregion = {
					type = all
					OR = {
						has_province_modifier = Y91_recent_daxugo_rebellion
						NOT = { culture = forest_yan }
					}
				}
			}
			yanshen_superregion = {
				type = all
				OR = {
					NOT = { 
						culture = forest_yan 
					}
					NOT = {
						controlled_by = REB
					}
				}
			}
			custom_trigger_tooltip = {
				tooltip = Y91_lupulan_wood
				OR = {
					any_ally = {
						any_owned_province = {
							trade_goods = tropical_wood
							region = lupulan_rainforest_region
						}
					}
					any_subject_country = {
						any_owned_province = {
							region = lupulan_rainforest_region
							trade_goods = tropical_wood
						}
						
					}
					any_owned_province = {
						region = lupulan_rainforest_region
						trade_goods = tropical_wood
					}
				}
			}
			custom_trigger_tooltip = {
				tooltip = Y91_plant_growth
				any_owned_province = {
					OR = {
						has_province_modifier = magic_realm_transmutation_plant_growth_1
						has_province_modifier = magic_realm_transmutation_plant_growth_2
						has_province_modifier = magic_realm_transmutation_plant_growth_3
						has_province_modifier = magic_realm_transmutation_plant_growth_4
					}
				}
			}
			OR = {
				consort_culture = forest_yan
				employed_advisor = {
					culture = forest_yan
					type = diplomat
				}
				dip_power = 200
			}
		}
		
		provinces_to_highlight = {
			superregion = yanshen_superregion
			culture = forest_yan
			NOT = {
				AND = {
					owned_by = ROOT
					is_core = ROOT
					has_province_modifier = Y91_recent_daxugo_rebellion
				}
			}
		}

		effect = {
			custom_tooltip = Y91_forest_yan_succesfully_pacified
			hidden_effect = {
				every_owned_province = {
					limit = {
						culture = forest_yan
					}
					remove_province_modifier = Y91_disaster_unrest
				}
			}
			add_country_modifier = {
				name = Y91_forest_yan_pacified
				duration = -1 
			}
			4824 = { change_trade_goods = tropical_wood }
			4900 = { change_trade_goods = tropical_wood }
			4841 = { change_trade_goods = tropical_wood }
			if = {
				limit = {
					NOT = {
						OR = {
							consort_culture = forest_yan
							employed_advisor = {
								culture = forest_yan
								type = diplomat
							}
						}
					}
				}
				add_dip_power = -200
			}
			set_country_flag = daxugo_forest_yan_placated
		}
	}
}

nuugdan_tsarai_49 = {
	slot = 2
	generic = no
	ai = yes
	potential = {
		OR = {
			tag = Y98
		}
		has_country_flag = daxugo_rebellions_finished
	}
	
	Y91_draft_military_reforms = {
		icon = mission_assemble_an_army
		position = 12
		required_missions = { Y91_inward_perfection }
		
		trigger = {
			mil_power = 100
			army_reformer = 3
		}

		effect = {
			add_mil_power = -100
			add_army_tradition = -10
			add_army_professionalism = 0.05
		}
	}
	
	Y91_big_yellow_birds = {
		icon = mission_non-western_cavalry_raid
		position = 13
		required_missions = { Y91_draft_military_reforms }
		
		trigger = {
			owns_core_province = 5406
			5406 = { 
				has_manpower_building_trigger = yes
				base_manpower = 15
			}
			calc_true_if = {
				all_owned_province = {
					culture = daxug
					has_manpower_building_trigger = yes
				}
				amount = 6
			}
		}
		
		provinces_to_highlight = {
			OR = {
				AND = {
					province_id = 5406
					NOT = {
						AND = {
							has_manpower_building_trigger = yes
							base_manpower = 15
						}
					}
				}
				AND = {
					owned_by = ROOT
					culture = daxug
					NOT = {
						has_manpower_building_trigger = yes
					}
				}
			}
		}

		effect = {
			5406 = {
				add_base_manpower = 2
				add_permanent_province_modifier = {
					name = Y91_desert_birds
					duration = -1 
				}
			}
		}
	}
	
	Y91_haisosen_birdrider_academy = {
		icon = mission_non-western_cavalry_raid
		position = 14
		required_missions = { Y91_big_yellow_birds }
		
		trigger = {
			owns_core_province = 5406
			5406 = {
				has_building = training_fields
				has_building = university
				base_manpower = 20
			}
			treasury = 500
		}
		
		provinces_to_highlight = {
			OR = {
				province_id = 5406
			}
		}

		effect = {
			add_treasury = -500
			5406 = {
				hidden_effect = {
					remove_province_modifier = Y91_desert_birds
				}
				add_permanent_province_modifier = {
					name = Y91_desert_birds2
					duration = -1 
				}
			}
		}
	}
	
	Y91_national_army_academy = {
		icon = mission_conquer_nagaur
		position = 15
#		required_missions = { Y91_draft_military_reforms }
		
		trigger = {
			mission_completed = Y91_draft_military_reforms
			treasury = 1500
			owns_core_province = 4868
			4868 = { 
				has_building = university
				has_building = training_fields
				base_manpower = 20
			}
		}
		
		provinces_to_highlight = {
			OR = {
				province_id = 4868
			}
		}

		effect = {
			add_treasury = -1500
			4868 = {
				add_permanent_province_modifier = {
					name = Y91_national_army_academy_modifier
					duration = -1 
				}
				change_culture = daxug
				change_religion = ROOT
				change_province_name = "Jianshu"
			}
		}
	}
	
	Y91_tsaicun_national_stockpile = {
		icon = mission_deccanis
		position = 16
		
		trigger = {
			mission_completed = Y91_draft_military_reforms
			treasury = 1000
			owns_core_province = 4846
			4846 = {
				OR = { has_building = trade_depot has_building = stock_exchange }
				has_courthouse_building_trigger = yes
				development = 45
			}
			4906 = { base_production = 5 }
			4850 = { base_production = 5 }
			4849 = { base_production = 5 }
			4853 = { base_production = 5 }
			4847 = { base_production = 5 }
		}
		
		provinces_to_highlight = {
			OR = {
				AND = {
					province_id = 4906
					NOT = { base_production = 5 }
				}
				AND = {
					province_id = 4850
					NOT = { base_production = 5 }
				}
				AND = {
					province_id = 4849
					NOT = { base_production = 5 }
				}
				AND = {
					province_id = 4853
					NOT = { base_production = 5 }
				}
				AND = {
					province_id = 4847
					NOT = { base_production = 5 }
				}
				AND = {
					province_id = 4846
					NOT = {
						AND = {
							base_production = 20
							has_courthouse_building_trigger = yes
							OR = { has_building = trade_depot has_building = stock_exchange }
						}
					}
				}
			}
		}

		effect = {
			4846 = {
				change_culture = daxug
				change_religion = ROOT
				add_permanent_province_modifier = {
					name = Y91_tsaicun_national_stockpile_modifier
					duration = -1 
				}
			}
		}
	}
}

nuugdan_tsarai_42 = {
	slot = 3
	generic = no
	ai = yes
	potential = {
		OR = {
			tag = Y98
		}
		has_country_flag = daxugo_rebellions_finished
	}
	
	Y91_inward_perfection = {
		icon = mission_treasure_room
		position = 11
		
		trigger = {
			has_country_flag = daxugo_rebellions_finished
			is_at_war = no
			has_regency = no
			adm_power = 100
			dip_power = 100
			mil_power = 100
		}

		effect = {
			add_adm_power = -100
			add_dip_power = -100
			add_mil_power = -100
			add_country_modifier = {
				name = Y91_inward_perfection
				duration = 7300 
			}
		}
	}
	
	Y91_great_daxugo_legal_code = {
		icon = mission_scholar_officials
		position = 12
		required_missions = { Y91_inward_perfection }
		
		trigger = {
			adm_power = 100
			government_reform_progress = 10
			has_regency = no
		}

		effect = {
			add_adm_power = -100
			change_government_reform_progress = -10
			country_event = { id = flavor_nuugdan_tsarai.48 }
		}
	}
	
	Y91_articles_on_government = {
		icon = mission_rule_the_garjats
		position = 13
		required_missions = { Y91_great_daxugo_legal_code }
		
		trigger = {
			custom_trigger_tooltip = {
				tooltip = Y91_race_theory_tooltip
				OR = {
					has_country_flag = Y91_progressive_race_theory
					has_country_flag = Y91_traditional_human_centered_laws
					has_country_flag = Y91_neutral_race_theory
				}
			}
			OR = {
				has_reform = meritocratic_focus_reform
				has_reform = of_noble_bearing_reform
				has_reform = clergy_in_administration_reform
			}
			adm_power = 100
			government_reform_progress = 20
			has_regency = no
		}

		effect = {
			add_adm_power = -100
			change_government_reform_progress = -20
			remove_country_modifier = Y91_horde_heritage_1
			remove_country_modifier = Y91_horde_heritage_2
			country_event = { id = flavor_nuugdan_tsarai.50 }
		}
	}
	
	Y91_war_and_faith = {
		icon = mission_scholar_officials
		position = 14
		required_missions = { Y91_articles_on_government }
		
		trigger = {
			OR = {
				has_country_modifier = Y91_diguo_entrenchment
				has_country_modifier = Y91_baduum_clan_system
			}
			mission_completed = Y91_haisosen_birdrider_academy
			mission_completed = Y91_national_army_academy
			mil_power = 100
			government_reform_progress = 10
			has_regency = no
		}

		effect = {
			add_mil_power = -100
			change_government_reform_progress = -10
			country_event = { id = flavor_nuugdan_tsarai.52 }
		}
	}
	
	Y91_faith_code = {
		icon = mission_scholar_officials
		position = 15
		required_missions = { Y91_war_and_faith }
		
		trigger = {
			OR = {
				has_country_modifier = Y91_diguomao_war_conduct
				has_country_modifier = Y91_academy_war_conduct
			}
			adm_power = 100
			government_reform_progress = 10
			has_regency = no
			employed_advisor = {
				type = theologian
			}
		}

		effect = {
			add_adm_power = -100
			change_government_reform_progress = -10
			country_event = { id = flavor_nuugdan_tsarai.53 }
		}
	}
	
#	Y91_introduce_code = {
#		icon = mission_consulate_of_the_sea
#		position = 15
#		required_missions = { Y91_war_and_faith }
#		
#		trigger = {
#			has_regency = no
#			OR = {
#				has_country_modifier = Y91_tolerant_religious_code
#				has_country_modifier = Y91_semi_tolerant_religious_code
#				has_country_modifier = Y91_intolerant_religious_code
#			}
#			dip_power = 100
#		}
#		effect = {
#			add_dip_power = -100
#			hidden_effect = {
#				if = {
#					limit = { has_country_flag = Y91_traditional_human_centered_laws }
#					country_event = { id = flavor_nuugdan_tsarai.54 days = 30 }
#				}
#				if = {
#					limit = { has_country_flag = Y91_progressive_race_theory }
#					country_event = { id = flavor_nuugdan_tsarai.55 days = 30 }
#				}
#				if = {
#					limit = { has_reform = parliamentary_reform }
#					country_event = { id = flavor_nuugdan_tsarai.56 days = 40 }
#				}
#				if = {
#					limit = { has_country_modifier = Y91_semi_tolerant_religious_code }
#					country_event = { id = flavor_nuugdan_tsarai.57 days = 60 }
#				}
#				if = {
#					limit = { has_country_modifier = Y91_intolerant_religious_code }
#					country_event = { id = flavor_nuugdan_tsarai.58 days = 60 }
#				}
#				if = {
#					limit = { has_country_modifier = Y91_diguomao_war_conduct }
#					country_event = { id = flavor_nuugdan_tsarai.59 days = 90 }
#				}
#				else = {
#					country_event = { id = flavor_nuugdan_tsarai.60 days = 90 }
#				}
#			}
#		}
#	}
	
	Y91_daxugo_unshaken = {
		icon = prosperity_for_all
		position = 16
		required_missions = { Y91_faith_code }
		
		trigger = {
			has_regency = no
			OR = {
				has_country_modifier = Y91_tolerant_religious_code
				has_country_modifier = Y91_semi_tolerant_religious_code
				has_country_modifier = Y91_intolerant_religious_code
			}
			has_country_flag = Y91_discontents_have_risen
			NOT = { num_of_revolts = 1 }
			NOT = { num_of_rebel_armies = 1 }
		}

		effect = {
			add_stability = 1
		}
	}
	
	Y91_outward_gaze = {
		icon = mission_rb_trinity_college_dublin
		position = 17
		required_missions = { Y91_daxugo_unshaken Y91_steppe_line Y91_tsaicun_national_stockpile Y91_silk_road Y91_propaganda_reform }
		
		trigger = {
			mission_completed = Y91_national_army_academy
			mission_completed = Y91_haisosen_birdrider_academy
			mission_completed = Y91_increase_tea_production
			mission_completed = Y91_reform_gold_standard
			mission_completed = Y91_expand_sugarfarms
			mission_completed = Y91_anti_corruption_reforms
			mission_completed = Y91_expand_the_bureaucracy
			mission_completed = Y91_war_tax_reform
			if = {
				limit = {
					government = monarchy
				}
				OR = {
					has_reform = letat_cest_moi_reform
					has_reform = regional_representation_reform
				}
			}
			if = {
				limit = {
					has_dlc = "Emperor"
				}
				is_hegemon = yes
			}
			else = {
				OR = {
					custom_trigger_tooltip = {
						tooltip = Y98_economic_hegemon_conditions_tt
						AND = {
							is_great_power = yes
							monthly_income = 1000
							NOT = {
								any_country = {
									NOT = { tag = ROOT }
									is_great_power = yes
									monthly_income = ROOT
								}
							}
						}
					}
					custom_trigger_tooltip = {
						tooltip = Y98_naval_hegemon_conditions_tt
						AND = {
							is_great_power = yes
							num_of_heavy_ship = 250
							NOT = {
								any_country = {
									NOT = { tag = ROOT }
									is_great_power = yes
									num_of_heavy_ship = ROOT
								}
							}
						}
					}
					custom_trigger_tooltip = {
						tooltip = Y98_military_hegemon_conditions_tt
						AND = {
							is_great_power = yes
							army_size = 1000
							NOT = {
								any_country = {
									NOT = { tag = ROOT }
									is_great_power = yes
									army_size = ROOT
								}
							}
						}
					}
				}
			}
		}
	
		effect = {
			add_country_modifier = {
				name = Y98_siocain_sil_daxugo
				duration = -1
			}
			if = {
				limit = {
					government = monarchy
				}
				add_government_reform = halessi_hegemon_reform
			}
		}
	}
}

nuugdan_tsarai_44 = {
	slot = 1
	generic = no
	ai = yes
	potential = {
		OR = {
			tag = Y98
		}
		has_country_flag = daxugo_rebellions_finished
	}
	
	Y91_plugging_the_holes = {
		icon = fortify_the_passes
		position = 13
		required_missions = { Y91_draft_military_reforms }
		
		trigger = {
			4834 = {
				OR = {
					fort_level = 2
					any_neighbor_province = { 
						owned_by = ROOT 
						fort_level = 2
					}
				}
			}
			4836 = {
				OR = {
					fort_level = 2
					any_neighbor_province = { 
						owned_by = ROOT 
						fort_level = 2
					}
				}
			}
			5381 = {
				OR = {
					fort_level = 2
					any_neighbor_province = { 
						owned_by = ROOT 
						fort_level = 2
					}
				}
			}
		}
		
		provinces_to_highlight = {
			OR = {
				province_id = 4834
				province_id = 4836
				province_id = 5381
			}
		}

		effect = {
			add_army_tradition = 5
			add_country_modifier = {
				name = Y91_fort_expertise1
				duration = -1
			}
		}
	}
	
	Y91_the_yanshen_wall = {
		icon = mission_great_wall
		position = 14
		required_missions = { Y91_plugging_the_holes }
		
		trigger = {
			calc_true_if = {
				OR = {
					any_province = {
						area = aoshan_area
						fort_level = 2
						country_or_subject_holds = ROOT
					}
				}
				OR = {
					any_province = {
						area = wangqiu_area
						fort_level = 2
						country_or_subject_holds = ROOT
					}
				}
				OR = {
					any_province = {
						area = tietyuan_area
						fort_level = 2
						country_or_subject_holds = ROOT
					}
				}
				OR = {
					any_province = {
						area = bianfang_area
						fort_level = 2
						country_or_subject_holds = ROOT
					}
				}
				OR = {
					any_province = {
						area = moryokang_area
						fort_level = 2
						country_or_subject_holds = ROOT
					}
				}
				OR = {
					any_province = {
						area = mogutian_area
						fort_level = 2
						country_or_subject_holds = ROOT
					}
				}
				
				OR = {
					any_province = {
						area = unbeksu_area
						fort_level = 2
						country_or_subject_holds = ROOT
					}
				}
				OR = {
					any_province = {
						area = yambioka_area
						fort_level = 2
						country_or_subject_holds = ROOT
					}
				}
				OR = {
					any_province = {
						area = sugroltona_area
						fort_level = 2
						country_or_subject_holds = ROOT
					}
				}
					amount = 6
			}
		}
		
		provinces_to_highlight = {
			OR = {
				area = aoshan_area
				area = wangqiu_area
				area = tietyuan_area
				area = bianfang_area
				area = moryokang_area
				area = mogutian_area
				area = unbeksu_area
				area = yambioka_area
				area = sugroltona_area
			}
		}

		effect = {
			add_army_tradition = 5
			hidden_effect = {
				remove_country_modifier = Y91_fort_expertise1
			}
			add_country_modifier = {
				name = Y91_fort_expertise2
				duration = -1
			}
		}
	}

	Y91_city_line = {
		icon = control_coromandel
		position = 15
		required_missions = { Y91_the_yanshen_wall }
		
		trigger = {
			4871 = { fort_level = 2 }
			4868 = { fort_level = 2 }
			OR = {
				4930 = { fort_level = 2 }
				4860 = { fort_level = 2 }
				4873 = { fort_level = 2 }
			}
			4859 = { fort_level = 2 }
			4846 = { fort_level = 2 }
			4842 = { fort_level = 2 }
			4826 = { fort_level = 2 }
		}
		
		provinces_to_highlight = {
			OR = {
				province_id = 4871
				province_id = 4868
				province_id = 4930
				province_id = 4860
				province_id = 4873
				province_id = 4859
				province_id = 4846
				province_id = 4842
				province_id = 4826
			}
		}

		effect = {
			add_army_tradition = 5
			hidden_effect = {
				remove_country_modifier = Y91_fort_expertise2
			}
			add_country_modifier = {
				name = Y91_fort_expertise3
				duration = -1
			}
		}
	}
	
	Y91_steppe_line = {
		icon = mission_junnagadh_fort
		position = 16
		required_missions = { Y91_city_line }
		
		trigger = {
			4923 = { fort_level = 2 }
			5406 = { fort_level = 2 }
		}
		
		provinces_to_highlight = {
			OR = {
				province_id = 4923
				province_id = 5406
			}
		}

		effect = {
			add_army_tradition = 5
		}
	}
}

nuugdan_tsarai_48 = {
	slot = 4
	generic = no
	ai = yes
	potential = {
		OR = {
			tag = Y98
		}
		has_country_flag = daxugo_rebellions_finished
	}
	
	Y91_draft_economic_reforms = {
		icon = mission_high_income
		position = 12
		required_missions = { Y91_inward_perfection }
		
		
		trigger = {
			adm_power = 100
			treasurer  = 3
		}

		effect = {
			add_adm_power = -100
		}
	}
	
	Y91_increase_tea_production = {
		icon = mission_advance_to_the_dnieper
		position = 13
		required_missions = { Y91_draft_economic_reforms }
		
		trigger = {
			calc_true_if = {
				all_owned_province = {
					trade_goods = tea 
					base_production = 5
					has_production_building_trigger = yes
					has_building = plantations
						
				}
				amount = 10
			}
			trading_bonus = {
				trade_goods = tea
				value = yes
			}
		}
		
		provinces_to_highlight = {
			owned_by = ROOT
			trade_goods = tea
			OR = {
				NOT = { base_production = 5 }
				NOT = {
					has_production_building_trigger = yes
				}
				NOT = { has_building = plantations }
			}
		}

		effect = {
			add_mercantilism = 5
		}
	}
	
	Y91_reform_gold_standard = {
		icon = mission_african_gold
		position = 14
		
		trigger = {
			mission_completed = Y91_draft_economic_reforms
			master_of_mint = 3
			4828 = {
				owned_by = ROOT
				is_core = ROOT
				base_production = 10
			}
			5380 = {
				owned_by = ROOT
				is_core = ROOT
				base_production = 10
			}
			5358 = {
				owned_by = ROOT
				is_core = ROOT
				base_production = 10
			}
			4820 = {
				owned_by = ROOT
				is_core = ROOT
				base_production = 10
			}
			adm_power = 200
		}
		
		provinces_to_highlight = {
			OR = {
				province_id = 4828
				province_id = 5380
				province_id = 5358
				province_id = 4820
			}
			OR = {
				NOT = { is_core = ROOT }
				NOT = { owned_by = ROOT }
				NOT = { base_production = 10 }
			}
		}

		effect = {
			add_adm_power = -200
			add_inflation = -2
			add_country_modifier = {
				name = Y91_anti_inflation_reform
				duration = -1
			}
		}
	}
	
	Y91_expand_sugarfarms = {
		icon = mission_wine_monopolies
		position = 15
		
		trigger = {
			mission_completed = Y91_draft_economic_reforms
			4892 = {
				base_production = 20
				OR = {
					trade_goods = gold
					AND = {
						custom_trigger_tooltip = {
							tooltip = Y91_has_manufactory_tt
							has_manufactory_no_custom_tooltip_trigger = yes
						}
						has_production_building_trigger = yes
					}
				}
			}
			treasury = 100
		}
		
		provinces_to_highlight = {
			OR = {
				province_id = 4892
			}
		}

		effect = {
			add_treasury = -100
			4892 = {
				add_permanent_province_modifier = {
					name = Y91_sugar_industry
					duration = -1 
				}
				change_province_name = "Nanoozg"
				change_culture = ROOT
				change_religion = ROOT
			}
			5426 = { change_trade_goods = sugar add_base_production = 5 }
		}
	}
	
	Y91_silk_road = {
		icon = mission_conquer_malwa_bah
		position = 16
		
		trigger = {
			mission_completed = Y91_draft_economic_reforms
			calc_true_if = {
				all_owned_province = {
					trade_goods = silk 
					base_production = 10
					has_production_building_trigger = yes
					has_building = textile
				}
				amount = 8
			}
			trading_bonus = {
				trade_goods = silk
				value = yes
			}
			custom_trigger_tooltip = {
				tooltip = Y91_road_all_xianjie
				golden_highway_xianjie = {
					type = all
					has_province_modifier = golden_highway
				}
			}
		}
		
		provinces_to_highlight = {
			owned_by = ROOT
			trade_goods = silk
			OR = {
				NOT = { base_production = 10 }
				NOT = {
					has_production_building_trigger = yes
				}
				NOT = { has_building = textile }
			}
		}

		effect = {
			4845 = { change_trade_goods = silk add_base_production = 2 }
			4849 = { change_trade_goods = silk add_base_production = 2 }
			4850 = { change_trade_goods = silk add_base_production = 2 }
			4847 = { change_trade_goods = silk add_base_production = 2 }
			custom_tooltip = Y98_improved_silk_tt
			set_country_flag = Y98_improved_silk_flag
			hidden_effect = {
				every_owned_province = {
					limit = {
						trade_goods = silk
					}
					add_province_modifier = {
						name = Y98_improved_silk_mod
						duration = -1
						hidden = yes
					}
				}
			}
		}
	}
}

nuugdan_tsarai_43 = {
	slot = 5
	generic = no
	ai = yes
	potential = {
		OR = {
			tag = Y98
		}
		has_country_flag = daxugo_rebellions_finished
	}
	
	Y91_anti_corruption_reforms = {
		icon = mission_asian_trader
		position = 13
		required_missions = { Y91_draft_economic_reforms }
		
		trigger = {
			spymaster = 3
			years_of_income = 2.0
			adm_power = 100
		}

		effect = {
			add_adm_power = -100
			add_years_of_income = -2
			add_corruption = -2
			add_country_modifier = {
				name = Y91_anti_corruption_reform_modifier
				duration = -1
			}
		}
	}
	
	Y91_expand_the_bureaucracy = {
		icon = mission_scholar_officials
		position = 14
		
		trigger = {
			mission_completed = Y91_draft_economic_reforms
			statesman = 3
			years_of_income = 2.0
			5348 = { has_courthouse_building_trigger = yes }
			4868 = { has_courthouse_building_trigger = yes }
			4859 = { has_courthouse_building_trigger = yes }
			4846 = { has_courthouse_building_trigger = yes }
			4842 = { has_courthouse_building_trigger = yes }
			4826 = { has_courthouse_building_trigger = yes }
			5430 = { has_courthouse_building_trigger = yes }
			4879 = { has_courthouse_building_trigger = yes }
			4925 = { has_courthouse_building_trigger = yes }
			5406 = { has_courthouse_building_trigger = yes }
		}
		
		provinces_to_highlight = {
			OR = {
				province_id = 5348
				province_id = 4868
				province_id = 4859
				province_id = 4846
				province_id = 4842
				province_id = 4826
				province_id = 5430
				province_id = 4879
				province_id = 4925
				province_id = 5406
			}
			NOT = {
				has_courthouse_building_trigger = yes
			}
		}

		effect = {
			add_years_of_income = -2
			add_country_modifier = {
				name = Y91_expanded_bureaucracy_modifier
				duration = -1
			}
			custom_tooltip = Y98_daxug_administrators_tt
			set_country_flag = Y98_daxug_administrators_flag
			hidden_effect = {
				every_owned_province = {
					limit = {
						culture = daxug
					}
					add_province_modifier = {
						name = Y98_daxug_administrators
						duration = -1
					}
				}
			}
		}
	}
	
	Y91_war_tax_reform = {
		icon = mission_war_chest
		position = 15
		
		trigger = {
			mission_completed = Y91_draft_economic_reforms
			grand_captain = 3
			mil_power = 100
			adm_power = 100
			treasury = 1000
		}

		effect = {
			add_mil_power = -100
			add_adm_power = -100
			add_treasury = -1000
			add_country_modifier = {
				name = Y91_war_tax_reform_modifier
				duration = -1
			}
		}
	}
	
	Y91_propaganda_reform = {
		icon = mission_restore_faith_in_the_throne
		position = 16
		
		trigger = {
			mission_completed = Y91_draft_economic_reforms
			has_institution = printing_press
			mil_power = 100
			treasury = 1000
		}

		effect = {
			add_mil_power = -100
			add_treasury = -1000
			custom_tooltip = Y98_propaganda_festival_tt
			add_country_modifier = {
				name = Y91_propaganda_reform_modifier
				duration = -1
			}
		}
	}
}
