estate_castonath_patricians = {
	icon = 14
	color = { 163 163 163 }
	
	# If true, country will get estate
	trigger = {
		has_country_flag = castonath_patricians_reinstated
		OR = {
			NOT = { has_disaster = castanor_succession_war }
			tag = B61
		}
		NOT = { overlord = { has_reform = raja_reform } }
	}

	# These scale with loyalty & power
	country_modifier_happy = {
		nobles_loyalty_modifier = 0.1
		advisor_cost = -0.2
		trade_efficiency = 0.2
		legitimacy = 0.5
	}
	country_modifier_neutral = {
		trade_efficiency = 0.2
	}	
	country_modifier_angry = {
		nobles_loyalty_modifier = -0.1
		advisor_cost = 0.2
		trade_efficiency = -0.2
		legitimacy = -0.5
	}

	land_ownership_modifier = {
		castonath_patricians_loyalty_modifier = 0.2
		caravan_power = 1
		trade_steering = 1
	}

	province_independence_weight = {
		factor = 1
		# The Castonaths
		modifier = {
			factor = 100
			province_id = 831
		}
		modifier = {
			factor = 100
			province_id = 832
		}
		modifier = {
			factor = 100
			province_id = 833
		}
	}

	# Influence modifiers
	base_influence = 10
	influence_modifier = {
		desc = EST_DEV_ABOVE_40_IN_CASTONATH_AREA
		trigger = {
			development_in_provinces = {
				value = 40
				area = castonath_area
			}
			NOT = {
				development_in_provinces = {
					value = 50
					area = castonath_area
					owned_by = ROOT
				}
			}
		}	
		influence = 5
	}
	influence_modifier = {
		desc = EST_DEV_ABOVE_50_IN_CASTONATH_AREA
		trigger = {
			development_in_provinces = {
				value = 50
				area = castonath_area
			}
			NOT = {
				development_in_provinces = {
					value = 60
					area = castonath_area
					owned_by = ROOT
				}
			}
		}	
		influence = 10
	}
	influence_modifier = {
		desc = EST_DEV_ABOVE_60_IN_CASTONATH_AREA
		trigger = {
			development_in_provinces = {
				value = 60
				area = castonath_area
			}
			NOT = {
				development_in_provinces = {
					value = 75
					area = castonath_area
					owned_by = ROOT
				}
			}
		}	
		influence = 15
	}
	influence_modifier = {
		desc = EST_DEV_ABOVE_75_IN_CASTONATH_AREA
		trigger = {
			development_in_provinces = {
				value = 75
				area = castonath_area
			}
			NOT = {
				development_in_provinces = {
					value = 100
					area = castonath_area
					owned_by = ROOT
				}
			}
		}	
		influence = 20
	}
	influence_modifier = {
		desc = EST_DEV_ABOVE_100_IN_CASTONATH_AREA
		trigger = {
			development_in_provinces = {
				value = 100
				area = castonath_area
			}
			NOT = {
				development_in_provinces = {
					value = 125
					area = castonath_area
					owned_by = ROOT
				}
			}
		}	
		influence = 25
	}
	influence_modifier = {
		desc = EST_DEV_ABOVE_125_IN_CASTONATH_AREA
		trigger = {
			development_in_provinces = {
				value = 125
				area = castonath_area
				owned_by = ROOT
			}
			NOT = {
				development_in_provinces = {
					value = 150
					area = castonath_area
				}
			}
		}	
		influence = 30
	}
	influence_modifier = {
		desc = EST_DEV_ABOVE_150_IN_CASTONATH_AREA
		trigger = {
			development_in_provinces = {
				value = 150
				area = castonath_area
				owned_by = ROOT
			}
		}	
		influence = 35
	}
	influence_modifier = {
		desc = EST_STRONGEST_TRADE_POWER_IN_CASTONATH
		trigger = {
			840 = { # North Citadel - Castonath trade node
				trade_share = {
					country = ROOT
					share = 50
				}
			}
		}
		influence = 5
	}
	loyalty_modifier = {
		desc = EST_DEVVED_CASTONATH_RECENTLY
		trigger = {
			OR = {
				831 = {
					owned_by = ROOT
					has_province_modifier = devved_castonath_recently_dummy
				}
				832 = {
					owned_by = ROOT
					has_province_modifier = devved_castonath_recently_dummy
				}
				833 = {
					owned_by = ROOT
					has_province_modifier = devved_castonath_recently_dummy
				}
			}
		}	
		loyalty = 10
	}
	loyalty_modifier = {
		desc = EST_CASTANORIAN_CULTURE
		trigger = {
			primary_culture = castanorian
		}	
		loyalty = 5
	}
	loyalty_modifier = {
		desc = EST_CASTONATH_IS_CAPITAL
		trigger = {
			OR = {
				capital = 840 # North Citadel
				capital = 831
				capital = 832
				capital = 833
			}
		}	
		loyalty = 5
	}
	loyalty_modifier = {
		desc = EST_LOWER_CASTONATH_IMPROVED
		trigger = {
			832 = { num_of_times_improved_by_owner = 20 }
		}
		loyalty = 5
	}
	loyalty_modifier = {
		desc = EST_SOUTH_CASTONATH_IMPROVED
		trigger = {
			831 = { num_of_times_improved_by_owner = 20 }
		}
		loyalty = 5
	}
	loyalty_modifier = {
		desc = EST_NORTH_CASTONATH_IMPROVED
		trigger = {
			833 = { num_of_times_improved_by_owner = 20 }
		}
		loyalty = 5
	}
	influence_modifier = {
		desc = EST_VAL_LOW_TRADE_INCOME
		trigger = {
			NOT = { trade_income_percentage = 0.25 }
		}	
		influence = -5
	}
	influence_modifier = {
		desc = EST_VAL_HIGH_TRADE_INCOME
		trigger = {
			trade_income_percentage = 0.5
			NOT = { trade_income_percentage = 0.75 }
		}	
		influence = 5
	}
	influence_modifier = {
		desc = EST_VAL_VERY_HIGH_TRADE_INCOME
		trigger = {
			trade_income_percentage = 0.75
		}	
		influence = 10
	}
	influence_modifier = {
		desc = EST_VAL_OTHER_ESTATE_IN_POWER
		trigger = {
			OR = {
				has_disaster = estate_nobility_disaster
				has_disaster = estate_church_disaster
				has_disaster = estate_mages_disaster
				has_disaster = estate_artificers_disaster
				has_disaster = estate_adventurers_disaster
				#has_disaster = estate_brahmins_disaster
				#has_disaster = estate_jains_disaster
			}
		}	
		influence = -40
	}
	
	loyalty_modifier = {
		desc = EST_VAL_OTHER_ESTATE_IN_POWER_LOY
		trigger = {
			OR = {
				has_disaster = estate_nobility_disaster
				has_disaster = estate_church_disaster
				has_disaster = estate_mages_disaster
				has_disaster = estate_artificers_disaster
				has_disaster = estate_adventurers_disaster
				#has_disaster = estate_brahmins_disaster
				#has_disaster = estate_jains_disaster
			}
		}
		loyalty = -20
	}
	
	privileges = {
		estate_castonath_patricians_advisory_council
		estate_castonath_patricians_trade_rights
		estate_castonath_patricians_free_building_permits
		estate_castonath_patricians_glorify_castanorian_culture
		estate_castonath_patricians_support_patrician_owned_businesses
		estate_castonath_patricians_slaken_authority_for_tithes
		estate_castonath_patricians_center_of_an_empire
		estate_castonath_patricians_deal_with_overpopulation
		estate_castonath_patricians_castonath_monopoly
		estate_castonath_patricians_split_them_up
		estate_castonath_patricians_city_of_commerce
		estate_castonath_patricians_private_caravans_and_river_fleets
	}

	agendas = {
		estate_castonath_patricians_hire_advisor
		estate_castonath_patricians_fire_advisor
		estate_castonath_patricians_build_trade_building_in_castonath
		estate_castonath_patricians_build_production_building_in_castonath
		estate_castonath_patricians_build_manufactory_in_castonath
		estate_castonath_patricians_build_university_in_castonath
		estate_castonath_patricians_pay_off_loans
		estate_castonath_patricians_restore_republican_tradition
		estate_castonath_patricians_restore_currency
		estate_castonath_patricians_recovery_from_hyperinflation
		estate_castonath_patricians_increase_trade_power_in_castonath
		estate_castonath_patricians_improve_dip_rep
		estate_castonath_patricians_get_cash
		estate_castonath_patricians_develop_castonath
		estate_castonath_patricians_reduce_corruption
		estate_castonath_patricians_three_privileges
		estate_castonath_patricians_protect_against_piracy
		estate_castonath_patricians_increase_autonomy_in_castonath
		estate_castonath_patricians_build_temple_in_castonath
		estate_castonath_patricians_familial_connections
		estate_castonath_patricians_war_with_fey
		estate_castonath_patricians_war_with_gnolls
		estate_castonath_patricians_capital_castonath
		estate_castonath_patricians_build_fort_building_in_castonath
		estate_castonath_patricians_invest_in_patrician_industries_silk
		estate_castonath_patricians_invest_in_patrician_industries_paper
		estate_castonath_patricians_invest_in_patrician_industries_glass
		estate_castonath_patricians_invest_in_patrician_industries_cloth
	}

	influence_from_dev_modifier = 0.5
}
