country_decisions = {

#Expand the Garlas-Kel School
F22_Expand_College = {
		major = yes
		potential = {
			tag = F22
			has_country_flag = ulmis_idiqlat_pillaged
			has_country_modifier = Dartax_Palace_of_Magi
			NOT = { has_country_flag = garlas_college}
		}

		allow = {
			estate_loyalty = {
				estate = estate_mages
				loyalty = 60
			}
			adm_power = 200
			treasury = 400
			has_estate_privilege = estate_mages_battlemage_academies
		}

		effect = {
			add_country_modifier = {
				name = Dartax_Ideas
				duration = 18250
			}
			658 = {
				add_province_modifier = {
					name = Dartax_Palace_of_Magi_2
					duration = -1
				}
			}

			remove_country_modifier = Dartax_Palace_of_Magi

			set_country_flag = garlas_college

			658 = {
				change_culture = masnsih
				add_accepted_culture = masnsih
			}

		}

	}


#Reform the Legions
F22_Reform_Legions = {
		major = yes
		potential = {
			tag = F22
			has_country_flag = ash_legion_lessons
			has_country_flag = curbed_sebhuliam
			NOT = { has_country_flag = dartaxian_legions}
		}

		allow = {
			owns_core_province = 625
			NOT = { exists = F25 }
			mil_power = 400
			treasury = 10000
			num_of_rebel_armies	= 0
		}

		effect = {

			country_event = {
				id = dartaxagerdim_events.30
			}
			add_mil_power = -400
			add_treasury = -30000
			set_country_flag = dartaxian_legions
			remove_country_modifier = Dartax_Sebhuliam_Revolt
			clr_country_flag = dartax_mage_sebhuliam

		}

}



build_the_ziggurat_of_surakel = {
	major = yes
	potential = {
		OR = {
			has_country_flag = dartaxagerdim_ziggurat_of_surakel_flag
		}
		NOT = { any_owned_province = { has_building = ziggurat_of_surakel } has_country_flag = ziggurat_of_surakel_built }
	}
	
	allow = {
		capital_scope = { NOT = { has_construction = building } }
		capital_scope = { religion = ROOT }
		treasury = 1000
	}

	effect = {
		capital_scope = {
			add_building_construction = {
				building = ziggurat_of_surakel
				speed = 1
				cost = 1
			}
		}
	}
	ai_will_do = {
		factor = 100
		modifier = { factor = 0 NOT = {treasury = 500} } 
	}
}




}