
country_decisions = {
	make_truedagger_a_battleclan = {
		major = yes
		potential = {
			tag = H75
			has_country_flag = railskulker_clan_army
			NOT = { has_country_flag = railskulker_battlelcan_truedagger }
		}

		allow = {
			OR = {
				overlord_of = H85
				H85 = {
					all_core_province = {
						owned_by = ROOT
					}
				}
			}
			dip_power = 50
		}
		effect = {
			hidden_effect = {
				set_country_flag = railskulker_battlelcan_truedagger
			}
			add_dip_power = -50
			every_owned_province = {
				limit = {
					is_core = H85
				}
				cede_province = H85
			}
			create_march = H85
			H85 = {
				add_liberty_desire = -50
				add_country_modifier = {
					name = cave_goblin_truedagger
					duration = -1
				}
				add_country_modifier = {
					name = railskulker_battleclan
					duration = -1
				}
				if = {
					limit = {
						any_owned_province = {
							OR = {
								has_terrain = dwarven_hold
								has_terrain = dwarven_hold_surface
							}
							is_core = PREV
						}
					}
					random_owned_province = {
						limit = {
							OR = {
								has_terrain = dwarven_hold
								has_terrain = dwarven_hold_surface
							}
							is_core = PREV
						}
						owner = { 
							set_capital = PREV
						}
					}
				}
				country_event = {
					id = railskulker.1
				}
			}
		}
		ai_will_do = {
			factor = 0
		}
	}
	make_mountainshark_a_battleclan = {
		major = yes
		potential = {
			tag = H75
			has_country_flag = railskulker_clan_army
			NOT = { has_country_flag = railskulker_battlelcan_mountainshark }
		}

		allow = {
			OR = {
				overlord_of = H84
				H84 = {
					all_core_province = {
						owned_by = ROOT
					}
				}
			}
			dip_power = 50
		}
		effect = {
			hidden_effect = {
				set_country_flag = railskulker_battlelcan_mountainshark
			}
			add_dip_power = -50
			every_owned_province = {
				limit = { is_core = H84 }
				cede_province = H84
			}
			create_march = H84
			H84 = {
				add_liberty_desire = -50
				add_country_modifier = {
					name = cave_goblin_mountainshark
					duration = -1
				}
				add_country_modifier = {
					name = railskulker_battleclan
					duration = -1
				}
				if = {
					limit = {
						any_owned_province = {
							OR = {
								has_terrain = dwarven_hold
								has_terrain = dwarven_hold_surface
							}
							is_core = PREV
						}
					}
					random_owned_province = {
						limit = {
							OR = {
								has_terrain = dwarven_hold
								has_terrain = dwarven_hold_surface
							}
							is_core = PREV
						}
						owner = { 
							set_capital = PREV
						}
					}
				}
				country_event = {
					id = railskulker.1
				}
			}
		}
		ai_will_do = {
			factor = 0
		}
	}
	make_spiderwretch_a_battleclan = {
		major = yes
		potential = {
			tag = H75
			has_country_flag = railskulker_clan_army
			NOT = { has_country_flag = railskulker_battlelcan_spiderwretch }
		}

		allow = {
			OR = {
				overlord_of = H90
				H90 = {
					all_core_province = {
						owned_by = ROOT
					}
				}
			}
			dip_power = 50
		}
		effect = {
			hidden_effect = {
				set_country_flag = railskulker_battlelcan_spiderwretch
			}
			add_dip_power = -50
			every_owned_province = {
				limit = {
					is_core = H90
				}
				cede_province = H90
			}
			create_march = H90
			H90 = {
				add_liberty_desire = -50
				add_country_modifier = {
					name = cave_goblin_spiderwretch
					duration = -1
				}
				add_country_modifier = {
					name = railskulker_battleclan
					duration = -1
				}
				if = {
					limit = {
						any_owned_province = {
							OR = {
								has_terrain = dwarven_hold
								has_terrain = dwarven_hold_surface
							}
							is_core = PREV
						}
					}
					random_owned_province = {
						limit = {
							OR = {
								has_terrain = dwarven_hold
								has_terrain = dwarven_hold_surface
							}
							is_core = PREV
						}
						owner = { 
							set_capital = PREV
						}
					}
				}
				country_event = {
					id = railskulker.1
				}
			}
		}
		ai_will_do = {
			factor = 0
		}
	}
	make_snotfinger_a_battleclan = {
		major = yes
		potential = {
			tag = H75
			has_country_flag = railskulker_clan_army
			NOT = { has_country_flag = railskulker_battlelcan_snotfinger }
		}

		allow = {
			OR = {
				overlord_of = H89
				H89 = {
					all_core_province = {
						owned_by = ROOT
					}
				}
			}
			dip_power = 50
		}
		effect = {
			hidden_effect = {
				set_country_flag = railskulker_battlelcan_snotfinger
			}
			add_dip_power = -50
			every_owned_province = {
				limit = {
					is_core = H89
				}
				cede_province = H89
			}
			create_march = H89
			H89 = {
				add_liberty_desire = -50
				add_country_modifier = {
					name = cave_goblin_snotfinger
					duration = -1
				}
				add_country_modifier = {
					name = railskulker_battleclan
					duration = -1
				}
				if = {
					limit = {
						any_owned_province = {
							OR = {
								has_terrain = dwarven_hold
								has_terrain = dwarven_hold_surface
							}
							is_core = PREV
						}
					}
					random_owned_province = {
						limit = {
							OR = {
								has_terrain = dwarven_hold
								has_terrain = dwarven_hold_surface
							}
							is_core = PREV
						}
						owner = { 
							set_capital = PREV
						}
					}
				}
				country_event = {
					id = railskulker.1
				}
			}
		}
		ai_will_do = {
			factor = 0
		}
	}
	make_thieving_arrow_a_battleclan = {
		major = yes
		potential = {
			tag = H75
			has_country_flag = railskulker_clan_army
			NOT = { has_country_flag = railskulker_battlelcan_thieving_arrow }
		}

		allow = {
			OR = {
				overlord_of = H87
				H87 = {
					all_core_province = {
						owned_by = ROOT
					}
				}
			}
			dip_power = 50
		}
		effect = {
			hidden_effect = {
				set_country_flag = railskulker_battlelcan_thieving_arrow
			}
			add_dip_power = -50
			every_owned_province = {
				limit = {
					is_core = H87
				}
				cede_province = H87
			}
			create_march = H87
			H87 = {
				add_liberty_desire = -50
				add_country_modifier = {
					name = cave_goblin_thieving_arrow
					duration = -1
				}
				add_country_modifier = {
					name = railskulker_battleclan
					duration = -1
				}
				if = {
					limit = {
						any_owned_province = {
							OR = {
								has_terrain = dwarven_hold
								has_terrain = dwarven_hold_surface
							}
							is_core = PREV
						}
					}
					random_owned_province = {
						limit = {
							OR = {
								has_terrain = dwarven_hold
								has_terrain = dwarven_hold_surface
							}
							is_core = PREV
						}
						owner = { 
							set_capital = PREV
						}
					}
				}
				country_event = {
					id = railskulker.1
				}
			}
		}
		ai_will_do = {
			factor = 0
		}
	}
	make_greedy_grin_a_battleclan = {
		major = yes
		potential = {
			tag = H75
			has_country_flag = railskulker_clan_army
			NOT = { has_country_flag = railskulker_battlelcan_greedy_grin }
		}

		allow = {
			OR = {
				overlord_of = H82
				H82 = {
					all_core_province = {
						owned_by = ROOT
					}
				}
			}
			dip_power = 50
		}
		effect = {
			hidden_effect = {
				set_country_flag = railskulker_battlelcan_greedy_grin
			}
			add_dip_power = -50
			every_owned_province = {
				limit = {
					is_core = H82
				}
				cede_province = H82
			}
			create_march = H82
			H82 = {
				add_liberty_desire = -50
				add_country_modifier = {
					name = cave_goblin_greedy_grin
					duration = -1
				}
				add_country_modifier = {
					name = railskulker_battleclan
					duration = -1
				}
				if = {
					limit = {
						any_owned_province = {
							OR = {
								has_terrain = dwarven_hold
								has_terrain = dwarven_hold_surface
							}
							is_core = PREV
						}
					}
					random_owned_province = {
						limit = {
							OR = {
								has_terrain = dwarven_hold
								has_terrain = dwarven_hold_surface
							}
							is_core = PREV
						}
						owner = { 
							set_capital = PREV
						}
					}
				}
				country_event = {
					id = railskulker.1
				}
			}
		}
		ai_will_do = {
			factor = 0
		}
	}
}