country_decisions = {

	ravenmarch_attack_folly = {
		major = yes
		potential = {
			mission_completed = ravenmarch_homeward_bound
			NOT = { has_country_flag = folly_attacked }
			any_neighbor_country = {
				OR = {
					any_owned_province = {
						region = daravans_folly_region
					}
					owns = 447
					NOT = {
						is_subject_of = ROOT
					}
				}
			}
		}
		allow = {
			is_at_war = no
			any_neighbor_country = {
				OR = {
					any_owned_province = {
						region = daravans_folly_region
					}
					owns = 447
				}
			}
			manpower_percentage = 0.75
			NOT = { war_exhaustion = 0.1 }
			NOT = { 
				any_neighbor_country = { 
					any_owned_province = {
						region = daravans_folly_region
					}
					truce_with = PREV 
				} 
			}
		}
		effect = {
			hidden_effect = {
				emperor = { country_event = { id = flavor_ravenmarch.16 days = 1 } } 
			}
			custom_tooltip = corvuria_emperor_is_distracted
			if = {
				limit = {
					any_neighbor_country = {
						owns = 447
					}
				}
				random_neighbor_country = {
					limit = { owns = 447 }
					declare_war_with_cb = {
						who = THIS
						casus_belli = cb_conquest
						war_goal_province = 447
					}
					save_event_target_as = ravenmarch_war_target
				}
			}
			else_if = {
				limit = {
					any_neighbor_country = {
						owns = 804
					}
				}
				random_neighbor_country = {
					declare_war_with_cb = {
						who = THIS
						casus_belli = cb_conquest
						war_goal_province = 804
					}
					save_event_target_as = ravenmarch_war_target
				}
			}
			else_if = {
				limit = {
					any_neighbor_country = {
						owns = 442
					}
				}
				random_neighbor_country = {
					declare_war_with_cb = {
						who = THIS
						casus_belli = cb_conquest
						war_goal_province = 442
					}
					save_event_target_as = ravenmarch_war_target
				}
			}
			else_if = {
				limit = {
					any_neighbor_country = {
						owns = 443
					}
				}
				random_neighbor_country = {
					declare_war_with_cb = {
						who = THIS
						casus_belli = cb_conquest
						war_goal_province = 443
					}
					save_event_target_as = ravenmarch_war_target
				}
			}
			else_if = {
				limit = {
					any_neighbor_country = {
						owns = 444
					}
				}
				random_neighbor_country = {
					declare_war_with_cb = {
						who = THIS
						casus_belli = cb_conquest
						war_goal_province = 444
					}
					save_event_target_as = ravenmarch_war_target
				}
			}
			else_if = {
				limit = {
					any_neighbor_country = {
						owns = 446
					}
				}
				random_neighbor_country = {
					declare_war_with_cb = {
						who = THIS
						casus_belli = cb_conquest
						war_goal_province = 446
					}
					save_event_target_as = ravenmarch_war_target
				}
			}
			else_if = {
				limit = {
					any_neighbor_country = {
						owns = 445
					}
				}
				random_neighbor_country = {
					declare_war_with_cb = {
						who = THIS
						casus_belli = cb_conquest
						war_goal_province = 445
					}
					save_event_target_as = ravenmarch_war_target
				}
			}
			else_if = {
				limit = {
					any_neighbor_country = {
						owns = 448
					}
				}
				random_neighbor_country = {
					declare_war_with_cb = {
						who = THIS
						casus_belli = cb_conquest
						war_goal_province = 448
					}
					save_event_target_as = ravenmarch_war_target
				}
			}
			else_if = {
				limit = {
					any_neighbor_country = {
						owns = 450
					}
				}
				random_neighbor_country = {
					declare_war_with_cb = {
						who = THIS
						casus_belli = cb_conquest
						war_goal_province = 450
					}
					save_event_target_as = ravenmarch_war_target
				}
			}
			else = {
				random_neighbor_country = {	
					limit = { any_owned_province = { region = daravans_folly_region } }
					declare_war = THIS
					save_event_target_as = ravenmarch_war_target
				}
				add_dip_power = 50
			}
			set_country_flag = folly_attacked
		}
		ai_will_do = {
			factor = 1
			modifier = { #To stop the AI from suiciding
				factor = 0
				A59 = { num_of_allies = 4 }
			}
		}
		ai_importance = 400
	}
	
	ravenmarch_change_triumvirate_court = {
		major = yes
		potential = {
			has_reform = ravenmarch_triumvirate_court
		}
		allow = {
			NOT = { has_country_modifier = ravenmarch_triumvirate_court_ryalan_dominance }
			NOT = { has_country_modifier = ravenmarch_triumvirate_court_corin_dominance }
			NOT = { has_country_modifier = ravenmarch_triumvirate_court_nerat_dominance }
		}
		
		effect = {
			country_event = { id = flavor_ravenmarch.15 }
		}
	}
}