

namespace = flavor_lorent

#The Ruby Crown
country_event = {
	id = flavor_lorent.1
	title = flavor_lorent.1.t
	desc = flavor_lorent.1.d
	picture = GOOD_WITH_MONARCH_eventPicture
	
	fire_only_once = yes
	
	is_triggered_only = yes
	
	option = {
		name = flavor_lorent.1.a
		
		add_country_modifier = { 
			name = lorent_ruby_crown_awakened
			duration = -1  
		}
	}


}

#Ravelian Convert Resistance
country_event = {
	id = flavor_lorent.2
	title = flavor_lorent.2.t
	desc = flavor_lorent.2.d
	picture = RELIGIOUS_TURMOIL_eventPicture

	
	trigger = {
		religion = regent_court
		is_religion_enabled = ravelian
		NOT = { religion = ravelian }
		NOT = { religious_unity = 0.75 }

		NOT = { has_country_flag = had_ravelian_resistance }

		NOT = { 	#aka ravelianism is new
			had_global_flag = { 
				flag = ravelianism_can_be_founded
				days = 7300
			}
		}

		culture_group = lencori
	}

	mean_time_to_happen = {
		months = 24
	}
	
	option = {
		name = flavor_lorent.2.a
		
		add_country_modifier = { 
			name = ravelian_resistance
			duration = 7300
		}

		set_country_flag = had_ravelian_resistance
	}

	option = {
		name = flavor_lorent.2.b
		
		add_stability_or_adm_power = yes
	}

}

#Shofa Protectorate
country_event = {
	id = flavor_lorent.3
	title = flavor_lorent.3.t
	desc = flavor_lorent.3.d
	picture = SHIP_SAILING_eventPicture
	goto = 1934

	trigger = {
		tag = A01 #Lorent
		OR = { 
			knows_country = G08 #Shofa
			trollsbay_region = {	#otherwise they delay it by 30 years when migrating inland
				tribal_owner = { tag = G08 }
				has_discovered = A01
			}
		}
		G08 = { 
			exists = yes
			ai = yes
			is_at_war = no
			OR = {
				is_subject = no
				is_subject_of = G06 #Cheshoshoanta
			}
		}
	}

	major = yes
	major_trigger = {
		OR = {
			capital_scope = { region = trollsbay_region }
			capital_scope = { region = reapers_coast_region }
		}
	}

	mean_time_to_happen = {
		months = 30
		modifier = {
			factor = 0.2
			G08 = { capital_scope = { range = A01 } }
		}
		modifier = {
			factor = 0.5
			G08 = { is_subject = no }
		}
	}

	fire_only_once = yes


	option = {
		name = flavor_lorent.3.a
		ai_chance = {
			factor = 90
		}
		vassalize = G08
		greywood_area = {
			limit = {
				NOT = { is_core = G08 }
				NOT = { owned_by = G08 }
			}
			add_permanent_claim = G08
		}
		okhiboli_area = {
			limit = {
				NOT = { is_core = G08 }
				NOT = { owned_by = G08 }
			}
			add_permanent_claim = G08
		}
		spoorland_area = {
			limit = {
				NOT = { is_core = G08 }
				NOT = { owned_by = G08 }
			}
			add_permanent_claim = G08
		}
		every_country = {
			limit = {
				OR = {
					capital_scope = { region = trollsbay_region }
					capital_scope = { region = reapers_coast_region }
				}
				NOT = { tag = G08 }
			}
			add_opinion = { who = A01 modifier = opinion_irritated }
		}
	}
	option = {
		name = flavor_lorent.3.b
		ai_chance = { 
			factor = 10 
			modifier = {
				factor = 0
				num_of_free_diplomatic_relations = 1
			}
		}
		G08 = { add_opinion = { who = ROOT modifier = opinion_displeased } }
	}
}

#The Wine Lords refuse to kneel!
# country_event = {
	# id = flavor_lorent.1
	# title = flavor_lorent.1.t
	# desc = flavor_lorent.1.d
	# picture = WAR_OF_THE_ROSES_eventPicture
	
	# fire_only_once = yes
	
	# trigger = {
		# tag = A01 #Lorent
	# }
	
	# mean_time_to_happen = {
		# months = 1
	# }
	
	# option = {		# The Wine Lords will kneel, or else!
		# name = "flavor_lorent.1.a"
		# ai_chance = { factor = 75 }	#Honestly if Lorent doesn't choose this they're dead
		# every_province = {
			# limit = {
				# OR = {
					# owned_by = A14	#Madelaire
					# owned_by = A15	#Eilisin
					# owned_by = A18	#Rubenaire
				# }
			# }
			# add_claim = A01
		# }
		# every_known_country = {
			# limit = {
				# OR = {
					# tag = A14	#Madelaire
					# tag = A15	#Eilisin
					# tag = A18	#Rubenaire
				# }
			# }
			# add_opinion = {
				# who = ROOT
				# modifier = lorent_claimed_wine_lords
			# }
		# }
		# set_country_flag = claimed_wine_lords	#Not used in anything yet, but can be!
	# }
	# option = {		# They offer a substantial purse for their autonomy.
		# name = "flavor_lorent.1.b"
		# ai_chance = { factor = 25 }
		# add_years_of_income = 1
		# every_known_country = {
			# limit = {
				# OR = {
					# tag = A14	#Madelaire
					# tag = A15	#Eilisin
					# tag = A18	#Rubenaire
				# }
			# }
			# add_opinion = {
				# who = ROOT
				# modifier = lorent_did_not_claim_wine_lords
			# }
		# }
	# }
# }

# country_event = {
	# id = flavor_lorent.2
	# title = flavor_lorent.2.t
	# desc = flavor_lorent.2.d
	# picture = WAR_OF_THE_ROSES_eventPicture
	
	# fire_only_once = yes
	
	# is_triggered_only = yes
	
	# option = {		
		# name = "flavor_lorent.2.a"
		# ai_chance = { factor = 75 }	
		
		
	# }
# }

