#Yanzhong Events

namespace = yanzhong

country_event = { #The Starlit Path
	id = yanzhong.1
	title = yanzhong.1.t
	desc = yanzhong.1.d
	picture = BUDDHISM_GOOD_eventPicture
	
	is_triggered_only = yes

	trigger =	{
		always = yes
	}
	
	option = { #ok cool
		name = yanzhong.1.a
		

	}
}

country_event = { #Yingzhen Offer
	id = yanzhong.2
	title = yanzhong.2.t
	desc = yanzhong.2.d
	picture = GENERALS_DISCUSSING_eventPicture
	
	is_triggered_only = yes

	trigger =	{
		always = yes
	}
	
	option = { #ok cool
		name = yanzhong.2.a
		
		ai_chance = {
			factor = 100
		}
		
		add_treasury = 250
		
		Y08 = {
			country_event = {
				id = yanzhong.3
				days = 10
			}
		}
		
		Y04 = {
			country_event = {
				id = yanzhong.4
				days = 650
			}
		}
		
		

	}
	
	option = { #player opt out
		name = yanzhong.2.b
		
		ai_chance = {
			factor = 0
		}
		
		Y06 = { country_event = { id = yanzhong.6 } }
		
	}
}

country_event = { #They Accept
	id = yanzhong.3
	title = yanzhong.3.t
	desc = yanzhong.3.d
	picture = GENERALS_DISCUSSING_eventPicture
	
	is_triggered_only = yes

	trigger =	{
		always = yes
	}
	
	option = { #ok cool
		name = yanzhong.3.a
		

	}
}

country_event = { #Anjiang Assassination
	id = yanzhong.4
	title = yanzhong.4.t
	desc = yanzhong.4.d
	picture = ASSASSINATION_eventPicture
	
	is_triggered_only = yes

	trigger =	{
		always = yes
	}
	
	option = { #rip me
		name = yanzhong.4.a
		
		ai_chance = {
			factor = 100
		}
		
		kill_ruler = yes
		
		IF = {
			limit = {
				4853 = { owned_by = Y04 }
			}
			4853 =  { cede_province = Y10 }
		}
		IF = {
			limit = {
				4851 = { owned_by = Y04 }
			}
			4851 =  { cede_province = Y10 }
		}
		IF = {
			limit = {
				4933 = { owned_by = Y04 }
			}
			4933 =  { cede_province = Y08 }
		}
		IF = {
			limit = {
				4854 = { owned_by = Y04 }
			}
			4854 =  { cede_province = Y08 }
		}
		
		Y10 = { country_event = { id = yanzhong.5 } }
		Y08 = { country_event = { id = yanzhong.5 } }
		
	}
	
	option = { #player opt out
		name = yanzhong.4.b
		
		ai_chance = {
			factor = 0
		}
		
		reduce_stability_or_adm_power = yes
	
		Y08 = { country_event = { id = yanzhong.6 } }
	
	}
}

country_event = { #Anjiang is dead
	id = yanzhong.5
	title = yanzhong.5.t
	desc = yanzhong.5.d
	picture = ASSASSINATION_eventPicture
	
	is_triggered_only = yes

	trigger =	{
		always = yes
	}
	
	option = { #ok cool
		name = yanzhong.5.a
		

	}
}

country_event = { #Player opted out
	id = yanzhong.6
	title = yanzhong.6.t
	desc = yanzhong.6.d
	picture = CIVIL_WAR_eventPicture
	
	is_triggered_only = yes

	trigger =	{
		always = yes
	}
	
	option = { #ok cool
		name = yanzhong.6.a
		
		add_treasury = 250
		

	}
}

## Econ Integration Events ## 

country_event = { #Yanzhong Integration Notice
	id = yanzhong.7
	title = yanzhong.7.t
	desc = yanzhong.7.d
	picture = BURGHER_ESTATE_UPSET_eventPicture
	
	is_triggered_only = yes

	trigger =	{
		always = yes
	}
	
	option = { #ok cool
		name = yanzhong.7.a
		
		
		

	}
}

country_event = { #Yanzhong Integration
	id = yanzhong.8
	title = yanzhong.8.t
	desc = yanzhong.8.d
	picture = ECONOMICALLY_TALLANTED_RULER_eventPicture
	
	trigger =	{
		NOT = { has_country_flag = yanzhong_int_event } 
		OR = {
		
			AND = {
				exists = Y06
				check_variable = {
					which = yanzhong_yangcheng 
					value = 10
				}
			}
			AND = {
				exists = Y07
				check_variable = {
					which = yanzhong_guhe 
					value = 10
				}
			}
			AND = {
				exists = Y10
				check_variable = {
					which = yanzhong_yingzhen 
					value = 10
				}
			}
		}
	}
	
	mean_time_to_happen = {
		months = 1
	}
	
	immediate = {
		hidden_effect = {
			set_country_flag = yanzhong_int_event
		}
	}

	
	
	option = { #ok cool
		name = yanzhong.8.a
		
		if = {
			limit = {
				check_variable = {
					which = yanzhong_yangcheng 
					value = 10
				}
				exists = Y06
			}
			inherit = Y06
			clr_country_flag = yanzhong_yangcheng_econ
			#set_variable = { yanzhong_yangcheng = 0 }
			if = {
				limit = { 4861 = { owned_by = ROOT } }
				4861 = { 
					add_province_modifier = {
						name = yanzhong_strengthened_trade_center
						duration = -1
					}
				}
			}
		}
		if = {
			limit = {
				check_variable = {
					which = yanzhong_guhe 
					value = 10
				}
				exists = Y07
			}
			inherit = Y07
			clr_country_flag = yanzhong_guhe_econ
			#set_variable = { yanzhong_guhe = 0 }
			if = {
				limit = { 4950 = { owned_by = ROOT } }
				4950 = { 
					add_province_modifier = {
						name = yanzhong_strengthened_trade_center
						duration = -1
					}
				}
			}
		}
		if = {
			limit = {
				check_variable = {
					which = yanzhong_yingzhen 
					value = 10
				}
				exists = Y10
			}
			inherit = Y10
			clr_country_flag = yanzhong_yingzhen_econ
			#set_variable = { yanzhong_yingzhen = 0 }
			if = {
				limit = { 4849 = { owned_by = ROOT } }
				4849 = { 
					add_province_modifier = {
						name = yanzhong_strengthened_trade_center
						duration = -1
					}
				}
			}
		}
		clr_country_flag = yanzhong_int_event

	}
}

#Yangcheng

country_event = { #Yangcheng - Admin Dev
	id = yanzhong.9
	title = yanzhong.9.t
	desc = yanzhong.9.d
	picture = ECONOMY_eventPicture
	
	trigger =	{
		tag = Y08
		NOT = { has_country_modifier = yanzhong_yangcheng_recent }
		has_country_flag = yanzhong_yangcheng_econ
		Y06 = { exists = yes }
		NOT = {
			check_variable = {
				which = yanzhong_yangcheng 
				value = 12
			}
		}
	}
	mean_time_to_happen = {
		months = 3
	}
	
	immediate = {
		hidden_effect = {
			add_country_modifier = {
				name = yanzhong_yangcheng_recent
				duration = 200
			}
		}
	}
	
	option = { #Do it
		name = yanzhong.9.a
		
		add_treasury = -50
		
		Y06 = {
			random_owned_province = {
				add_base_tax = 1
			}
		}
		Y06 = { country_event = { id = yanzhong.7 } }
		
		change_variable = {
			which = yanzhong_yangcheng
			value = 1
		}
		

	}
	
	option = { #Dont do it
		name = yanzhong.9.b
	
	}
	
}

country_event = { #Yangcheng - Dip Dev
	id = yanzhong.10
	title = yanzhong.10.t
	desc = yanzhong.10.d
	picture = ECONOMY_eventPicture
	
	trigger =	{
		tag = Y08
		NOT = { has_country_modifier = yanzhong_yangcheng_recent }
		has_country_flag = yanzhong_yangcheng_econ
		Y06 = { exists = yes }
		NOT = {
			check_variable = {
				which = yanzhong_yangcheng 
				value = 12
			}
		}
	}
	mean_time_to_happen = {
		months = 3
	}
	
	immediate = {
		hidden_effect = {
			add_country_modifier = {
				name = yanzhong_yangcheng_recent
				duration = 200
			}
		}
	}
	
	option = { #Do it
		name = yanzhong.10.a
		
		add_treasury = -50
		
		Y06 = {
			random_owned_province = {
				add_base_production = 1
			}
		}
		Y06 = { country_event = { id = yanzhong.7 } }
		
		change_variable = {
			which = yanzhong_yangcheng
			value = 1
		}
		

	}
	
	option = { #Dont do it
		name = yanzhong.10.b
	
	}
	
}

country_event = { #Yangcheng - Mil Dev
	id = yanzhong.11
	title = yanzhong.11.t
	desc = yanzhong.11.d
	picture = ECONOMY_eventPicture
	
	trigger =	{
		tag = Y08
		NOT = { has_country_modifier = yanzhong_yangcheng_recent }
		has_country_flag = yanzhong_yangcheng_econ
		Y06 = { exists = yes }
		NOT = {
			check_variable = {
				which = yanzhong_yangcheng 
				value = 12
			}
		}
	}
	mean_time_to_happen = {
		months = 3
	}
	
	immediate = {
		hidden_effect = {
			add_country_modifier = {
				name = yanzhong_yangcheng_recent
				duration = 200
			}
		}
	}
	
	option = { #Do it
		name = yanzhong.11.a
		
		add_treasury = -50
		
		Y06 = {
			random_owned_province = {
				add_base_manpower = 1
			}
		}
		Y06 = { country_event = { id = yanzhong.7 } }
		
		change_variable = {
			which = yanzhong_yangcheng
			value = 1
		}
		

	}
	
	option = { #Dont do it
		name = yanzhong.11.b
	

	}
	
}

country_event = { #Yangcheng - Marketplace
	id = yanzhong.12
	title = yanzhong.12.t
	desc = yanzhong.12.d
	picture = ECONOMY_eventPicture
	
	trigger =	{
		tag = Y08
		NOT = { has_country_modifier = yanzhong_yangcheng_recent }
		has_country_flag = yanzhong_yangcheng_econ
		Y06 = { 
			any_owned_province = { NOT = { has_trade_building_trigger = yes } }
			exists = yes 
		}
		NOT = {
			check_variable = {
				which = yanzhong_yangcheng 
				value = 12
			}
		}
	}
	mean_time_to_happen = {
		months = 3
	}
	
	immediate = {
		hidden_effect = {
			add_country_modifier = {
				name = yanzhong_yangcheng_recent
				duration = 200
			}
		}
	}
	
	option = { #Do it
		name = yanzhong.12.a
		
		add_treasury = -75
		
		Y06 = {
			random_owned_province = {
				limit = { NOT = { has_trade_building_trigger = yes } }
				add_building_construction = {
					building = marketplace
					speed = 1
					cost = 0
				}
			}
		}
		Y06 = { country_event = { id = yanzhong.7 } }
		
		change_variable = {
			which = yanzhong_yangcheng
			value = 1
		}
		

	}
	
	option = { #Dont do it
		name = yanzhong.12.b
	

	}
	
}

#Guhe

country_event = { #Guhe - Admin Dev
	id = yanzhong.13
	title = yanzhong.13.t
	desc = yanzhong.13.d
	picture = ECONOMY_eventPicture
	
	trigger =	{
		tag = Y08
		NOT = { has_country_modifier = yanzhong_guhe_recent }
		has_country_flag = yanzhong_guhe_econ
		Y07 = { exists = yes }
		NOT = {
			check_variable = {
				which = yanzhong_guhe 
				value = 12
			}
		}
	}
	mean_time_to_happen = {
		months = 3
	}
	
	immediate = {
		hidden_effect = {
			add_country_modifier = {
				name = yanzhong_guhe_recent
				duration = 200
			}
		}
	}
	
	option = { #Do it
		name = yanzhong.13.a
		
		add_treasury = -50
		
		Y07 = {
			random_owned_province = {
				add_base_tax = 1
			}
		}
		Y07 = { country_event = { id = yanzhong.7 } }
		
		change_variable = {
			which = yanzhong_guhe
			value = 1
		}
		

	}
	
	option = { #Dont do it
		name = yanzhong.13.b
	

	}
	
}

country_event = { #Guhe - Dip Dev
	id = yanzhong.14
	title = yanzhong.14.t
	desc = yanzhong.14.d
	picture = ECONOMY_eventPicture
	
	trigger =	{
		tag = Y08
		NOT = { has_country_modifier = yanzhong_guhe_recent }
		has_country_flag = yanzhong_guhe_econ
		Y07 = { exists = yes }
		NOT = {
			check_variable = {
				which = yanzhong_guhe 
				value = 12
			}
		}
	}
	mean_time_to_happen = {
		months = 3
	}
	
	immediate = {
		hidden_effect = {
			add_country_modifier = {
				name = yanzhong_guhe_recent
				duration = 200
			}
		}
	}
	
	option = { #Do it
		name = yanzhong.14.a
		
		add_treasury = -50
		
		Y07 = {
			random_owned_province = {
				add_base_production = 1
			}
		}
		Y07 = { country_event = { id = yanzhong.7 } }
		
		change_variable = {
			which = yanzhong_guhe
			value = 1
		}
		

	}
	
	option = { #Dont do it
		name = yanzhong.14.b
	

	}
	
}

country_event = { #Guhe - Mil Dev
	id = yanzhong.15
	title = yanzhong.15.t
	desc = yanzhong.15.d
	picture = ECONOMY_eventPicture
	
	trigger =	{
		tag = Y08
		NOT = { has_country_modifier = yanzhong_guhe_recent }
		has_country_flag = yanzhong_guhe_econ
		Y07 = { exists = yes }
		NOT = {
			check_variable = {
				which = yanzhong_guhe 
				value = 12
			}
		}
	}
	mean_time_to_happen = {
		months = 3
	}
	
	immediate = {
		hidden_effect = {
			add_country_modifier = {
				name = yanzhong_guhe_recent
				duration = 200
			}
		}
	}
	
	option = { #Do it
		name = yanzhong.15.a
		
		add_treasury = -50
		
		Y07 = {
			random_owned_province = {
				add_base_manpower = 1
			}
		}
		Y07 = { country_event = { id = yanzhong.7 } }
		
		change_variable = {
			which = yanzhong_guhe
			value = 1
		}
		

	}
	
	option = { #Dont do it
		name = yanzhong.15.b
	

	}
	
}

country_event = { #Guhe - Marketplace
	id = yanzhong.16
	title = yanzhong.16.t
	desc = yanzhong.16.d
	picture = ECONOMY_eventPicture
	
	trigger =	{
		tag = Y08
		NOT = { has_country_modifier = yanzhong_guhe_recent }
		has_country_flag = yanzhong_guhe_econ
		Y07 = { 
			any_owned_province = { NOT = { has_trade_building_trigger = yes } }
			exists = yes 
		}
		NOT = {
			check_variable = {
				which = yanzhong_guhe 
				value = 12
			}
		}
	}
	mean_time_to_happen = {
		months = 3
	}
	
	immediate = {
		hidden_effect = {
			add_country_modifier = {
				name = yanzhong_guhe_recent
				duration = 200
			}
		}
	}
	
	option = { #Do it
		name = yanzhong.16.a
		
		add_treasury = -75
		
		Y07 = {
			random_owned_province = {
				limit = { NOT = { has_trade_building_trigger = yes } }
				add_building_construction = {
					building = marketplace
					speed = 1
					cost = 0
				}
			}
		}
		Y07 = { country_event = { id = yanzhong.7 } }
		
		change_variable = {
			which = yanzhong_guhe
			value = 1
		}
		

	}
	
	option = { #Dont do it
		name = yanzhong.16.b
	

	}
}

#Yingzhen

country_event = { #Yingzhen - Admin Dev
	id = yanzhong.17
	title = yanzhong.17.t
	desc = yanzhong.17.d
	picture = ECONOMY_eventPicture
	
	trigger =	{
		tag = Y08
		NOT = { has_country_modifier = yanzhong_yingzhen_recent }
		has_country_flag = yanzhong_yingzhen_econ
		Y10 = { exists = yes }
		NOT = {
			check_variable = {
				which = yanzhong_yingzhen 
				value = 12
			}
		}
	}
	mean_time_to_happen = {
		months = 3
	}
	
	immediate = {
		hidden_effect = {
			add_country_modifier = {
				name = yanzhong_yingzhen_recent
				duration = 200
			}
		}
	}
	
	option = { #Do it
		name = yanzhong.17.a
		
		add_treasury = -50
		
		Y10 = {
			random_owned_province = {
				add_base_tax = 1
			}
		}
		Y10 = { country_event = { id = yanzhong.7 } }
		
		change_variable = {
			which = yanzhong_yingzhen
			value = 1
		}
		

	}
	
	option = { #Dont do it
		name = yanzhong.17.b
	

	}
	
}

country_event = { #Yingzhen - Dip Dev
	id = yanzhong.18
	title = yanzhong.18.t
	desc = yanzhong.18.d
	picture = ECONOMY_eventPicture
	
	trigger =	{
		tag = Y08
		NOT = { has_country_modifier = yanzhong_yingzhen_recent }
		has_country_flag = yanzhong_yingzhen_econ
		Y10 = { exists = yes }
		NOT = {
			check_variable = {
				which = yanzhong_yingzhen 
				value = 12
			}
		}
	}
	mean_time_to_happen = {
		months = 3
	}
	
	immediate = {
		hidden_effect = {
			add_country_modifier = {
				name = yanzhong_yingzhen_recent
				duration = 200
			}
		}
	}
	
	option = { #Do it
		name = yanzhong.18.a
		
		add_treasury = -50
		
		Y10 = {
			random_owned_province = {
				add_base_production = 1
			}
		}
		Y10 = { country_event = { id = yanzhong.7 } }
		
		change_variable = {
			which = yanzhong_yingzhen
			value = 1
		}
		

	}
	
	option = { #Dont do it
		name = yanzhong.18.b
	

	}
	
}

country_event = { #Yingzhen - Mil Dev
	id = yanzhong.19
	title = yanzhong.19.t
	desc = yanzhong.19.d
	picture = ECONOMY_eventPicture
	
	trigger =	{
		tag = Y08
		NOT = { has_country_modifier = yanzhong_yingzhen_recent }
		has_country_flag = yanzhong_yingzhen_econ
		Y10 = { exists = yes }
		NOT = {
			check_variable = {
				which = yanzhong_yingzhen 
				value = 12
			}
		}
	}
	mean_time_to_happen = {
		months = 3
	}
	
	immediate = {
		hidden_effect = {
			add_country_modifier = {
				name = yanzhong_yingzhen_recent
				duration = 200
			}
		}
	}
	
	option = { #Do it
		name = yanzhong.19.a
		
		add_treasury = -50
		
		Y10 = {
			random_owned_province = {
				add_base_manpower = 1
			}
		}
		Y10 = { country_event = { id = yanzhong.7 } }
		
		change_variable = {
			which = yanzhong_yingzhen
			value = 1
		}
		

	}
	
	option = { #Dont do it
		name = yanzhong.19.b
	

	}
	
}

country_event = { #Yingzhen - Marketplace
	id = yanzhong.20
	title = yanzhong.20.t
	desc = yanzhong.20.d
	picture = ECONOMY_eventPicture
	
	trigger =	{
		tag = Y08
		NOT = { has_country_modifier = yanzhong_yingzhen_recent }
		has_country_flag = yanzhong_yingzhen_econ
		Y10 = { 
			any_owned_province = { NOT = { has_trade_building_trigger = yes } }
			exists = yes 
		}
		NOT = {
			check_variable = {
				which = yanzhong_yingzhen 
				value = 12
			}
		}
	}
	mean_time_to_happen = {
		months = 3
	}
	
	immediate = {
		hidden_effect = {
			add_country_modifier = {
				name = yanzhong_yingzhen_recent
				duration = 200
			}
		}
	}
	
	option = { #Do it
		name = yanzhong.20.a
		
		add_treasury = -75
		
		Y10 = {
			random_owned_province = {
				limit = { NOT = { has_trade_building_trigger = yes } }
				add_building_construction = {
					building = marketplace
					speed = 1
					cost = 0
				}
			}
		}
		Y10 = { country_event = { id = yanzhong.7 } }
		
		change_variable = {
			which = yanzhong_yingzhen
			value = 1
		}
		

	}
	
	option = { #Dont do it
		name = yanzhong.20.b
	

	}
}

## Pulse Events

country_event = { #Flag Reset
	id = yanzhong.21
	title = yanzhong.21.t
	desc = yanzhong.21.d
	picture = ECONOMY_eventPicture
	
	is_triggered_only = yes
	
	trigger =	{
		always = yes
	}

	hidden = yes
	
	immediate = {
		hidden_effect = {
			clr_country_flag = yanzhong_pulse_cd
		}
	}
	

	
	option = { #Do it
		name = yanzhong.21.a
		
	

	}
	

}

country_event = { #Money Pulse
	id = yanzhong.22
	title = yanzhong.22.t
	desc = yanzhong.22.d
	picture = CIVIL_WAR_eventPicture
	
	trigger =	{
		has_country_flag = yanzhong_pulse
		NOT = { has_country_flag = yanzhong_pulse_cd }
	}
	mean_time_to_happen = {
		months = 20
	}
	
	immediate = {
		hidden_effect = {
			set_country_flag = yanzhong_pulse_cd
			country_event = {
				id = yanzhong.21
				days = 7280
			}
		}
	}
	
	option = { #Do it
		name = yanzhong.22.a
		
		add_years_of_income = 0.4

	}

}

country_event = { #Rebuild The Highway
	id = yanzhong.23
	title = yanzhong.23.t
	desc = yanzhong.23.d
	picture = UEBANISATION_INCIDENT_eventPicture
	
	trigger =	{
		has_country_flag = yanzhong_pulse
		NOT = { has_country_flag = yanzhong_pulse_cd }
		
		any_owned_province = {
			OR = {
				province_group = golden_highway_bulwar_proper
				province_group = golden_highway_far_bulwar
				province_group = golden_highway_far_salahad
				province_group = golden_highway_rahen_coast
				province_group = golden_highway_dhujat
				province_group = golden_highway_xianjie
				province_group = golden_highway_upper_yanshen
				province_group = golden_highway_yanshen_coast
			}
			NOT = {
				has_province_modifier = golden_highway
				has_province_modifier = golden_highway_stage_1
				has_province_modifier = golden_highway_stage_2
			}
		}	
	}
	mean_time_to_happen = {
		months = 20
	}
	
	immediate = {
		hidden_effect = {
			set_country_flag = yanzhong_pulse_cd
			country_event = {
				id = yanzhong.21
				days = 7280
			}
		}
	}
	
	option = { #Do it
		name = yanzhong.23.a
		
		random_owned_province = {
			limit = {
				OR = {
					province_group = golden_highway_bulwar_proper
					province_group = golden_highway_far_bulwar
					province_group = golden_highway_far_salahad
					province_group = golden_highway_rahen_coast
					province_group = golden_highway_dhujat
					province_group = golden_highway_xianjie
					province_group = golden_highway_upper_yanshen
					province_group = golden_highway_yanshen_coast
				}
				NOT = {
					has_province_modifier = golden_highway
					has_province_modifier = golden_highway_stage_1
					has_province_modifier = golden_highway_stage_2
				}
			}
			add_permanent_province_modifier = {
					name = golden_highway
					duration = -1
			}
		}	
	}

}

country_event = { #YTrade Boom!
	id = yanzhong.24
	title = yanzhong.24.t
	desc = yanzhong.24.d
	picture = PORTUGUESE_MERCHANTS_eventPicture
	
	trigger =	{
		has_country_flag = yanzhong_pulse
		NOT = { has_country_flag = yanzhong_pulse_cd }
	}
	mean_time_to_happen = {
		months = 20
	}
	
	immediate = {
		hidden_effect = {
			set_country_flag = yanzhong_pulse_cd
			country_event = {
				id = yanzhong.21
				days = 7280
			}
		}
	}
	
	option = { #Do it
		name = yanzhong.24.a
		
		add_country_modifier = {
			name = yanzhong_pulse_bonus
			duration = 3640
		}

	}

}