
namespace = ynn_events

# Ynn Urbanization
country_event = {
	id = ynn_events.0
	title = ynn_events.0.t
	desc = ynn_events.0.d
	picture = CITY_VIEW_eventPicture
	
	fire_only_once = yes
	major = yes
	
	trigger = {
		is_year = 1620
        OR = {
            AND = {
                has_dlc = "Mandate of Heaven"
                1139 = { is_prosperous = yes }
                1171 = { is_prosperous = yes }
                1191 = { is_prosperous = yes }
            }
            NOT = {
                has_dlc = "Mandate of Heaven"
				1139 = { devastation = 1 }
                1171 = { devastation = 1 }
                1191 = { devastation = 1 }
            }
        }
		OR = {
			AND = {
				has_dlc = "Rights of Man"
				is_great_power = yes
			}
			AND = {
				NOT = { has_dlc = "Rights of Man" }
				total_development = 300
			}
		}
		capital_scope = { superregion = ynn_superregion }
		has_institution = global_trade
	}

	mean_time_to_happen = {
		months = 1
	}
	
	# Hooray
	option = {
        name = ynn_events.0.a
		add_prestige = 10
		add_stability_or_adm_power = yes
		1139 = {
			remove_province_modifier = ynn_urban_decline
			add_center_of_trade_level = 1
			owner = {
				add_opinion = {
					who = ROOT
					modifier = opinion_grateful
				}
			}
		}
		1171 = {
			remove_province_modifier = ynn_urban_decline
			add_center_of_trade_level = 1
			owner = {
				add_opinion = {
					who = ROOT
					modifier = opinion_grateful
				}
			}
		}
		1191 = {
			remove_province_modifier = ynn_urban_decline
			add_center_of_trade_level = 1
			owner = {
				add_opinion = {
					who = ROOT
					modifier = opinion_grateful
				}
			}
		}
	}
}

#Ynnic Empire restoration, Sarda version
country_event = {
	id = ynn_events.1
	title = ynn_events.1.t
	desc = ynn_events.1.d
	picture = GOOD_WITH_MONARCH_eventPicture
	
	is_triggered_only = yes
	major = yes
	
	option = {
		name = ynn_events.1.a
		if = {
			limit = { has_custom_ideas = no }
			country_event = { id = ideagroups.1 } #Swap Ideas
		}
		country_event = { id = ynn_events.5 days = 30 }
	}
}

#Ynnic Empire restoration, Dolindhan version
country_event = {
	id = ynn_events.2
	title = ynn_events.2.t
	desc = {
		trigger = { NOT = { was_tag = G32 } }
	   desc = ynn_events.2.d1
	}
	desc = {
	   trigger = { was_tag = G32 }
	   desc = ynn_events.2.d2
	}
	
	picture = {
		trigger = { NOT = { was_tag = G32 } }
		picture = GOOD_WITH_MONARCH_eventPicture
	}
	picture = {
	   trigger = { was_tag = G32 }
		picture = REFORM_eventPicture
	}
	
	is_triggered_only = yes
	major = yes
	
	option = {
		trigger = {
			NOT = {
				was_tag = G32
			}
		}
		name = ynn_events.2.a
		if = {
			limit = { has_custom_ideas = no }
			country_event = { id = ideagroups.1 } #Swap Ideas
		}
		country_event = { id = ynn_events.5 days = 30 }
	}
	
	option = {
		trigger = {
			was_tag = G32
		}
		name = ynn_events.2.b
		change_government = monarchy
		add_government_reform = feudalism_reform
		remove_country_modifier = g32_battleking_grace_period
		remove_country_modifier = g32_battleking_fought_recently
		remove_country_modifier = g32_cowardly_battleking
		remove_country_modifier = g32_untested_battleking
		remove_country_modifier = g32_tested_battleking
		remove_country_modifier = g32_bloodied_battleking
		remove_country_modifier = g32_veteran_battleking
		remove_country_modifier = g32_legendary_battleking
		if = {
			limit = { has_custom_ideas = no }
			country_event = { id = ideagroups.1 } #Swap Ideas
		}
		country_event = { id = ynn_events.5 days = 30 }
	}
}

#Ynnic Empire restoration, Rzentur version
country_event = {
	id = ynn_events.3
	title = ynn_events.3.t
	desc = ynn_events.3.d
	picture = GOOD_WITH_MONARCH_eventPicture
	
	is_triggered_only = yes
	major = yes
	
	option = {
		name = ynn_events.3.a
		if = {
			limit = { has_custom_ideas = no }
			country_event = { id = ideagroups.1 } #Swap Ideas
		}
		country_event = { id = ynn_events.5 days = 30 }
	}
}

#Ynnic Empire restoration, Outsider version
country_event = {
	id = ynn_events.4
	title = ynn_events.4.t
	desc = ynn_events.4.d
	picture = GOOD_WITH_MONARCH_eventPicture
	
	is_triggered_only = yes
	major = yes
	
	option = {
		name = ynn_events.4.a
		if = {
			limit = { has_custom_ideas = no }
			country_event = { id = ideagroups.1 } #Swap Ideas
		}
		country_event = { id = ynn_events.5 days = 30 }
	}
}

#Choose a new capital for the Ynnic Empire
country_event = {
	id = ynn_events.5
	title = ynn_events.5.t
	desc = ynn_events.5.desc
	picture = FORT_eventPicture
	
	is_triggered_only = yes
	
	option = {
		name = ynn_events.5.a
		
		ai_chance = {
			factor = 3
			modifier = {
				factor = 3
				OR = {
					capital = 1139
					capital = 1171
					capital = 1191
				}
			}
		}
	}
	
	option = {
		name = ynn_events.5.b
		
		trigger = { NOT = { capital = 1139 } }
		
		if = {
			limit = { NOT = { is_core = 1139 } }
			1139 = { add_core = ROOT }
		}
		
		if = {
			limit = { NOT = { owns = 1139 } }
			1139 = { cede_province = ROOT }
		}
		
		set_capital = 1139
		
		ai_chance = {
			factor = 1
			modifier = {
				factor = 3
				primary_culture = sarda
			}
		}
	}
	
	option = {
		name = ynn_events.5.c
		
		trigger = { NOT = { capital = 1171 } }
		
		if = {
			limit = { NOT = { is_core = 1171 } }
			1171 = { add_core = ROOT }
		}
		
		if = {
			limit = { NOT = { owns = 1171 } }
			1171 = { cede_province = ROOT }
		}
		
		set_capital = 1171
		
		ai_chance = {
			factor = 1
			modifier = {
				factor = 3
				primary_culture = dolindhan
			}
		}
	}
	
	option = {
		name = ynn_events.5.d
		
		trigger = { NOT = { capital = 1191 } }
		
		if = {
			limit = { NOT = { is_core = 1191 } }
			1191 = { add_core = ROOT }
		}
		
		if = {
			limit = { NOT = { owns = 1191 } }
			1191 = { cede_province = ROOT }
		}
		
		set_capital = 1191
		
		ai_chance = {
			factor = 1
			modifier = {
				factor = 3
				primary_culture = rzentur
			}
		}
	}
}

#iosahar drifts away
#country_event = {
#	id = ynn_events.6
#	title = ynn_events.6.t
#	desc = ynn_events.6.d
#	picture = ACCUSATION_eventPicture
#	goto = iosahar_into_tributary_capital
#	
#	is_triggered_only = yes
#	trigger = {
#		has_country_modifier = ynn_diplo
#		any_subject_country = {
#			is_subject_of_type = ynnic_iosahar
#			NOT = { is_neighbor_of = ROOT }
#			liberty_desire = 20
#		}
#		NOT = { 
#			has_country_flag = yrw_overlord_debating
#			stability = 3
#		}
#	}
#	
#	immediate = {
#		hidden_effect = {
#			random_subject_country = {
#				limit = {
#					is_subject_of_type = ynnic_iosahar
#					NOT = { is_neighbor_of = ROOT }
#					liberty_desire = 20
#				}
#				save_event_target_as = iosahar_into_tributary_target
#				capital_scope = {
#					save_event_target_as = iosahar_into_tributary_capital
#				}
#			}
#			random_subject_country = {
#				limit = {
#					is_subject_of_type = ynnic_iosahar
#					NOT = { is_neighbor_of = ROOT }
#					liberty_desire = 50	#Prioritizes disloyal vassals
#				}
#				save_event_target_as = iosahar_into_tributary_target
#				capital_scope = {
#					save_event_target_as = iosahar_into_tributary_capital
#				}
#			}
#		}
#	}
#	
#	option = {
#		name = ynn_events.6.a
#		trigger = {
#			has_dlc = "El Dorado"
#			authority = 5
#		}
#		ai_chance = {
#			factor = 5
#			modifier = {
#				factor = 2
#				NOT = { ynnic_iosahar = 3 }
#			}
#		}
#		
#		custom_tooltip = iosahar_goes_tributary_dlc_tooltip
#		add_authority = -5
#	}
#	
#	option = {
#		name = ynn_events.6.a
#		trigger = {
#			NOT = { has_dlc = "El Dorado" }
#			legitimacy = 5		#insert whatever currency you replace legitimacy with
#		}
#		ai_chance = {
#			factor = 5
#			modifier = {
#				factor = 2
#				NOT = { ynnic_iosahar = 3 }
#			}
#		}
#		
#		custom_tooltip = iosahar_goes_tributary_no_dlc_tooltip
#		add_legitimacy = -5		#insert whatever currency you replace legitimacy with
#	}
#
#	option = {
#		name = ynn_events.6.b
#		
#		trigger = {
#			has_dlc = "Mandate of Heaven"
#		}
#		ai_chance = {
#			factor = 3
#			modifier = {
#				factor = 3
#				ynnic_iosahar = 8
#			}
#		}
#		
#		custom_tooltip = iosahar_goes_tributary_dlc_tooltip
#		event_target:iosahar_into_tributary_target = {
#			ROOT = {
#				create_subject = {
#					subject_type = tributary_state
#					subject = PREV
#				}
#			}
#			hidden_effect = { country_event = { id = ynn_events.18 } }
#		}
#	}
#
#	option = {
#		name = ynn_events.6.c
#		
#		trigger = {
#			NOT = { has_dlc = "Mandate of Heaven" }
#		}
#		ai_chance = {
#			factor = 3
#			modifier = {
#				factor = 3
#				ynnic_iosahar = 8
#			}
#		}
#		
#		custom_tooltip = iosahar_goes_tributary_no_dlc_tooltip
#		event_target:iosahar_into_tributary_target = {
#			grant_independence = yes
#			hidden_effect = { country_event = { id = ynn_events.18 } }
#		}
#	}
#}

#The Great Iosahar Insurrection
country_event = {
	id = ynn_events.7
	title = ynn_events.7.t
	desc = {
		trigger = { has_country_flag = ynn_civil_war_iosahar }
	   desc = ynn_events.7.d1
	}
	desc = {
	   trigger = { has_country_flag = ynn_civil_war_religion }
	   desc = ynn_events.7.d2
	}
	picture = ACCUSATION_eventPicture
	
	is_triggered_only = yes
	trigger = {
		NOT = { is_companion = yes }
		liberty_desire = 30
		is_subject_of_type = ynnic_iosahar
	}
	
	immediate = {
		hidden_effect = {
			save_event_target_as = ynn_civil_war_leader
		}
	}
	
	option = {
		name = ynn_events.7.a		
		
		ai_chance = {
			factor = 1
		}
		
		grant_independence = yes
		
		FROM = {
			every_subject_country = {
				limit = {
					is_subject_of_type = ynnic_iosahar
					liberty_desire = 30
				}
				event_target:ynn_civil_war_leader = {
					create_subject = {
						subject_type = ynnic_iosahar
						subject = PREV
					}
				}
			}
			country_event = { id = ynn_events.8 }
		}
		declare_war_with_cb = {
			who = FROM
			casus_belli = cb_iosahar_annex
		}
	}

	option = {
		name = ynn_events.7.b
		
		ai_chance = {
			factor = 0
		}
		add_prestige = -10
	}
	
	after = {
		event_target:ynn_civil_war_leader = {
			every_subject_country = {
				add_liberty_desire = -50
			}
		}
	}
}

#The Great Iosahar Insurrection
country_event = {
	id = ynn_events.8
	title = ynn_events.8.t
	desc = {
		trigger = { FROM = { has_country_flag = ynn_civil_war_iosahar } }
	   desc = ynn_events.8.d1
	}
	desc = {
	   trigger = { FROM = { has_country_flag = ynn_civil_war_religion } }
	   desc = ynn_events.8.d2
	}
	picture = CIVIL_WAR_eventPicture
	
	is_triggered_only = yes
	
	option = {
		name = ynn_events.8.a		
		
		ai_chance = {
			factor = 1
		}
		
		add_stability = -1
		custom_tooltip = ynn_events_8_tooltip
		#tooltip = {	#broken, tooltip doesn't show
		#	FROM = {
		#		declare_war_with_cb = {
		#			who = ROOT
		#			casus_belli = cb_iosahar_annex
		#		}
		#	}
		#}
	}
	
	after = {
		FROM = {
			clr_country_flag = ynn_civil_war_iosahar
			clr_country_flag = ynn_civil_war_religion
		}
	}
}

country_event = {	#Event used to turn someone into a Iosahar. Use ynn_events.20 if you want it to be hidden
	id = ynn_events.9
	title = ynn_events.9.t
	desc = {
		trigger = { NOT = { has_reform = malacnar_monarchy } }
	   desc = ynn_events.9.d1
	}
	desc = {
	   trigger = { has_reform = malacnar_monarchy }
	   desc = ynn_events.9.d2
	}
	picture = CONQUEST_eventPicture

	is_triggered_only = yes
	
	trigger = {
		NOT = { has_country_flag = ynnic_debug_subjugation }
		#FROM = { has_country_modifier = ynn_diplo }
	}
	
	immediate = {
		set_country_flag = ynnic_debug_subjugation
		set_country_flag = ynnic_debug_subjugation_2
	}
	
	option = {
		name = ynn_events.9.a
		ai_chance = { factor = 1 }
		hidden_effect = { clr_country_flag = ynnic_debug_subjugation }
		add_prestige = -25
		every_subject_country = {
			limit = {
				is_subject_of_type = ynnic_iosahar
			}
			FROM = {
				create_subject = {
					subject_type = ynnic_iosahar
					subject = PREV
				}
			}
		}
		tooltip = {
			FROM = {
				create_subject = {
					subject_type = ynnic_iosahar
					subject = ROOT
				}
			}
		}
		hidden_effect = {
			if = {	#cleaning allies for an overlord
				limit = {
					FROM = {
						ynnic_iosahar = 1
						has_country_modifier = ynn_diplo
						num_of_allies = 1
					}
				}
				ROOT = {
					if = {
						limit = {
							is_subject_of = FROM
							is_subject_of_type = ynnic_iosahar
						}
					}
					create_subject = {
						subject_type = vassal
						subject = FROM
					}
					FROM = {
						grant_independence = yes
					#	create_subject = {
					#		subject_type = ynnic_iosahar
					#		subject = ROOT
					#	}
					}
				}
			}
		}
		
		if = {
			limit = {
				has_reform = malacnar_monarchy
			}
			FROM = { country_event = { id = flavor_malacnar.200 } }
		}
	}
	
	after = {
		clr_country_flag = ynnic_debug_subjugation_2
		FROM = {	#Aftereffect takes care of the double overlords bug
			create_subject = {
				subject_type = ynnic_iosahar
				subject = ROOT
			}
		}
	}
}

#Iosahar Defects Due to Alliance
country_event = {
	id = ynn_events.10
	title = ynn_events.10.t
	desc = ynn_events.10.d
	picture = SIEGE_eventPicture

	is_triggered_only = yes
	
	trigger = {
		FROM = {
			has_country_modifier = ynn_diplo
			NOT = { has_country_flag = ynnic_debug_subjugation_2 }	#To fix a subjugated overlord getting this event on its former iosahar
		}
		any_ally = {
			war_with = FROM
		}
	}
	
	option = {
		name = ynn_events.10.a		
		
		ai_chance = {
			factor = 1
		}
		
		FROM = {
			add_opinion = {
				who = ROOT
				modifier = ynn_overlord_at_war_with_iosahar
			}
			add_trust = {
				who = ROOT
				value = -5
				mutual = yes	#Mutual loss of trust is so that you won't purposefully declare war on your Iosahar's allies to use the Iosahar as a piggy bank
			}
			add_prestige = -5 
		}
		
		custom_tooltip = you_as_iosahar_defect_tooltip
		hidden_effect = { FROM = { country_event = { id = ynn_events.11 } } }
	}
}

#Overlord is Informed of Iosahar Defection
country_event = {
	id = ynn_events.11
	title = ynn_events.11.t
	desc = ynn_events.11.d
	picture = SIEGE_eventPicture

	is_triggered_only = yes
	
	#hidden = yes #Can hide it if it's too obnoxious
	
	option = {
		name = ynn_events.11.a		
		
		ai_chance = {
			factor = 1
		}
		
		tooltip = {
			add_opinion = {
				who = FROM
				modifier = ynn_overlord_at_war_with_iosahar
			}
			add_trust = {
				who = FROM
				value = -5
				mutual = yes
			}
			add_prestige = -5 
		}
	
		custom_tooltip = iosahar_defects_tooltip
	}
}

#Iosahar-overlord war ends
country_event = {
	id = ynn_events.12
	title = ynn_events.12.t
	desc = ynn_events.12.d
	picture = REFORM_eventPicture

	is_triggered_only = yes
	
	trigger = {
		FROM = { has_country_modifier = ynn_diplo }	#Defeated by a country that observes Ynnic Diplomacy
	}
	
	hidden = yes
	
	option = {
		name = ynn_events.12.a		
		
		ai_chance = {
			factor = 1
		}
		
		country_event = { id = ynn_events.13 }
		every_ally = { country_event = { id = ynn_events.13 } }
	}
}

#Sorter Event
country_event = {
	id = ynn_events.13
	title = ynn_events.13.t
	desc = ynn_events.13.d
	picture = RELIGION_eventPicture

	is_triggered_only = yes
	
	hidden = yes
	
	trigger = {
		any_known_country = {
			OR = {
				has_opinion_modifier = {	
					who = ROOT
					modifier = ynn_overlord_at_war_with_iosahar
				}
				reverse_has_opinion_modifier = {	
					who = ROOT
					modifier = ynn_overlord_at_war_with_iosahar
				}
			}
		}
	}
	
	option = {
		name = ynn_events.13.a
		
		ai_chance = {
			factor = 1
		}
		
		random_known_country = {	#Checks if you are a Iosahar defector, you regain them
			limit = { 
				has_opinion_modifier = {	
					who = ROOT
					modifier = ynn_overlord_at_war_with_iosahar
				}
			}
			country_event = { id = ynn_events.14 }
			overlord = {			#In case the overlord has been made into a Iosahar, the new overlord gets it. This scenario is currently impossible, as making an overlord into a Iosahar will make them lose the defector
				country_event = { id = ynn_events.14 } 
				set_country_flag = ynn_14_overlord
			}
		}
		
		random_known_country = {	#Checks if you have any Iosahar defector, you lose em
			limit = { 
				reverse_has_opinion_modifier = {	
					who = ROOT
					modifier = ynn_overlord_at_war_with_iosahar
				}
			}
			country_event = { id = ynn_events.15 }
		}
	}
}

#Your Iosahar is returned
country_event = {
	id = ynn_events.14
	title = ynn_events.14.t
	desc = {
		trigger = { NOT = { has_country_flag = ynn_14_overlord } }
	   desc = ynn_events.14.d1
	}
	desc = {
	   trigger = { has_country_flag = ynn_14_overlord }
	   desc = ynn_events.14.d2
	}
	picture = CONQUEST_eventPicture

	is_triggered_only = yes
	
	trigger = { is_subject = no }
	
	immediate = {
		hidden_effect = {
			remove_opinion = {
				who = FROM
				modifier = ynn_overlord_at_war_with_iosahar
			}
			FROM = { country_event = { id = ynn_events.20 } }
		}
	}
	
	option = {
		name = ynn_events.14.a
		
		ai_chance = {
			factor = 1
		}
		
		tooltip = {
			remove_opinion = {
				who = FROM
				modifier = ynn_overlord_at_war_with_iosahar
			}
			create_subject = {
				subject_type = ynnic_iosahar
				subject = FROM
			}
		}
		
		add_prestige = 10
		
		clr_country_flag = ynn_14_overlord
	}
}

#Defector Iosahar goes free
country_event = {
	id = ynn_events.15
	title = ynn_events.15.t
	desc = ynn_events.15.d
	picture = RELIGION_eventPicture

	is_triggered_only = yes
	
	hidden = yes
	
	immediate = {
		hidden_effect = {
			FROM = {
				remove_opinion = {
					who = ROOT
					modifier = ynn_overlord_at_war_with_iosahar
				}
			}
		}
	}
	
	option = {
		name = ynn_events.15.a
		
		ai_chance = {
			factor = 1
		}
		
		FROM = {
			add_opinion = {
				who = ROOT
				modifier = vassal_broke_free
			}
			add_trust = {
				who = ROOT
				value = -5
				mutual = yes
			}
			add_prestige = -5
			country_event = { id = ynn_events.16 }
		}
	}
}

#You are informed your defector Iosahar went free
country_event = {
	id = ynn_events.16
	title = ynn_events.16.t
	desc = ynn_events.16.d
	picture = COUNTRY_COLLAPSE_eventPicture

	is_triggered_only = yes
	
	option = {
		name = ynn_events.16.a
		
		ai_chance = {
			factor = 1
		}
		
		tooltip = {
			add_opinion = {
				who = FROM
				modifier = vassal_broke_free
			}
			add_trust = {
				who = FROM
				value = -5
				mutual = yes
			}
			add_prestige = -5
		}
	}
}

#The Dragon Kingdom - Rzentur ditch Ynnic Diplomacy
country_event = {
	id = ynn_events.17
	title = ynn_events.17.t
	desc = ynn_events.17.d
	picture = CONQUEST_eventPicture

	is_triggered_only = yes
	fire_only_once = yes
	
	trigger = {	#Is a Drozma Tur Rzentur who has vassalized or annexed every other Rzentur.
		religion = drozma_tur
		has_country_modifier = ynn_diplo
		is_subject = no
		NOT = { is_year = 1500 }	#Stops the checks after the first century, just end the iosahar by decision afterwards
		primary_culture = rzentur
		all_known_country = {
			OR = {
				NOT = { religion = drozma_tur }
				is_subject_of = ROOT
			}
		}
	}
	
	immediate = {	#If you have non-Drozma Tur / non-Rzentur subjects, they rise up in rebellion
		hidden_effect = {
			random_subject_country = {
				limit = {
					is_subject_of_type = ynnic_iosahar
					NOT = { primary_culture = rzentur }
					liberty_desire = 20
					all_known_country = {
						NOT = {
							AND = {
								is_subject_of_type = ynnic_iosahar
								is_subject_of = ROOT
								total_development = PREV
								NOT = { primary_culture = rzentur }
								liberty_desire = 20
							}
						}
					}
				}
				set_country_flag = ynn_civil_war_iosahar
				save_event_target_as = iosahar_ynn_17
			}
		}
	}
	
	option = {
		name = ynn_events.17.a
		
		ai_chance = {
			factor = 1
		}
		
		remove_country_modifier = ynn_diplo
		
		if = {
			limit = {
				ynnic_iosahar = 1
			}
			custom_tooltip = ynn_17_tooltip
			hidden_effect = {
				every_subject_country = {
					limit = {
						is_subject_of_type = ynnic_iosahar
						primary_culture = rzentur
						NOT = { has_country_flag = ynn_civil_war_iosahar }
					}
					remove_country_modifier = ynn_diplo
					ROOT = {
						create_subject = {
							subject_type = vassal
							subject = PREV
						}
					}
				}
				every_subject_country = {
					add_liberty_desire = 20
					add_trust = {
						who = ROOT
						value = -10
						mutual = no
					}
				}
			}
			
			if = {	#Checks if there's enough non-Rzentur / non-DT countries for a rebellion
				limit = {
					any_subject_country = {
						is_subject_of_type = ynnic_iosahar
						has_country_flag = ynn_civil_war_iosahar
					}
					any_subject_country = {
						is_subject_of_type = ynnic_iosahar
						NOT = { primary_culture = rzentur }
						NOT = { has_country_flag = ynn_civil_war_iosahar }
						liberty_desire = 20
					}
				}
				custom_tooltip = ynn_17_tooltip_really_good_idea
				hidden_effect = {
					event_target:iosahar_ynn_17 = {
						set_country_flag = ynn_civil_war_iosahar
						country_event = { id = ynn_events.7 }
					}
				}
			}
			else = {
				hidden_effect = {
					event_target:iosahar_ynn_17 = {
						remove_country_modifier = ynn_diplo
						ROOT = {
							create_subject = {
								subject_type = vassal
								subject = PREV
							}
						}
						clr_country_flag = ynn_civil_war_iosahar
					}
					every_subject_country = {
						limit = {
							is_subject_of_type = ynnic_iosahar
							NOT = { primary_culture = rzentur }
						}
						remove_country_modifier = ynn_diplo
						ROOT = {
							create_subject = {
								subject_type = vassal
								subject = PREV
							}
						}
					}
				}
			}
		}
		
		add_country_modifier = {
			name = "ruling_like_dragons"
			duration = 7300
		}
	}
	
	option = {
		name = ynn_events.17.b
		
		trigger = {
			ynnic_iosahar = 2
		}
		
		ai_chance = {
			factor = 1
			
			modifier = {
				factor = 0
				NOT = { tag = G23 }
			}
		}
	}
}

#iosahar drifts away
country_event = {
	id = ynn_events.18
	title = ynn_events.18.t
	desc = {
		trigger = { is_subject_of_type = tributary_state }
		desc = ynn_events.18.d1
	}
	desc = {
		trigger = { is_subject = no }
		desc = ynn_events.18.d2
	}
	picture = COURT_eventPicture
	
	is_triggered_only = yes
	
	option = {
		name = ynn_events.18.a
		ai_chance = {
			factor = 1
		}
		
		if = {
			limit = { is_subject_of_type = tributary_state }
			tooltip = {
				FROM = {
					create_subject = {
						subject_type = tributary_state
						subject = ROOT
					}
				}
			}
		}
		
		FROM = {
			add_trust = {
				who = ROOT
				value = -10
				mutual = yes
			}
		}
	}
}

#iosahar doesn't get inherited
country_event = {
	id = ynn_events.19
	title = ynn_events.19.t
	desc = ynn_events.19.d
	picture = COUNTRY_COLLAPSE_eventPicture
	
	is_triggered_only = yes
	
	hidden = yes
	
	trigger = {
		is_subject_of_type = ynnic_iosahar
		FROM = {
			NOT = { has_country_modifier = ynn_diplo }
		}
		is_companion = no
	}
	
	option = {
		name = ynn_events.19.a
		ai_chance = {
			factor = 1
		}
		
		grant_independence = yes
		
	}
}

country_event = {	#Hidden event used to turn someone into a Iosahar. Use ynn_events.9 if you want it to be visible
	id = ynn_events.20
	title = ynn_events.20.t
	desc = ynn_events.20.d
	picture = RELIGION_eventPicture

	is_triggered_only = yes
	hidden = yes
	
	trigger = {
		NOT = { has_country_flag = ynnic_debug_subjugation }
		#FROM = { has_country_modifier = ynn_diplo }
	}
	
	immediate = {
		set_country_flag = ynnic_debug_subjugation
		set_country_flag = ynnic_debug_subjugation_2
	}
	
	option = {
		name = ynn_events.20.a
		ai_chance = { factor = 1 }
		hidden_effect = { clr_country_flag = ynnic_debug_subjugation }
		every_subject_country = {
			limit = {
				is_subject_of_type = ynnic_iosahar
			}
			FROM = {
				create_subject = {
					subject_type = ynnic_iosahar
					subject = PREV
				}
			}
		}
		tooltip = {
			FROM = {
				create_subject = {
					subject_type = ynnic_iosahar
					subject = ROOT
				}
			}
		}
		hidden_effect = {
			if = {	#cleaning allies for an overlord
				limit = {
					FROM = {
						ynnic_iosahar = 1
						has_country_modifier = ynn_diplo
						num_of_allies = 1
					}
				}
				ROOT = {
					if = {
						limit = {
							is_subject_of = FROM
							is_subject_of_type = ynnic_iosahar
						}
					}
					create_subject = {
						subject_type = vassal
						subject = FROM
					}
					FROM = {
						grant_independence = yes
					#	create_subject = {
					#		subject_type = ynnic_iosahar
					#		subject = ROOT
					#	}
					}
				}
			}
		}
	}
	
	after = {
		clr_country_flag = ynnic_debug_subjugation_2
		FROM = {	#Aftereffect takes care of the double overlords bug
			create_subject = {
				subject_type = ynnic_iosahar
				subject = ROOT
			}
		}
	}
}

country_event = {	#Background event to transfer Iosahar of Iosahar to the top overlord
	id = ynn_events.21
	title = ynn_events.21.t
	desc = ynn_events.21.d
	picture = RELIGION_eventPicture

	is_triggered_only = yes
	hidden = yes
	
	trigger = {
		ynnic_iosahar = 1
		is_subject = no
		any_subject_country = {
			is_subject_of_type = ynnic_iosahar
			ynnic_iosahar = 1
		}
	}
	
	option = {
		name = ynn_events.21.a
		ai_chance = { factor = 1 }
		
		every_subject_country = {
			limit = {
				is_subject_of_type = ynnic_iosahar
				ynnic_iosahar = 1
			}
			every_subject_country = {
				limit = {
					is_subject_of_type = ynnic_iosahar
				}
				grant_independence = yes # So you don't get a double subject
				country_event = { id = ynn_events.9 }
			}
		}
	}
}